@startuml
autonumber
'hide footbox
actor "Center Coordinator" as U

participant ":ImportLegacyUI" as ui
participant ":LoadFromFileCSV" as load
participant ":VaccineAdministrationDTO" as vadto
participant ":ImportLegacyController" as ctrl
participant ":TreatLegacySystemData" as TLSD
participant ":VaccineAdministrationMapper" as vamapper
participant ":SNSUserStore" as UStore
participant ":SortByDateAndTime" as sort
participant ":Company" as COMP
participant "vcStore:VaccinationCenterStore" as VCS
participant "vcList:List<VaccinationCenter>" as VCL
participant "vc:VaccinationCenter" as VC
participant ":DateUtils" as du
participant ":TimeUtils" as tu
participant "snsStore:SNSUSerStore" as snsStore
participant ":snsUser" as snsu
participant ":VaccineAdministration" as vacadmin
participant "vacStore:VaccineStore" as vacStore
participant "getProps:GetPropertyValues" as PROP

activate U

U -> ui : asks to import data from a legacy system
activate ui
deactivate ui

U -> ui : selects file
activate ui
ui-> load : csvFileContents = loadFromFile(selectedFile)
activate load
deactivate load
deactivate ui

U -> ui : selects how wants to sort data
activate ui
deactivate ui

U -> ui : selects to show data
activate ui
ui->ctrl:vc=getVaccinationCenterOfCoordinator()
activate ctrl
ctrl->COMP:vcs=getVaccinationCenterStore()
activate COMP
COMP--> VCS:get()
activate VCS
deactivate VCS
deactivate COMP

ctrl->VCS:vc=getVaccinationCenterOfCoordinator()
activate VCS

VCS-->VCL:vcList=get()
activate VCL
deactivate VCL
loop for each vaccination center in vaccination center list: compare if center coordinator is same as login
VCS->VCL:vc=get()
activate VCL
deactivate VCL
VCS->VC:compareCenterCoordinatorWithCurrentLogin()
activate VC
deactivate VC
deactivate VCS
end
deactivate ctrl
ui->TLSD: seeWhichOnesAreParsable = treatSystemLegacyData(csvFileContents)
activate TLSD
TLSD->TLSD: save = seeIfDateAndTimeAreValid(fileLine)
activate TLSD
TLSD->du: save = seeIfItsParsable(line with date)
activate du
du -> du: seeIfItsANumber(line)
activate du
deactivate du

du->du: confirmDay(day, month)
activate du
deactivate du
deactivate du
TLSD->tu: seeIfItsParsable(line with time)
activate tu
tu->tu: seeIfItsANumber(line)
activate tu
deactivate tu
deactivate tu
deactivate TLSD
deactivate TLSD

ui-> ctrl: infoToShow = treatRawData(seeWhichOnesAreParsable, vc, typeOfsort)
activate ctrl
ctrl->ctrl:treatToMakeDTO = treatToMAkeDTO(seeWhichOnesAreParsable)
activate ctrl
ctrl->TLSD: treatToMakeDTO = treatToMakeDTOOfVaccineAdministration(seeWhichOnesAreParsable)
activate TLSD
loop for each line of the seeWhichOnesAreParsable
TLSD->TLSD: lineToAdd(line)
activate TLSD
deactivate TLSD
deactivate TLSD
end
deactivate ctrl
ctrl->ctrl: infoInDTO = csvFileContentsToDTO(treatToMakeDTO)
activate ctrl
ctrl-> vamapper: infoInDTO = transformListOfListsToDTO(treatToMakeDTO)
activate vamapper
loop for each line of treatToMakeDTO
vamapper->vamapper: add = StringVaccineAdministrationToDTO(lineToBeDTO)
activate vamapper
vamapper-> vamapper: doseNumber = defineDoseNumber(doseString)
activate vamapper
deactivate vamapper
deactivate vamapper
deactivate vamapper
end
deactivate ctrl

ctrl->ctrl: dtoToObject = toObject(infoInDTO)
activate ctrl
ctrl->vamapper: dtoToObject = transformListOfDTOInVaccineAdmin(infoInDTO)
activate vamapper
loop for each line of infoInDTO
vamapper->vamapper: add = dtoToVaccineAdministration(line)
activate vamapper
deactivate vamapper
deactivate vamapper
end
deactivate ctrl

ctrl->ctrl: withValidUsers = searchValidUsers(dtoToObject)
activate ctrl
ctrl->COMP: snsStore = getSNSUserStore()
activate COMP
COMP-> snsStore: get()
deactivate COMP
loop for each line of dtoToObject
ctrl->snsu: boolean = verifyIfSNSUserNumberIsCorrect(line.getNumber)
activate snsu
deactivate snsu
ctrl->snsStore: confirmIfUserExists(line.getNumber)
activate snsStore
deactivate snsStore
deactivate ctrl
end
ctrl->ctrl: withValidLotNumber = verifyIfLotNumbersAreInTheCorrectFormat(withValidUsers)
activate ctrl
loop for each line of withValidUsers
ctrl-> vacadmin: boolean = confirmLotNumber(line.getLotNumber)
activate vacadmin
deactivate vacadmin
deactivate ctrl
ctrl->ctrl: withValidVaccine = verifyIfVaccineNameExists(withValidLotNumber)
activate ctrl
ctrl->COMP: vacStore = getVaccineStore()
activate COMP
COMP-> vacStore: get()
activate vacStore
deactivate vacStore
deactivate COMP
loop for each line of withValidLotNumber
ctrl -> vacStore: boolean = vaccineIsRegistered(line.getVaccineName)
activate vacStore
loop while don't finds the same vaccine name that has in store or gets to the last item of getVaccineStoreList
deactivate vacStore
deactivate ctrl
end
end
ctrl-> ctrl: addObjectsThatAreNewToTheStore(withValidVaccine, vc)
activate ctrl
loop for each line of withValidVaccine
ctrl->VC: verifyRepeatedObjects(line)
activate VC
loop until finds a repeated object or until the list of vaccineAdministrationList ends
alt found a new object
VC->VC: addObjectToVAList
activate VC
deactivate VC
end
deactivate VC
end
deactivate ctrl
ctrl->ctrl: sortList(withValidVaccine, typeOfSort)
activate ctrl

ctrl-->PROP:getProps=create()
activate PROP
deactivate PROP
ctrl->PROP:algorithm=getPropValues("Sort")
activate PROP
deactivate PROP

alt algorithm = "Bubble sort"
ctrl->sort: bubbleSort(finalDataToSort, typeOfSort)
activate sort
    alt typeOfSort = "Arrival time"
    sort->sort: bubbleSortForArrivalTime(finalDataToSort)
    activate sort
    deactivate sort
    else typeOfSort = "Arrival time"
    sort->sort: bubbleSortForLeavingTime(finalDataToSort)
    activate sort
    deactivate sort
    end
    deactivate sort
else algorithm = "Quick sort"
ctrl->sort: quickSort(finalDataToSort, typeOfSort)
activate sort
    alt typeOfSort = "Arrival time"
        sort->sort: quickSortArrivalTime(finalDataToSort)
        activate sort
        deactivate sort
        else typeOfSort = "Arrival time"
        sort->sort: quickSortLeavingTime(finalDataToSort)
        activate sort
        deactivate sort
        end
        deactivate sort
deactivate sort
end
deactivate ctrl
ctrl->ctrl: dataToUI= vaccineAdministrationsToDTO(withValidVaccine)
activate ctrl
ctrl->vamapper: infoInDTO = transformListOfVaccineAdministrationsToDTO(withValidVaccine)
activate vamapper
loop for each line of withValidVaccine
vamapper->vamapper: add = vaccineAdministrationToDTO(line)
activate vamapper
vamapper->vadto: create()
activate vadto
deactivate vadto
deactivate vamapper
deactivate vamapper
end
deactivate ctrl
ctrl->ctrl: toTableView = getLastData(toTableView, dataToUI)
activate ctrl
loop for each line of dataToUI
ctrl->ctrl: addList(line)
activate ctrl
deactivate ctrl
deactivate ctrl
end
deactivate ctrl
ui--> U: shows imported data sorted how the user selected



deactivate U

@enduml