@startuml
autonumber
actor "Center Coordinator" as U

activate U
U -> ":System" : asks to import data from a legacy system
activate ":System"
deactivate ":System"

U -> ":System" : selects file
activate ":System"
deactivate ":System"

U -> ":System" : selects how wants to sort data
activate ":System"
deactivate ":System"

U -> ":System" : selects to show data
activate ":System"
":System" --> U : shows data and informs operation success
deactivate ":System"

deactivate U

@enduml