<?xml version="1.0" encoding="UTF-8" standalone="no"?><svg xmlns="http://www.w3.org/2000/svg" xmlns:xlink="http://www.w3.org/1999/xlink" contentStyleType="text/css" height="322.8px" preserveAspectRatio="none" style="width:460px;height:322px;background:#FFFFFF;" version="1.1" viewBox="0 0 460 322" width="460px" zoomAndPan="magnify"><defs/><g><!--MD5=[1eab586b2d892e406b67662793bf7ce1]
class CenterPerformance--><g id="elem_CenterPerformance"><rect codeLine="5" fill="#F1F1F1" height="35.7859" id="CenterPerformance" rx="1" ry="1" style="stroke:#181818;stroke-width:0.20000000000000004;" width="67.6" x="119.2" y="156.4"/><ellipse cx="125.2" cy="162.8" fill="#ADD1B2" rx="4.4" ry="4.4" style="stroke:#181818;stroke-width:0.4000000000000001;"/><path d="M126.1893,165.2572 Q125.9568,165.3768 125.7012,165.4365 Q125.4455,165.4963 125.1633,165.4963 Q124.1605,165.4963 123.6326,164.8355 Q123.1047,164.1748 123.1047,162.9264 Q123.1047,161.6746 123.6326,161.0139 Q124.1605,160.3531 125.1633,160.3531 Q125.4455,160.3531 125.7045,160.4129 Q125.9635,160.4727 126.1893,160.5922 L126.1893,161.6813 Q125.9369,161.4488 125.6995,161.3409 Q125.4621,161.233 125.2098,161.233 Q124.6719,161.233 124.3979,161.6597 Q124.124,162.0863 124.124,162.9264 Q124.124,163.7631 124.3979,164.1897 Q124.6719,164.6164 125.2098,164.6164 Q125.4621,164.6164 125.6995,164.5085 Q125.9369,164.4006 126.1893,164.1682 Z " fill="#000000"/><text fill="#000000" font-family="sans-serif" font-size="5.6" font-weight="bold" lengthAdjust="spacing" textLength="54.8" x="130.8" y="164.9164">CenterPerformance</text><line style="stroke:#181818;stroke-width:0.20000000000000004;" x1="119.6" x2="186.4" y1="169.2" y2="169.2"/><text fill="#000000" font-family="sans-serif" font-size="5.6" lengthAdjust="spacing" textLength="36.8" x="121.6" y="176.2141">differenceList</text><text fill="#000000" font-family="sans-serif" font-size="5.6" lengthAdjust="spacing" textLength="43.6" x="121.6" y="182.8094">maxSumSubList</text><text fill="#000000" font-family="sans-serif" font-size="5.6" lengthAdjust="spacing" textLength="24" x="121.6" y="189.4047">maxSum</text></g><!--MD5=[de60e6d4f424ae4d0522096f76a59010]
class VaccinationCenter--><g id="elem_VaccinationCenter"><rect codeLine="11" fill="#F1F1F1" height="88.5484" id="VaccinationCenter" rx="1" ry="1" style="stroke:#181818;stroke-width:0.20000000000000004;" width="87.6" x="369.6" y="52.4"/><ellipse cx="386.76" cy="58.8" fill="#ADD1B2" rx="4.4" ry="4.4" style="stroke:#181818;stroke-width:0.4000000000000001;"/><path d="M387.7493,61.2572 Q387.5168,61.3768 387.2612,61.4365 Q387.0055,61.4963 386.7233,61.4963 Q385.7205,61.4963 385.1926,60.8355 Q384.6647,60.1748 384.6647,58.9264 Q384.6647,57.6746 385.1926,57.0139 Q385.7205,56.3531 386.7233,56.3531 Q387.0055,56.3531 387.2645,56.4129 Q387.5235,56.4727 387.7493,56.5922 L387.7493,57.6813 Q387.4969,57.4488 387.2595,57.3409 Q387.0221,57.233 386.7698,57.233 Q386.2319,57.233 385.9579,57.6597 Q385.684,58.0863 385.684,58.9264 Q385.684,59.7631 385.9579,60.1897 Q386.2319,60.6164 386.7698,60.6164 Q387.0221,60.6164 387.2595,60.5085 Q387.4969,60.4006 387.7493,60.1682 Z " fill="#000000"/><text fill="#000000" font-family="sans-serif" font-size="5.6" lengthAdjust="spacing" textLength="50" x="394.84" y="60.9164">VaccinationCenter</text><line style="stroke:#181818;stroke-width:0.20000000000000004;" x1="370" x2="456.8" y1="65.2" y2="65.2"/><text fill="#000000" font-family="sans-serif" font-size="5.6" lengthAdjust="spacing" textLength="11.6" x="372" y="72.2141">type</text><text fill="#000000" font-family="sans-serif" font-size="5.6" lengthAdjust="spacing" textLength="15.2" x="372" y="78.8094">name</text><text fill="#000000" font-family="sans-serif" font-size="5.6" lengthAdjust="spacing" textLength="39.6" x="372" y="85.4047">phoneNumber</text><text fill="#000000" font-family="sans-serif" font-size="5.6" lengthAdjust="spacing" textLength="40.4" x="372" y="92">e-mailAddress</text><text fill="#000000" font-family="sans-serif" font-size="5.6" lengthAdjust="spacing" textLength="30.8" x="372" y="98.5953">faxNumber</text><text fill="#000000" font-family="sans-serif" font-size="5.6" lengthAdjust="spacing" textLength="43.2" x="372" y="105.1906">websiteAddress</text><text fill="#000000" font-family="sans-serif" font-size="5.6" lengthAdjust="spacing" textLength="36.4" x="372" y="111.7859">openingHour</text><text fill="#000000" font-family="sans-serif" font-size="5.6" lengthAdjust="spacing" textLength="33.2" x="372" y="118.3813">closingHour</text><text fill="#000000" font-family="sans-serif" font-size="5.6" lengthAdjust="spacing" textLength="34" x="372" y="124.9766">slotDuration</text><text fill="#000000" font-family="sans-serif" font-size="5.6" lengthAdjust="spacing" textLength="82.8" x="372" y="131.5719">MaxNumberOfVaccinesPerSlot</text><text fill="#000000" font-family="sans-serif" font-size="5.6" lengthAdjust="spacing" textLength="40.4" x="372" y="138.1672">centerCapacity</text></g><!--MD5=[7829b64950ce38e0487c4015ea331f97]
class Date--><g id="elem_Date"><rect codeLine="25" fill="#F1F1F1" height="35.7859" id="Date" rx="1" ry="1" style="stroke:#181818;stroke-width:0.20000000000000004;" width="25.2" x="400.8" y="2.8"/><ellipse cx="406.8" cy="9.2" fill="#ADD1B2" rx="4.4" ry="4.4" style="stroke:#181818;stroke-width:0.4000000000000001;"/><path d="M407.7893,11.6572 Q407.5568,11.7768 407.3012,11.8365 Q407.0455,11.8963 406.7633,11.8963 Q405.7605,11.8963 405.2326,11.2355 Q404.7047,10.5748 404.7047,9.3264 Q404.7047,8.0746 405.2326,7.4139 Q405.7605,6.7531 406.7633,6.7531 Q407.0455,6.7531 407.3045,6.8129 Q407.5635,6.8727 407.7893,6.9922 L407.7893,8.0813 Q407.5369,7.8488 407.2995,7.7409 Q407.0621,7.633 406.8098,7.633 Q406.2719,7.633 405.9979,8.0597 Q405.724,8.4863 405.724,9.3264 Q405.724,10.1631 405.9979,10.5897 Q406.2719,11.0164 406.8098,11.0164 Q407.0621,11.0164 407.2995,10.9085 Q407.5369,10.8006 407.7893,10.5682 Z " fill="#000000"/><text fill="#000000" font-family="sans-serif" font-size="5.6" lengthAdjust="spacing" textLength="12.4" x="412.4" y="11.3164">Date</text><line style="stroke:#181818;stroke-width:0.20000000000000004;" x1="401.2" x2="425.6" y1="15.6" y2="15.6"/><text fill="#000000" font-family="sans-serif" font-size="5.6" lengthAdjust="spacing" textLength="9.6" x="403.2" y="22.6141">day</text><text fill="#000000" font-family="sans-serif" font-size="5.6" lengthAdjust="spacing" textLength="18" x="403.2" y="29.2094">month</text><text fill="#000000" font-family="sans-serif" font-size="5.6" lengthAdjust="spacing" textLength="11.6" x="403.2" y="35.8047">year</text></g><!--MD5=[2e42295458bb0bec21c9622a623eb29e]
class Time--><g id="elem_Time"><rect codeLine="30" fill="#F1F1F1" height="35.7859" id="Time" rx="1" ry="1" style="stroke:#181818;stroke-width:0.20000000000000004;" width="26.4" x="400.2" y="253.2"/><ellipse cx="406.2" cy="259.6" fill="#ADD1B2" rx="4.4" ry="4.4" style="stroke:#181818;stroke-width:0.4000000000000001;"/><path d="M407.1893,262.0572 Q406.9568,262.1768 406.7012,262.2365 Q406.4455,262.2963 406.1633,262.2963 Q405.1605,262.2963 404.6326,261.6355 Q404.1047,260.9748 404.1047,259.7264 Q404.1047,258.4746 404.6326,257.8139 Q405.1605,257.1531 406.1633,257.1531 Q406.4455,257.1531 406.7045,257.2129 Q406.9635,257.2727 407.1893,257.3922 L407.1893,258.4813 Q406.9369,258.2488 406.6995,258.1409 Q406.4621,258.033 406.2098,258.033 Q405.6719,258.033 405.3979,258.4597 Q405.124,258.8863 405.124,259.7264 Q405.124,260.5631 405.3979,260.9897 Q405.6719,261.4164 406.2098,261.4164 Q406.4621,261.4164 406.6995,261.3085 Q406.9369,261.2006 407.1893,260.9682 Z " fill="#000000"/><text fill="#000000" font-family="sans-serif" font-size="5.6" lengthAdjust="spacing" textLength="13.6" x="411.8" y="261.7164">Time</text><line style="stroke:#181818;stroke-width:0.20000000000000004;" x1="400.6" x2="426.2" y1="266" y2="266"/><text fill="#000000" font-family="sans-serif" font-size="5.6" lengthAdjust="spacing" textLength="13.2" x="402.6" y="273.0141">hour</text><text fill="#000000" font-family="sans-serif" font-size="5.6" lengthAdjust="spacing" textLength="19.2" x="402.6" y="279.6094">minute</text><text fill="#000000" font-family="sans-serif" font-size="5.6" lengthAdjust="spacing" textLength="19.6" x="402.6" y="286.2047">second</text></g><!--MD5=[107cfa23aa516ff83d0cf17a6f9fe7ba]
class VaccineAdministration--><g id="elem_VaccineAdministration"><rect fill="#F1F1F1" height="16" id="VaccineAdministration" rx="1" ry="1" style="stroke:#181818;stroke-width:0.20000000000000004;" width="74.4" x="228" y="166.2"/><ellipse cx="234" cy="172.6" fill="#ADD1B2" rx="4.4" ry="4.4" style="stroke:#181818;stroke-width:0.4000000000000001;"/><path d="M234.9893,175.0572 Q234.7568,175.1768 234.5012,175.2365 Q234.2455,175.2963 233.9633,175.2963 Q232.9605,175.2963 232.4326,174.6355 Q231.9047,173.9748 231.9047,172.7264 Q231.9047,171.4746 232.4326,170.8139 Q232.9605,170.1531 233.9633,170.1531 Q234.2455,170.1531 234.5045,170.2129 Q234.7635,170.2727 234.9893,170.3922 L234.9893,171.4813 Q234.7369,171.2488 234.4995,171.1409 Q234.2621,171.033 234.0098,171.033 Q233.4719,171.033 233.1979,171.4597 Q232.924,171.8863 232.924,172.7264 Q232.924,173.5631 233.1979,173.9897 Q233.4719,174.4164 234.0098,174.4164 Q234.2621,174.4164 234.4995,174.3085 Q234.7369,174.2006 234.9893,173.9682 Z " fill="#000000"/><text fill="#000000" font-family="sans-serif" font-size="5.6" lengthAdjust="spacing" textLength="61.6" x="239.6" y="174.7164">VaccineAdministration</text><line style="stroke:#181818;stroke-width:0.20000000000000004;" x1="228.4" x2="302" y1="179" y2="179"/></g><!--MD5=[72be06cc7ae02ccc98efe28a50e62246]
class SNSUser--><g id="elem_SNSUser"><rect fill="#F1F1F1" height="16" id="SNSUser" rx="1" ry="1" style="stroke:#181818;stroke-width:0.20000000000000004;" width="35.6" x="395.6" y="215"/><ellipse cx="401.6" cy="221.4" fill="#ADD1B2" rx="4.4" ry="4.4" style="stroke:#181818;stroke-width:0.4000000000000001;"/><path d="M402.5893,223.8572 Q402.3568,223.9768 402.1012,224.0365 Q401.8455,224.0963 401.5633,224.0963 Q400.5605,224.0963 400.0326,223.4355 Q399.5047,222.7748 399.5047,221.5264 Q399.5047,220.2746 400.0326,219.6139 Q400.5605,218.9531 401.5633,218.9531 Q401.8455,218.9531 402.1045,219.0129 Q402.3635,219.0727 402.5893,219.1922 L402.5893,220.2813 Q402.3369,220.0488 402.0995,219.9409 Q401.8621,219.833 401.6098,219.833 Q401.0719,219.833 400.7979,220.2597 Q400.524,220.6863 400.524,221.5264 Q400.524,222.3631 400.7979,222.7897 Q401.0719,223.2164 401.6098,223.2164 Q401.8621,223.2164 402.0995,223.1085 Q402.3369,223.0006 402.5893,222.7682 Z " fill="#000000"/><text fill="#000000" font-family="sans-serif" font-size="5.6" lengthAdjust="spacing" textLength="22.8" x="407.2" y="223.5164">SNSUser</text><line style="stroke:#181818;stroke-width:0.20000000000000004;" x1="396" x2="430.8" y1="227.8" y2="227.8"/></g><!--MD5=[c508b5b6bbe276ff5e2700b6641f837f]
class Appointment--><g id="elem_Appointment"><rect fill="#F1F1F1" height="16" id="Appointment" rx="1" ry="1" style="stroke:#181818;stroke-width:0.20000000000000004;" width="48.8" x="389" y="155"/><ellipse cx="395" cy="161.4" fill="#ADD1B2" rx="4.4" ry="4.4" style="stroke:#181818;stroke-width:0.4000000000000001;"/><path d="M395.9893,163.8572 Q395.7568,163.9768 395.5012,164.0365 Q395.2455,164.0963 394.9633,164.0963 Q393.9605,164.0963 393.4326,163.4355 Q392.9047,162.7748 392.9047,161.5264 Q392.9047,160.2746 393.4326,159.6139 Q393.9605,158.9531 394.9633,158.9531 Q395.2455,158.9531 395.5045,159.0129 Q395.7635,159.0727 395.9893,159.1922 L395.9893,160.2813 Q395.7369,160.0488 395.4995,159.9409 Q395.2621,159.833 395.0098,159.833 Q394.4719,159.833 394.1979,160.2597 Q393.924,160.6863 393.924,161.5264 Q393.924,162.3631 394.1979,162.7897 Q394.4719,163.2164 395.0098,163.2164 Q395.2621,163.2164 395.4995,163.1085 Q395.7369,163.0006 395.9893,162.7682 Z " fill="#000000"/><text fill="#000000" font-family="sans-serif" font-size="5.6" lengthAdjust="spacing" textLength="36" x="400.6" y="163.5164">Appointment</text><line style="stroke:#181818;stroke-width:0.20000000000000004;" x1="389.4" x2="437.4" y1="167.8" y2="167.8"/></g><!--MD5=[19e445fc4d3b48519cbe33da05496394]
class Vaccine--><g id="elem_Vaccine"><rect fill="#F1F1F1" height="16" id="Vaccine" rx="1" ry="1" style="stroke:#181818;stroke-width:0.20000000000000004;" width="33.6" x="396.6" y="185"/><ellipse cx="402.6" cy="191.4" fill="#ADD1B2" rx="4.4" ry="4.4" style="stroke:#181818;stroke-width:0.4000000000000001;"/><path d="M403.5893,193.8572 Q403.3568,193.9768 403.1012,194.0365 Q402.8455,194.0963 402.5633,194.0963 Q401.5605,194.0963 401.0326,193.4355 Q400.5047,192.7748 400.5047,191.5264 Q400.5047,190.2746 401.0326,189.6139 Q401.5605,188.9531 402.5633,188.9531 Q402.8455,188.9531 403.1045,189.0129 Q403.3635,189.0727 403.5893,189.1922 L403.5893,190.2813 Q403.3369,190.0488 403.0995,189.9409 Q402.8621,189.833 402.6098,189.833 Q402.0719,189.833 401.7979,190.2597 Q401.524,190.6863 401.524,191.5264 Q401.524,192.3631 401.7979,192.7897 Q402.0719,193.2164 402.6098,193.2164 Q402.8621,193.2164 403.0995,193.1085 Q403.3369,193.0006 403.5893,192.7682 Z " fill="#000000"/><text fill="#000000" font-family="sans-serif" font-size="5.6" lengthAdjust="spacing" textLength="20.8" x="408.2" y="193.5164">Vaccine</text><line style="stroke:#181818;stroke-width:0.20000000000000004;" x1="397" x2="429.8" y1="197.8" y2="197.8"/></g><!--MD5=[2d935fd2dd068a13da1ae531f9857c4f]
class CenterCoordinator--><g id="elem_CenterCoordinator"><rect fill="#F1F1F1" height="16" id="CenterCoordinator" rx="1" ry="1" style="stroke:#181818;stroke-width:0.20000000000000004;" width="64.8" x="2.8" y="84.6"/><ellipse cx="8.8" cy="91" fill="#ADD1B2" rx="4.4" ry="4.4" style="stroke:#181818;stroke-width:0.4000000000000001;"/><path d="M9.7893,93.4572 Q9.5568,93.5768 9.3012,93.6365 Q9.0455,93.6963 8.7633,93.6963 Q7.7605,93.6963 7.2326,93.0355 Q6.7047,92.3748 6.7047,91.1264 Q6.7047,89.8746 7.2326,89.2139 Q7.7605,88.5531 8.7633,88.5531 Q9.0455,88.5531 9.3045,88.6129 Q9.5635,88.6727 9.7893,88.7922 L9.7893,89.8813 Q9.5369,89.6488 9.2995,89.5409 Q9.0621,89.433 8.8098,89.433 Q8.2719,89.433 7.9979,89.8597 Q7.724,90.2863 7.724,91.1264 Q7.724,91.9631 7.9979,92.3897 Q8.2719,92.8164 8.8098,92.8164 Q9.0621,92.8164 9.2995,92.7085 Q9.5369,92.6006 9.7893,92.3682 Z " fill="#000000"/><text fill="#000000" font-family="sans-serif" font-size="5.6" lengthAdjust="spacing" textLength="52" x="14.4" y="93.1164">CenterCoordinator</text><line style="stroke:#181818;stroke-width:0.20000000000000004;" x1="3.2" x2="67.2" y1="97.4" y2="97.4"/></g><!--MD5=[6bb3ec5f470f72ee4f54b0838c98c655]
link VaccineAdministration to VaccinationCenter--><g id="link_VaccineAdministration_VaccinationCenter"><path codeLine="35" d="M288.708,166.176 C314.92,157.048 354.456,143.16 357.6,141.4 C361.592,139.16 365.588,136.632 369.5,133.944 " fill="none" id="VaccineAdministration-VaccinationCenter" style="stroke:#181818;stroke-width:0.4000000000000001;"/><polygon fill="#000000" points="323.8576,137.321,320.0615,137.5698,320.9328,139.7536,323.8576,137.321" style="stroke:#000000;stroke-width:0.4000000000000001;"/><text fill="#000000" font-family="sans-serif" font-size="5.2" font-weight="bold" lengthAdjust="spacing" textLength="26" x="325.6" y="140.0273">occurs on</text><text fill="#000000" font-family="sans-serif" font-size="5.2" lengthAdjust="spacing" textLength="8.8" x="285.7598" y="161.8463">0..*</text><text fill="#000000" font-family="sans-serif" font-size="5.2" lengthAdjust="spacing" textLength="3.2" x="363.243" y="141.6811">1</text></g><!--MD5=[951a07871a6512bd4f8e62baa1d062ce]
link VaccineAdministration to SNSUser--><g id="link_VaccineAdministration_SNSUser"><path codeLine="36" d="M282.536,182.236 C291.82,186.468 303.608,191.564 314.4,195.4 C342.288,205.308 375.608,214 395.5,218.868 " fill="none" id="VaccineAdministration-SNSUser" style="stroke:#181818;stroke-width:0.4000000000000001;"/><polygon fill="#000000" points="318.3025,192.679,315.2235,190.4448,314.4982,192.6812,318.3025,192.679" style="stroke:#000000;stroke-width:0.4000000000000001;"/><text fill="#000000" font-family="sans-serif" font-size="5.2" font-weight="bold" lengthAdjust="spacing" textLength="37.2" x="320" y="194.0273">performed on</text><text fill="#000000" font-family="sans-serif" font-size="5.2" lengthAdjust="spacing" textLength="8.8" x="277.3743" y="190.3847">0..*</text><text fill="#000000" font-family="sans-serif" font-size="5.2" lengthAdjust="spacing" textLength="3.2" x="389.1922" y="223.7248">1</text></g><!--MD5=[f3744160807ca72d90bde8467b6a7fb6]
link VaccineAdministration to Appointment--><g id="link_VaccineAdministration_Appointment"><path codeLine="37" d="M302.416,171.4 C329.488,169.344 365.508,166.608 388.968,164.824 " fill="none" id="VaccineAdministration-Appointment" style="stroke:#181818;stroke-width:0.4000000000000001;"/><polygon fill="#000000" points="323.9943,163.9106,320.2976,163.0125,320.4757,165.3569,323.9943,163.9106" style="stroke:#000000;stroke-width:0.4000000000000001;"/><text fill="#000000" font-family="sans-serif" font-size="5.2" font-weight="bold" lengthAdjust="spacing" textLength="26" x="325.6" y="166.0273">occurs on</text><text fill="#000000" font-family="sans-serif" font-size="5.2" lengthAdjust="spacing" textLength="3.2" x="305.6305" y="176.449">1</text><text fill="#000000" font-family="sans-serif" font-size="5.2" lengthAdjust="spacing" textLength="3.2" x="382.5954" y="170.4468">1</text></g><!--MD5=[d96ee281cdb1021d3c4ed227c45512e2]
link VaccineAdministration to Vaccine--><g id="link_VaccineAdministration_Vaccine"><path codeLine="38" d="M302.5,179.06 C306.516,179.58 310.544,180.104 314.4,180.6 C343.32,184.312 377.028,188.528 396.596,190.964 " fill="none" id="VaccineAdministration-Vaccine" style="stroke:#181818;stroke-width:0.4000000000000001;"/><polygon fill="#000000" points="331.9842,177.5131,328.5423,175.8928,328.2472,178.2253,331.9842,177.5131" style="stroke:#000000;stroke-width:0.4000000000000001;"/><text fill="#000000" font-family="sans-serif" font-size="5.2" font-weight="bold" lengthAdjust="spacing" textLength="10" x="333.6" y="179.2273">of a</text><text fill="#000000" font-family="sans-serif" font-size="5.2" lengthAdjust="spacing" textLength="8.8" x="305.5623" y="184.6691">1..*</text><text fill="#000000" font-family="sans-serif" font-size="5.2" lengthAdjust="spacing" textLength="3.2" x="390.2328" y="196.1677">1</text></g><!--MD5=[36c4a398e8a3b63480bdcee07643ea77]
link VaccineAdministration to Date--><g id="link_VaccineAdministration_Date"><path codeLine="39" d="M274.62,166.048 C286.428,155.416 306.548,137.456 314.4,131.4 C332.748,117.24 344.664,121.424 357.6,102.2 C372.004,80.792 354.4,66.248 369.6,45.4 C377.268,34.88 390.852,28.172 400.784,24.424 " fill="none" id="VaccineAdministration-Date" style="stroke:#181818;stroke-width:0.4000000000000001;"/><polygon fill="#000000" points="323.3304,97.3687,320.0459,99.2883,321.8015,100.8522,323.3304,97.3687" style="stroke:#000000;stroke-width:0.4000000000000001;"/><text fill="#000000" font-family="sans-serif" font-size="5.2" font-weight="bold" lengthAdjust="spacing" textLength="26" x="325.6" y="100.8273">occurs on</text><text fill="#000000" font-family="sans-serif" font-size="5.2" lengthAdjust="spacing" textLength="8.8" x="267.2319" y="161.9563">1..*</text><text fill="#000000" font-family="sans-serif" font-size="5.2" lengthAdjust="spacing" textLength="3.2" x="394.4743" y="23.6248">1</text></g><!--MD5=[90a8f19de97d7dcf500d5121256b503f]
link VaccineAdministration to Time--><g id="link_VaccineAdministration_Time"><path codeLine="40" d="M273.192,182.236 C282.372,191.676 298.572,207.456 314.4,218.6 C343.172,238.852 380.708,256.724 400.12,265.412 " fill="none" id="VaccineAdministration-Time" style="stroke:#181818;stroke-width:0.4000000000000001;"/><polygon fill="#000000" points="323.6728,216.3583,321.291,213.392,320.0023,215.3585,323.6728,216.3583" style="stroke:#000000;stroke-width:0.4000000000000001;"/><text fill="#000000" font-family="sans-serif" font-size="5.2" font-weight="bold" lengthAdjust="spacing" textLength="26" x="325.6" y="217.2273">occurs on</text><text fill="#000000" font-family="sans-serif" font-size="5.2" lengthAdjust="spacing" textLength="8.8" x="265.4023" y="190.3847">1..*</text><text fill="#000000" font-family="sans-serif" font-size="5.2" lengthAdjust="spacing" textLength="3.2" x="393.851" y="262.6617">1</text></g><!--MD5=[c770d631c4dc531f18b89737f6d01991]
link CenterPerformance to Date--><g id="link_CenterPerformance_Date"><path codeLine="41" d="M177.124,156.348 C191.476,145.916 210.36,132.832 228,122.6 C283.232,90.556 307.724,100.468 357.6,60.6 C364.324,55.224 363.076,51.012 369.6,45.4 C379.072,37.244 391.62,30.416 400.784,26.004 " fill="none" id="CenterPerformance-Date" style="stroke:#181818;stroke-width:0.4000000000000001;"/><polygon fill="#000000" points="252.928,88.2551,249.2101,89.0611,250.394,91.0925,252.928,88.2551" style="stroke:#000000;stroke-width:0.4000000000000001;"/><text fill="#000000" font-family="sans-serif" font-size="5.2" font-weight="bold" lengthAdjust="spacing" textLength="26" x="254.8" y="91.2273">occurs on</text><text fill="#000000" font-family="sans-serif" font-size="5.2" lengthAdjust="spacing" textLength="3.2" x="177.5138" y="152.0471">1</text><text fill="#000000" font-family="sans-serif" font-size="5.2" lengthAdjust="spacing" textLength="3.2" x="394.4743" y="32.863">1</text></g><!--MD5=[c770d631c4dc531f18b89737f6d01991]
link CenterPerformance to Date--><g id="link_CenterPerformance_Date"><path codeLine="45" d="M163.628,156.304 C176.256,135.724 199.584,102.264 228,82.6 C285.1,43.084 369.384,27.096 400.696,22.296 " fill="none" id="CenterPerformance-Date-1" style="stroke:#181818;stroke-width:0.4000000000000001;"/><polygon fill="#000000" points="252.9411,42.2779,249.2129,43.0349,250.3699,45.0817,252.9411,42.2779" style="stroke:#000000;stroke-width:0.4000000000000001;"/><text fill="#000000" font-family="sans-serif" font-size="5.2" font-weight="bold" lengthAdjust="spacing" textLength="26" x="254.8" y="45.2273">occurs on</text><text fill="#000000" font-family="sans-serif" font-size="5.2" lengthAdjust="spacing" textLength="3.2" x="161.8104" y="152.1269">1</text><text fill="#000000" font-family="sans-serif" font-size="5.2" lengthAdjust="spacing" textLength="3.2" x="394.367" y="21.0313">1</text></g><!--MD5=[8a869d0627cedf8f4f7ad7f6b9767a72]
link CenterPerformance to Time--><g id="link_CenterPerformance_Time"><path codeLine="42" d="M160.976,192.008 C168.556,208.048 181.56,231.376 198.8,246.6 C209.532,256.072 214.12,256.696 228,260.2 C291.016,276.092 369.768,273.628 400.188,271.88 " fill="none" id="CenterPerformance-Time" style="stroke:#181818;stroke-width:0.4000000000000001;"/><polygon fill="#000000" points="254.297,257.4955,251.2376,255.2346,250.4929,257.4647,254.297,257.4955" style="stroke:#000000;stroke-width:0.4000000000000001;"/><text fill="#000000" font-family="sans-serif" font-size="5.2" font-weight="bold" lengthAdjust="spacing" textLength="23.6" x="256" y="258.8273">has start</text><text fill="#000000" font-family="sans-serif" font-size="5.2" lengthAdjust="spacing" textLength="3.2" x="162.562" y="200.4766">1</text><text fill="#000000" font-family="sans-serif" font-size="5.2" lengthAdjust="spacing" textLength="3.2" x="393.7479" y="270.4368">1</text></g><!--MD5=[8a869d0627cedf8f4f7ad7f6b9767a72]
link CenterPerformance to Time--><g id="link_CenterPerformance_Time"><path codeLine="43" d="M158.5,192.068 C167.372,219 188.58,268.196 228,281 C289.872,301.092 369.452,283.192 400.14,274.792 " fill="none" id="CenterPerformance-Time-1" style="stroke:#181818;stroke-width:0.4000000000000001;"/><polygon fill="#000000" points="252.8922,278.3099,249.8499,276.0258,249.0884,278.2502,252.8922,278.3099" style="stroke:#000000;stroke-width:0.4000000000000001;"/><text fill="#000000" font-family="sans-serif" font-size="5.2" font-weight="bold" lengthAdjust="spacing" textLength="26.4" x="254.6" y="279.6273">has finish</text><text fill="#000000" font-family="sans-serif" font-size="5.2" lengthAdjust="spacing" textLength="3.2" x="155.9216" y="200.4163">1</text><text fill="#000000" font-family="sans-serif" font-size="5.2" lengthAdjust="spacing" textLength="3.2" x="393.8751" y="281.2138">1</text></g><!--MD5=[8a869d0627cedf8f4f7ad7f6b9767a72]
link CenterPerformance to Time--><g id="link_CenterPerformance_Time"><path codeLine="46" d="M156.608,192.092 C163.324,223.1 182.228,284.936 228,299.8 C290.448,320.076 369.532,290.424 400.116,277.008 " fill="none" id="CenterPerformance-Time-2" style="stroke:#181818;stroke-width:0.4000000000000001;"/><polygon fill="#000000" points="254.2885,297.1207,251.2593,294.8193,250.4851,297.0393,254.2885,297.1207" style="stroke:#000000;stroke-width:0.4000000000000001;"/><text fill="#000000" font-family="sans-serif" font-size="5.2" font-weight="bold" lengthAdjust="spacing" textLength="23.6" x="256" y="298.4273">has start</text><text fill="#000000" font-family="sans-serif" font-size="5.2" lengthAdjust="spacing" textLength="3.2" x="153.728" y="200.4441">1</text><text fill="#000000" font-family="sans-serif" font-size="5.2" lengthAdjust="spacing" textLength="3.2" x="393.8462" y="276.6494">1</text></g><!--MD5=[8a869d0627cedf8f4f7ad7f6b9767a72]
link CenterPerformance to Time--><g id="link_CenterPerformance_Time"><path codeLine="47" d="M186.808,191.044 C218.916,206.752 269.104,230.064 314.4,245.8 C344.524,256.264 381.188,264.5 400.192,268.448 " fill="none" id="CenterPerformance-Time-3" style="stroke:#181818;stroke-width:0.4000000000000001;"/><polygon fill="#000000" points="252.8801,207.5441,249.8798,205.2052,249.0781,207.4155,252.8801,207.5441" style="stroke:#000000;stroke-width:0.4000000000000001;"/><text fill="#000000" font-family="sans-serif" font-size="5.2" font-weight="bold" lengthAdjust="spacing" textLength="26.4" x="254.6" y="208.8273">has finish</text><text fill="#000000" font-family="sans-serif" font-size="5.2" lengthAdjust="spacing" textLength="3.2" x="189.9615" y="197.836">1</text><text fill="#000000" font-family="sans-serif" font-size="5.2" lengthAdjust="spacing" textLength="3.2" x="393.7528" y="266.2541">1</text></g><!--MD5=[30c68e6a6fa41f23eaf600a4f79081bd]
link CenterPerformance to VaccineAdministration--><g id="link_CenterPerformance_VaccineAdministration"><path codeLine="44" d="M186.824,174.2 C199.768,174.2 214.636,174.2 227.896,174.2 " fill="none" id="CenterPerformance-VaccineAdministration" style="stroke:#181818;stroke-width:0.4000000000000001;"/><polygon fill="#000000" points="205.8,170.8621,202.182,169.6865,202.182,172.0377,205.8,170.8621" style="stroke:#000000;stroke-width:0.4000000000000001;"/><text fill="#000000" font-family="sans-serif" font-size="5.2" font-weight="bold" lengthAdjust="spacing" textLength="5.2" x="207.4" y="172.8273">of</text><text fill="#000000" font-family="sans-serif" font-size="5.2" lengthAdjust="spacing" textLength="3.2" x="189.979" y="179.4918">1</text><text fill="#000000" font-family="sans-serif" font-size="5.2" lengthAdjust="spacing" textLength="8.8" x="216.0334" y="179.4522">2..*</text></g><!--MD5=[09e4a39044a0feaeeae203ecc00d0f01]
link CenterCoordinator to CenterPerformance--><g id="link_CenterCoordinator_CenterPerformance"><path codeLine="48" d="M47.14,100.644 C65.588,113.512 102.172,139.028 127.016,156.352 " fill="none" id="CenterCoordinator-CenterPerformance" style="stroke:#181818;stroke-width:0.4000000000000001;"/><polygon fill="#000000" points="83.2404,121.6062,80.9453,118.5723,79.6004,120.5007,83.2404,121.6062" style="stroke:#000000;stroke-width:0.4000000000000001;"/><text fill="#000000" font-family="sans-serif" font-size="5.2" lengthAdjust="spacing" textLength="21.6" x="85.2" y="122.4273">analyzes</text><text fill="#000000" font-family="sans-serif" font-size="5.2" lengthAdjust="spacing" textLength="3.2" x="46.8481" y="108.7949">1</text><text fill="#000000" font-family="sans-serif" font-size="5.2" lengthAdjust="spacing" textLength="2.4" x="120.2836" y="152.0518">*</text></g><!--MD5=[d5cf03d886352995267197dc535618ec]
link CenterCoordinator to VaccinationCenter--><g id="link_CenterCoordinator_VaccinationCenter"><path codeLine="49" d="M50.744,84.58 C91.608,63.988 207.44,12.5 302.4,36.6 C325.956,42.576 349.924,54.688 369.5,66.476 " fill="none" id="CenterCoordinator-VaccinationCenter" style="stroke:#181818;stroke-width:0.4000000000000001;"/><polygon fill="#000000" points="202.7968,29.1487,199.1179,28.1802,199.2512,30.5275,202.7968,29.1487" style="stroke:#000000;stroke-width:0.4000000000000001;"/><text fill="#000000" font-family="sans-serif" font-size="5.2" lengthAdjust="spacing" textLength="11.2" x="204.4" y="31.2273">runs</text><text fill="#000000" font-family="sans-serif" font-size="5.2" lengthAdjust="spacing" textLength="3.2" x="51.8144" y="80.2515">1</text><text fill="#000000" font-family="sans-serif" font-size="5.2" lengthAdjust="spacing" textLength="3.2" x="363.243" y="69.6801">1</text></g><!--MD5=[85d8b15e810c9ff729a9ea97d09bcb70]
link VaccinationCenter to CenterPerformance--><g id="link_VaccinationCenter_CenterPerformance"><path codeLine="50" d="M369.516,111.568 C365.496,112.888 361.476,114.184 357.6,115.4 C297.844,134.128 227.552,153.872 186.968,165.052 " fill="none" id="VaccinationCenter-CenterPerformance" style="stroke:#181818;stroke-width:0.4000000000000001;"/><polygon fill="#000000" points="257.8807,129.8244,261.6833,129.9353,261.0222,127.679,257.8807,129.8244" style="stroke:#000000;stroke-width:0.4000000000000001;"/><text fill="#000000" font-family="sans-serif" font-size="5.2" lengthAdjust="spacing" textLength="8.8" x="263.4" y="131.2273">has</text><text fill="#000000" font-family="sans-serif" font-size="5.2" lengthAdjust="spacing" textLength="3.2" x="363.26" y="117.8018">1</text><text fill="#000000" font-family="sans-serif" font-size="5.2" lengthAdjust="spacing" textLength="2.4" x="189.9903" y="169.5483">*</text></g><!--MD5=[87e500de570f6dba6496a0fd09e1f2a9]
@startuml
hide methods
left to right direction
skinparam classAttributeIconSize 0

class "**CenterPerformance**" as CenterPerformance{
differenceList
maxSumSubList
maxSum
}

class VaccinationCenter{
type
name
phoneNumber
e-mailAddress
faxNumber
websiteAddress
openingHour
closingHour
slotDuration
MaxNumberOfVaccinesPerSlot
centerCapacity
}

class Date{
day
month
year
}
class Time{
hour
minute
second
}
VaccineAdministration "0..*"- -"1" VaccinationCenter: **occurs on** >
VaccineAdministration "0..*"- -"1" SNSUser: **performed on** >
VaccineAdministration "1"- -"1" Appointment: **occurs on** >
VaccineAdministration "1..*" - - "1" Vaccine: **of a** >
VaccineAdministration "1..*" - - "1" Date: **occurs on** >
VaccineAdministration "1..*" - - "1" Time: **occurs on** >
CenterPerformance "1"- -"1" Date : **occurs on** >
CenterPerformance "1"- -"1" Time : **has start** >
CenterPerformance "1"- -"1" Time : **has finish** >
CenterPerformance "1"- -"2..*" VaccineAdministration : **of** >
CenterPerformance "1"- -"1" Date : **occurs on** >
CenterPerformance "1"- -"1" Time : **has start** >
CenterPerformance "1"- -"1" Time : **has finish** >
CenterCoordinator "1"- -"*" CenterPerformance: analyzes >
CenterCoordinator "1" - - "1" VaccinationCenter : runs >
VaccinationCenter "1"- -"*" CenterPerformance : has >
@enduml

PlantUML version 1.2022.5(Sat Apr 30 11:55:52 WEST 2022)
(GPL source distribution)
Java Runtime: OpenJDK Runtime Environment
JVM: OpenJDK 64-Bit Server VM
Default Encoding: UTF-8
Language: pt
Country: PT
--></g></svg>