@startuml
autonumber
actor "Administrator" as admin #bef4fa
participant ":System" #bef4fa

activate admin
admin -> ":System" : asks to get a list of employees by role
activate ":System"
":System" --> admin : shows role list and asks to select one
deactivate ":System"

admin -> ":System" : selects a role
activate ":System"
":System" --> admin : shows list of employees
'and requests confirmation
deactivate ":System"

'admin -> ":System" : confirms the data
'activate ":System"
'":System" --> admin : informs operation success
'deactivate ":System"

deactivate admin
@enduml