<?xml version="1.0" encoding="UTF-8" standalone="no"?><svg xmlns="http://www.w3.org/2000/svg" xmlns:xlink="http://www.w3.org/1999/xlink" contentStyleType="text/css" height="420px" preserveAspectRatio="none" style="width:741px;height:420px;background:#FFFFFF;" version="1.1" viewBox="0 0 741 420" width="741px" zoomAndPan="magnify"><defs/><g><!--MD5=[7421f545a0d8420c5bec41e74b387d9c]
class Employee--><g id="elem_Employee"><rect codeLine="3" fill="#F1F1F1" height="65.6094" id="Employee" rx="2.5" ry="2.5" style="stroke:#181818;stroke-width:0.5;" width="94" x="420.5" y="330.5"/><ellipse cx="435.5" cy="346.5" fill="#ADD1B2" rx="11" ry="11" style="stroke:#181818;stroke-width:1.0;"/><path d="M437.5,343 Q437.7031,342.5 437.9375,342.25 Q438.1719,342 438.4375,342 Q438.9063,342 439.2031,342.2813 Q439.5,342.5625 439.5,343.2188 L439.5,344.7813 Q439.5,345.4375 439.2188,345.7188 Q438.9375,346 438.5,346 Q438.1094,346 437.8594,345.8281 Q437.6094,345.6563 437.5,345.2031 Q437.4531,344.8906 437.2813,344.7188 Q436.9688,344.3906 436.4063,344.2031 Q435.8438,344 435.2813,344 Q434.5781,344 433.9844,344.2813 Q433.4063,344.5625 432.9531,345.1875 Q432.5,345.8125 432.5,346.6719 L432.5,347.5938 Q432.5,348.625 433.3438,349.3125 Q434.1875,350 435.6875,350 Q436.5781,350 437.2031,349.7969 Q437.5625,349.6875 437.9688,349.3281 Q438.2344,349.125 438.375,349.0625 Q438.5156,349 438.6875,349 Q439.0156,349 439.25,349.2656 Q439.5,349.5156 439.5,349.875 Q439.5,350.2188 439.1563,350.625 Q438.6563,351.2188 437.8594,351.5469 Q436.8125,352 435.5313,352 Q434.0313,352 432.8281,351.4063 Q431.8594,350.9375 431.1719,349.9219 Q430.5,348.9063 430.5,347.7031 L430.5,346.6094 Q430.5,345.3594 431.0938,344.2656 Q431.7031,343.1719 432.75,342.5938 Q433.8125,342 435,342 Q435.7188,342 436.3438,342.25 Q436.9688,342.5 437.5,343 Z " fill="#000000"/><text fill="#000000" font-family="sans-serif" font-size="14" lengthAdjust="spacing" textLength="62" x="449.5" y="352.2285">Employee</text><line style="stroke:#181818;stroke-width:0.5;" x1="421.5" x2="513.5" y1="362.5" y2="362.5"/><line style="stroke:#181818;stroke-width:0.5;" x1="421.5" x2="513.5" y1="370.5" y2="370.5"/><text fill="#000000" font-family="sans-serif" font-size="14" lengthAdjust="spacing" textLength="67" x="426.5" y="389.0332">+getRole()</text></g><!--MD5=[829fb52c07ade3ad64ef85b99d1fca10]
class EmployeeStore--><g id="elem_EmployeeStore"><rect codeLine="7" fill="#F1F1F1" height="136.0469" id="EmployeeStore" rx="2.5" ry="2.5" style="stroke:#181818;stroke-width:0.5;" width="225" x="355" y="116"/><ellipse cx="415.25" cy="132" fill="#ADD1B2" rx="11" ry="11" style="stroke:#181818;stroke-width:1.0;"/><path d="M417.25,128.5 Q417.4531,128 417.6875,127.75 Q417.9219,127.5 418.1875,127.5 Q418.6563,127.5 418.9531,127.7813 Q419.25,128.0625 419.25,128.7188 L419.25,130.2813 Q419.25,130.9375 418.9688,131.2188 Q418.6875,131.5 418.25,131.5 Q417.8594,131.5 417.6094,131.3281 Q417.3594,131.1563 417.25,130.7031 Q417.2031,130.3906 417.0313,130.2188 Q416.7188,129.8906 416.1563,129.7031 Q415.5938,129.5 415.0313,129.5 Q414.3281,129.5 413.7344,129.7813 Q413.1563,130.0625 412.7031,130.6875 Q412.25,131.3125 412.25,132.1719 L412.25,133.0938 Q412.25,134.125 413.0938,134.8125 Q413.9375,135.5 415.4375,135.5 Q416.3281,135.5 416.9531,135.2969 Q417.3125,135.1875 417.7188,134.8281 Q417.9844,134.625 418.125,134.5625 Q418.2656,134.5 418.4375,134.5 Q418.7656,134.5 419,134.7656 Q419.25,135.0156 419.25,135.375 Q419.25,135.7188 418.9063,136.125 Q418.4063,136.7188 417.6094,137.0469 Q416.5625,137.5 415.2813,137.5 Q413.7813,137.5 412.5781,136.9063 Q411.6094,136.4375 410.9219,135.4219 Q410.25,134.4063 410.25,133.2031 L410.25,132.1094 Q410.25,130.8594 410.8438,129.7656 Q411.4531,128.6719 412.5,128.0938 Q413.5625,127.5 414.75,127.5 Q415.4688,127.5 416.0938,127.75 Q416.7188,128 417.25,128.5 Z " fill="#000000"/><text fill="#000000" font-family="sans-serif" font-size="14" lengthAdjust="spacing" textLength="96" x="435.75" y="137.7285">EmployeeStore</text><line style="stroke:#181818;stroke-width:0.5;" x1="356" x2="579" y1="148" y2="148"/><text fill="#000000" font-family="sans-serif" font-size="14" lengthAdjust="spacing" textLength="88" x="361" y="166.5332">-allEmployees</text><line style="stroke:#181818;stroke-width:0.5;" x1="356" x2="579" y1="173.6094" y2="173.6094"/><text fill="#000000" font-family="sans-serif" font-size="14" lengthAdjust="spacing" textLength="158" x="361" y="192.1426">+getEmployeeRolesList()</text><text fill="#000000" font-family="sans-serif" font-size="14" lengthAdjust="spacing" textLength="159" x="361" y="209.752">+getListOfAllEmployees()</text><text fill="#000000" font-family="sans-serif" font-size="14" lengthAdjust="spacing" textLength="213" x="361" y="227.3613">+getListOfEmployeesByRole(role)</text><text fill="#000000" font-family="sans-serif" font-size="14" lengthAdjust="spacing" textLength="192" x="361" y="244.9707">+convertOptionToRole(option)</text></g><!--MD5=[e3298d6dd127d371f1a68ca8fbd2682f]
class EmployeeController--><g id="elem_EmployeeController"><rect codeLine="15" fill="#F1F1F1" height="100.8281" id="EmployeeController" rx="2.5" ry="2.5" style="stroke:#181818;stroke-width:0.5;" width="313" x="7" y="133.5"/><ellipse cx="97.25" cy="149.5" fill="#ADD1B2" rx="11" ry="11" style="stroke:#181818;stroke-width:1.0;"/><path d="M99.25,146 Q99.4531,145.5 99.6875,145.25 Q99.9219,145 100.1875,145 Q100.6563,145 100.9531,145.2813 Q101.25,145.5625 101.25,146.2188 L101.25,147.7813 Q101.25,148.4375 100.9688,148.7188 Q100.6875,149 100.25,149 Q99.8594,149 99.6094,148.8281 Q99.3594,148.6563 99.25,148.2031 Q99.2031,147.8906 99.0313,147.7188 Q98.7188,147.3906 98.1563,147.2031 Q97.5938,147 97.0313,147 Q96.3281,147 95.7344,147.2813 Q95.1563,147.5625 94.7031,148.1875 Q94.25,148.8125 94.25,149.6719 L94.25,150.5938 Q94.25,151.625 95.0938,152.3125 Q95.9375,153 97.4375,153 Q98.3281,153 98.9531,152.7969 Q99.3125,152.6875 99.7188,152.3281 Q99.9844,152.125 100.125,152.0625 Q100.2656,152 100.4375,152 Q100.7656,152 101,152.2656 Q101.25,152.5156 101.25,152.875 Q101.25,153.2188 100.9063,153.625 Q100.4063,154.2188 99.6094,154.5469 Q98.5625,155 97.2813,155 Q95.7813,155 94.5781,154.4063 Q93.6094,153.9375 92.9219,152.9219 Q92.25,151.9063 92.25,150.7031 L92.25,149.6094 Q92.25,148.3594 92.8438,147.2656 Q93.4531,146.1719 94.5,145.5938 Q95.5625,145 96.75,145 Q97.4688,145 98.0938,145.25 Q98.7188,145.5 99.25,146 Z " fill="#000000"/><text fill="#000000" font-family="sans-serif" font-size="14" lengthAdjust="spacing" textLength="124" x="117.75" y="155.2285">EmployeeController</text><line style="stroke:#181818;stroke-width:0.5;" x1="8" x2="319" y1="165.5" y2="165.5"/><text fill="#000000" font-family="sans-serif" font-size="14" lengthAdjust="spacing" textLength="55" x="13" y="184.0332">-allRoles</text><line style="stroke:#181818;stroke-width:0.5;" x1="8" x2="319" y1="191.1094" y2="191.1094"/><text fill="#000000" font-family="sans-serif" font-size="14" lengthAdjust="spacing" textLength="166" x="13" y="209.6426">+showRolesSelectionList()</text><text fill="#000000" font-family="sans-serif" font-size="14" lengthAdjust="spacing" textLength="301" x="13" y="227.252">+showListOfEmployeesWithWantedRole(option)</text></g><!--MD5=[e017cf3dd82d0a2c919770e65d08dd08]
class GetEmployeeListUI--><g id="elem_GetEmployeeListUI"><rect codeLine="22" fill="#F1F1F1" height="48" id="GetEmployeeListUI" rx="2.5" ry="2.5" style="stroke:#181818;stroke-width:0.5;" width="151" x="88" y="7"/><ellipse cx="103" cy="23" fill="#ADD1B2" rx="11" ry="11" style="stroke:#181818;stroke-width:1.0;"/><path d="M105,19.5 Q105.2031,19 105.4375,18.75 Q105.6719,18.5 105.9375,18.5 Q106.4063,18.5 106.7031,18.7813 Q107,19.0625 107,19.7188 L107,21.2813 Q107,21.9375 106.7188,22.2188 Q106.4375,22.5 106,22.5 Q105.6094,22.5 105.3594,22.3281 Q105.1094,22.1563 105,21.7031 Q104.9531,21.3906 104.7813,21.2188 Q104.4688,20.8906 103.9063,20.7031 Q103.3438,20.5 102.7813,20.5 Q102.0781,20.5 101.4844,20.7813 Q100.9063,21.0625 100.4531,21.6875 Q100,22.3125 100,23.1719 L100,24.0938 Q100,25.125 100.8438,25.8125 Q101.6875,26.5 103.1875,26.5 Q104.0781,26.5 104.7031,26.2969 Q105.0625,26.1875 105.4688,25.8281 Q105.7344,25.625 105.875,25.5625 Q106.0156,25.5 106.1875,25.5 Q106.5156,25.5 106.75,25.7656 Q107,26.0156 107,26.375 Q107,26.7188 106.6563,27.125 Q106.1563,27.7188 105.3594,28.0469 Q104.3125,28.5 103.0313,28.5 Q101.5313,28.5 100.3281,27.9063 Q99.3594,27.4375 98.6719,26.4219 Q98,25.4063 98,24.2031 L98,23.1094 Q98,21.8594 98.5938,20.7656 Q99.2031,19.6719 100.25,19.0938 Q101.3125,18.5 102.5,18.5 Q103.2188,18.5 103.8438,18.75 Q104.4688,19 105,19.5 Z " fill="#000000"/><text fill="#000000" font-family="sans-serif" font-size="14" lengthAdjust="spacing" textLength="119" x="117" y="28.7285">GetEmployeeListUI</text><line style="stroke:#181818;stroke-width:0.5;" x1="89" x2="238" y1="39" y2="39"/><line style="stroke:#181818;stroke-width:0.5;" x1="89" x2="238" y1="47" y2="47"/></g><!--MD5=[dd05635e5c9ffb5a2ec0d77120e8181b]
class EmployeeRolesList--><g id="elem_EmployeeRolesList"><rect codeLine="26" fill="#F1F1F1" height="100.8281" id="EmployeeRolesList" rx="2.5" ry="2.5" style="stroke:#181818;stroke-width:0.5;" width="179" x="555" y="313"/><ellipse cx="582.15" cy="329" fill="#EB937F" rx="11" ry="11" style="stroke:#181818;stroke-width:1.0;"/><path d="M580.65,330 L580.65,332 L584.65,332 L584.65,331 L584.65,330.5156 L585.275,330 L585.65,330 L586.025,330 L586.65,330.5156 L586.65,331 L586.65,334 L578.65,334 L578.1656,334 L577.65,333.375 L577.65,333 L577.65,332.625 L578.1656,332 L578.65,332 L578.65,332 L578.65,326 L578.65,326 L578.1656,326 L577.65,325.375 L577.65,325 L577.65,324.625 L578.1656,324 L578.65,324 L586.65,324 L586.65,327 L586.65,327.4844 L586.025,328 L585.65,328 L585.275,328 L584.65,327.4844 L584.65,327 L584.65,326 L580.65,326 L580.65,328 L581.65,328 L581.65,327.5156 L581.65,327.5156 L582.275,327 L582.65,327 L583.025,327 L583.65,327.5156 L583.65,328 L583.65,330 L583.65,330.4844 L583.025,331 L583.025,331 L582.65,331 L582.275,331 L581.65,330.4844 L581.65,330.4844 L581.65,330 L580.65,330 Z " fill="#000000"/><text fill="#000000" font-family="sans-serif" font-size="14" lengthAdjust="spacing" textLength="120" x="598.85" y="334.7285">EmployeeRolesList</text><line style="stroke:#181818;stroke-width:0.5;" x1="556" x2="733" y1="345" y2="345"/><text fill="#000000" font-family="sans-serif" font-size="14" lengthAdjust="spacing" textLength="100" x="561" y="363.5332">RECEPTIONIST</text><text fill="#000000" font-family="sans-serif" font-size="14" lengthAdjust="spacing" textLength="46" x="561" y="381.1426">NURSE</text><text fill="#000000" font-family="sans-serif" font-size="14" lengthAdjust="spacing" textLength="167" x="561" y="398.752">CENTER_COORDINATOR</text><line style="stroke:#181818;stroke-width:0.5;" x1="556" x2="733" y1="405.8281" y2="405.8281"/></g><!--MD5=[e4cf63a22090593ed5455e818086f58c]
link GetEmployeeListUI to EmployeeController--><g id="link_GetEmployeeListUI_EmployeeController"><path codeLine="32" d="M163.5,55.26 C163.5,74.65 163.5,103.05 163.5,128.15 " fill="none" id="GetEmployeeListUI-to-EmployeeController" style="stroke:#181818;stroke-width:1.0;stroke-dasharray:7.0,7.0;"/><polygon fill="#181818" points="163.5,133.45,167.5,124.45,163.5,128.45,159.5,124.45,163.5,133.45" style="stroke:#181818;stroke-width:1.0;"/></g><!--MD5=[2467f0c94f538881e963b77bbff7f452]
link EmployeeController to EmployeeStore--><g id="link_EmployeeController_EmployeeStore"><path codeLine="33" d="M320.25,184 C330.05,184 339.84,184 349.64,184 " fill="none" id="EmployeeController-to-EmployeeStore" style="stroke:#181818;stroke-width:1.0;"/><polygon fill="#181818" points="354.76,184,345.76,180,349.76,184,345.76,188,354.76,184" style="stroke:#181818;stroke-width:1.0;"/></g><!--MD5=[2f3bac1bdf76f0b867b8cadb6fadb6bc]
link EmployeeStore to Employee--><g id="link_EmployeeStore_Employee"><path codeLine="34" d="M467.5,252.11 C467.5,276.72 467.5,303.71 467.5,324.83 " fill="none" id="EmployeeStore-to-Employee" style="stroke:#181818;stroke-width:1.0;stroke-dasharray:7.0,7.0;"/><polygon fill="#181818" points="467.5,330.07,471.5,321.07,467.5,325.07,463.5,321.07,467.5,330.07" style="stroke:#181818;stroke-width:1.0;"/></g><!--MD5=[5596b3f7f0193de7617ade807080578b]
link Employee to EmployeeRolesList--><g id="link_Employee_EmployeeRolesList"><path codeLine="35" d="M514.93,363.5 C525.77,363.5 537.67,363.5 549.73,363.5 " fill="none" id="Employee-to-EmployeeRolesList" style="stroke:#181818;stroke-width:1.0;"/><polygon fill="#181818" points="554.9,363.5,545.9,359.5,549.9,363.5,545.9,367.5,554.9,363.5" style="stroke:#181818;stroke-width:1.0;"/><text fill="#000000" font-family="sans-serif" font-size="13" lengthAdjust="spacing" textLength="4" x="532.75" y="356.9951"> </text><text fill="#000000" font-family="sans-serif" font-size="13" lengthAdjust="spacing" textLength="5" x="522.5755" y="359.8269">*</text><text fill="#000000" font-family="sans-serif" font-size="13" lengthAdjust="spacing" textLength="7" x="539.8992" y="360.3301">1</text></g><!--MD5=[6b1b7809ffa1a56732db0950d0ab5b2a]
@startuml
skinparam classAttributeIconSize 0

class Employee{
+getRole()
}

class EmployeeStore{
  -allEmployees
  +getEmployeeRolesList()
  +getListOfAllEmployees()
  +getListOfEmployeesByRole(role)
  +convertOptionToRole(option)
}

class EmployeeController {
  -allRoles
  +showRolesSelectionList()
  +showListOfEmployeesWithWantedRole(option)

}

class GetEmployeeListUI {

}

enum EmployeeRolesList{
RECEPTIONIST
NURSE
CENTER_COORDINATOR
}

GetEmployeeListUI ..> EmployeeController
EmployeeController -> EmployeeStore
EmployeeStore ..> Employee
Employee -> EmployeeRolesList: "*" "1"

@enduml

PlantUML version 1.2022.4(Sat Apr 09 14:29:17 BST 2022)
(GPL source distribution)
Java Runtime: OpenJDK Runtime Environment
JVM: OpenJDK 64-Bit Server VM
Default Encoding: Cp1252
Language: pt
Country: PT
--></g></svg>