<?xml version="1.0" encoding="UTF-8" standalone="no"?><svg xmlns="http://www.w3.org/2000/svg" xmlns:xlink="http://www.w3.org/1999/xlink" contentScriptType="application/ecmascript" contentStyleType="text/css" height="377px" preserveAspectRatio="none" style="width:821px;height:377px;background:#FFFFFF;" version="1.1" viewBox="0 0 821 377" width="821px" zoomAndPan="magnify"><defs><filter height="300%" id="f1xrie1gj2rt75" width="300%" x="-1" y="-1"><feGaussianBlur result="blurOut" stdDeviation="2.0"/><feColorMatrix in="blurOut" result="blurOut2" type="matrix" values="0 0 0 0 0 0 0 0 0 0 0 0 0 0 0 0 0 0 .4 0"/><feOffset dx="4.0" dy="4.0" in="blurOut2" result="blurOut3"/><feBlend in="SourceGraphic" in2="blurOut3" mode="normal"/></filter></defs><g><rect fill="#FFFFFF" filter="url(#f1xrie1gj2rt75)" height="174.1094" style="stroke:#A80036;stroke-width:1.0;" width="10" x="44.5" y="99.6094"/><rect fill="#FFFFFF" filter="url(#f1xrie1gj2rt75)" height="30.3516" style="stroke:#A80036;stroke-width:1.0;" width="10" x="772.5" y="182.6641"/><rect fill="#FFFFFF" filter="url(#f1xrie1gj2rt75)" height="30.3516" style="stroke:#A80036;stroke-width:1.0;" width="10" x="772.5" y="243.3672"/><line style="stroke:#A80036;stroke-width:1.0;stroke-dasharray:5.0,5.0;" x1="49" x2="49" y1="89.6094" y2="291.7188"/><line style="stroke:#A80036;stroke-width:1.0;stroke-dasharray:5.0,5.0;" x1="777.5" x2="777.5" y1="89.6094" y2="291.7188"/><text fill="#000000" font-family="sans-serif" font-size="14" lengthAdjust="spacing" textLength="83" x="5" y="86.5332">Administrator</text><ellipse cx="49.5" cy="15" fill="#FEFECE" filter="url(#f1xrie1gj2rt75)" rx="8" ry="8" style="stroke:#A80036;stroke-width:2.0;"/><path d="M49.5,23 L49.5,50 M36.5,31 L62.5,31 M49.5,50 L36.5,65 M49.5,50 L62.5,65 " fill="none" filter="url(#f1xrie1gj2rt75)" style="stroke:#A80036;stroke-width:2.0;"/><text fill="#000000" font-family="sans-serif" font-size="14" lengthAdjust="spacing" textLength="83" x="5" y="305.252">Administrator</text><ellipse cx="49.5" cy="318.3281" fill="#FEFECE" filter="url(#f1xrie1gj2rt75)" rx="8" ry="8" style="stroke:#A80036;stroke-width:2.0;"/><path d="M49.5,326.3281 L49.5,353.3281 M36.5,334.3281 L62.5,334.3281 M49.5,353.3281 L36.5,368.3281 M49.5,353.3281 L62.5,368.3281 " fill="none" filter="url(#f1xrie1gj2rt75)" style="stroke:#A80036;stroke-width:2.0;"/><rect fill="#FEFECE" filter="url(#f1xrie1gj2rt75)" height="31.6094" style="stroke:#A80036;stroke-width:1.5;" width="64" x="743.5" y="53"/><text fill="#000000" font-family="sans-serif" font-size="14" lengthAdjust="spacing" textLength="50" x="750.5" y="74.5332">:System</text><rect fill="#FEFECE" filter="url(#f1xrie1gj2rt75)" height="31.6094" style="stroke:#A80036;stroke-width:1.5;" width="64" x="743.5" y="290.7188"/><text fill="#000000" font-family="sans-serif" font-size="14" lengthAdjust="spacing" textLength="50" x="750.5" y="312.252">:System</text><rect fill="#FFFFFF" filter="url(#f1xrie1gj2rt75)" height="174.1094" style="stroke:#A80036;stroke-width:1.0;" width="10" x="44.5" y="99.6094"/><rect fill="#FFFFFF" filter="url(#f1xrie1gj2rt75)" height="30.3516" style="stroke:#A80036;stroke-width:1.0;" width="10" x="772.5" y="182.6641"/><rect fill="#FFFFFF" filter="url(#f1xrie1gj2rt75)" height="30.3516" style="stroke:#A80036;stroke-width:1.0;" width="10" x="772.5" y="243.3672"/><polygon fill="#A80036" points="765.5,117.9609,775.5,121.9609,765.5,125.9609,769.5,121.9609" style="stroke:#A80036;stroke-width:1.0;"/><line style="stroke:#A80036;stroke-width:1.0;" x1="54.5" x2="771.5" y1="121.9609" y2="121.9609"/><text fill="#000000" font-family="sans-serif" font-size="13" font-weight="bold" lengthAdjust="spacing" textLength="7" x="61.5" y="117.1045">1</text><text fill="#000000" font-family="sans-serif" font-size="13" lengthAdjust="spacing" textLength="190" x="72.5" y="117.1045">Asks to register a new employee</text><polygon fill="#A80036" points="65.5,148.3125,55.5,152.3125,65.5,156.3125,61.5,152.3125" style="stroke:#A80036;stroke-width:1.0;"/><line style="stroke:#A80036;stroke-width:1.0;stroke-dasharray:2.0,2.0;" x1="59.5" x2="776.5" y1="152.3125" y2="152.3125"/><text fill="#000000" font-family="sans-serif" font-size="13" font-weight="bold" lengthAdjust="spacing" textLength="7" x="71.5" y="147.4561">2</text><text fill="#000000" font-family="sans-serif" font-size="13" lengthAdjust="spacing" textLength="688" x="82.5" y="147.4561">Requests the data that characterizes the employee (role,name, adress, phone number, e-mail and citizen card number)</text><polygon fill="#A80036" points="760.5,178.6641,770.5,182.6641,760.5,186.6641,764.5,182.6641" style="stroke:#A80036;stroke-width:1.0;"/><line style="stroke:#A80036;stroke-width:1.0;" x1="54.5" x2="766.5" y1="182.6641" y2="182.6641"/><text fill="#000000" font-family="sans-serif" font-size="13" font-weight="bold" lengthAdjust="spacing" textLength="7" x="61.5" y="177.8076">3</text><text fill="#000000" font-family="sans-serif" font-size="13" lengthAdjust="spacing" textLength="150" x="72.5" y="177.8076">Enters the requested data</text><polygon fill="#A80036" points="65.5,209.0156,55.5,213.0156,65.5,217.0156,61.5,213.0156" style="stroke:#A80036;stroke-width:1.0;"/><line style="stroke:#A80036;stroke-width:1.0;stroke-dasharray:2.0,2.0;" x1="59.5" x2="776.5" y1="213.0156" y2="213.0156"/><text fill="#000000" font-family="sans-serif" font-size="13" font-weight="bold" lengthAdjust="spacing" textLength="7" x="71.5" y="208.1592">4</text><text fill="#000000" font-family="sans-serif" font-size="13" lengthAdjust="spacing" textLength="244" x="82.5" y="208.1592">Displays the data, asking you to confirm it</text><polygon fill="#A80036" points="760.5,239.3672,770.5,243.3672,760.5,247.3672,764.5,243.3672" style="stroke:#A80036;stroke-width:1.0;"/><line style="stroke:#A80036;stroke-width:1.0;" x1="54.5" x2="766.5" y1="243.3672" y2="243.3672"/><text fill="#000000" font-family="sans-serif" font-size="13" font-weight="bold" lengthAdjust="spacing" textLength="7" x="61.5" y="238.5107">5</text><text fill="#000000" font-family="sans-serif" font-size="13" lengthAdjust="spacing" textLength="80" x="72.5" y="238.5107">Confirms data</text><polygon fill="#A80036" points="60.5,269.7188,50.5,273.7188,60.5,277.7188,56.5,273.7188" style="stroke:#A80036;stroke-width:1.0;"/><line style="stroke:#A80036;stroke-width:1.0;stroke-dasharray:2.0,2.0;" x1="54.5" x2="776.5" y1="273.7188" y2="273.7188"/><text fill="#000000" font-family="sans-serif" font-size="13" font-weight="bold" lengthAdjust="spacing" textLength="7" x="66.5" y="268.8623">6</text><text fill="#000000" font-family="sans-serif" font-size="13" lengthAdjust="spacing" textLength="212" x="77.5" y="268.8623">Informs the Success of the operation</text><!--MD5=[5b00f3e554389042c49e625aaecaa04a]
@startuml
autonumber
actor "Administrator" as ADM

activate ADM

ADM -> ":System" : Asks to register a new employee
":System" - -> ADM : Requests the data that characterizes the employee (role,name, adress, phone number, e-mail and citizen card number)
deactivate ":System"

ADM -> ":System" : Enters the requested data
activate ":System"
":System" - -> ADM : Displays the data, asking you to confirm it
deactivate ":System"

ADM -> ":System" : Confirms data
activate ":System"
":System" - -> ADM : Informs the Success of the operation
deactivate ":System"

deactivate ADM
@enduml

PlantUML version 1.2022.0(Tue Jan 11 16:16:42 GMT 2022)
(GPL source distribution)
Java Runtime: OpenJDK Runtime Environment
JVM: OpenJDK 64-Bit Server VM
Default Encoding: Cp1252
Language: pt
Country: PT
--></g></svg>