@startuml
skinparam classAttributeIconSize 0




class VaccinationCenter{
-waitingRoom
-type
-name
-phoneNumber
-e-mailAddress
-faxNumber
-websiteAddress
-openingHour
-closingHour
-slotDuration
-MaxNumberOfVaccinesPerSlot
-centerCapacity
+getWaitingRoom()
}


class ConsultWaitingRoomController {
    +getSessionVaccinationCenter()
    +getWaitingRoom(vc)
}

class ConsultWaitingRoomUI {

}

class Appointment {
}

class SNSUser {
SNSUserNumber
phoneNumber
emailAddress
Birthdate
CitizenCardNumber
Gender
}
class Nurse {
}


class "<B>WaitingRoom</B>" as WaitingRoom{
-arrivalList
+getArrivalList()
}

class EmployeeSession{
+getVaccinationCenter()
}






class Date{
-day
-month
-year
}
class Time{
-hour
-minute
-second
}


class "<B>Arrival</B>" as Arrival{
-arrivalTime
-SNSUser
-appointment
+getArrivalTime()
+getSNSUserNumber()
+getScheduledTime()
+getName()
+getBirthDate()
+getSex()
+getPhoneNumber()

}

class WaitingRoomMapper{
+waitingRoomToDto(wr)
+arrivalToDto(arrival)

}

class WaitingRoomDTO{
-arrivalDTOList
+add(arrivalDTO)

}
class ArrivalDTO{
- arrivalTime
- SnsUserNumber
- name
- birthdate
- sex
- scheduledTime
- phoneNumber

}

Arrival "1"--"1" Appointment: **to attend** >
SNSUser "1"--"1..*" Arrival:**performs** >
WaitingRoom "1"--"0..*" Arrival: **has** >
Nurse "1"--"*" WaitingRoomDTO: **checks** >
VaccinationCenter "1" -- "*" WaitingRoom: **has** >
WaitingRoomMapper "1"--"*"WaitingRoom:maps >
WaitingRoomMapper "1"--"*"WaitingRoomDTO:creates >
WaitingRoomMapper "1"--"*"ArrivalDTO:creates >
WaitingRoomDTO "1"--"1"WaitingRoom:receives information from >
ArrivalDTO "1"--"1"Arrival:receives information from >
WaitingRoom "1"--"*" Vaccine: to take >
Appointment "1"--"1" Date: has a certain >
Appointment "1"--"1" Time: has a certain >

ConsultWaitingRoomUI ..> ConsultWaitingRoomController
ConsultWaitingRoomController ..> EmployeeSession

ConsultWaitingRoomController ..> VaccinationCenter


@enduml