@startuml
hide methods
left to right direction
skinparam classAttributeIconSize 0

class Administrator {
}

class "<B>Vaccine</B>" as Vaccine{
name
brand

}
class VaccineAdministrationProcess {
**numberOfDoses**

}
class "<B>DoseAdministration</B>"{
**doseNumber**
timePreviousToCurrentDose
dosage
recoveryTime
}
class AgeGroup{
minimumAge
maximumAge
}

class VaccineType{
 name
 }

 class "<B>Company</B>" as Company{
  **designation**
  }


 class SNSUser {
 SNSUserNumber
 phoneNumber
 email
 }
 SNSUser "*"------"1" AgeGroup: belongs to >
 VaccineAdministrationProcess "1" -- "*" "<B>DoseAdministration</B>": has >
Administrator "1" -- "*" Vaccine: creates >
VaccineAdministrationProcess "*" -- "1" AgeGroup: administered on >
SNSUser "1" -- "*" VaccineAdministrationProcess : takes >
Vaccine "*" --- "1" Nurse: administered by >
Vaccine "1" -- "*" VaccineType : is of >
Vaccine "1" -- "1" VaccineAdministrationProcess : has a certain >
Company "1" -- "*" Vaccine: **provides** >
@enduml