<?xml version="1.0" encoding="UTF-8" standalone="no"?><svg xmlns="http://www.w3.org/2000/svg" xmlns:xlink="http://www.w3.org/1999/xlink" contentScriptType="application/ecmascript" contentStyleType="text/css" height="1151px" preserveAspectRatio="none" style="width:1362px;height:1151px;background:#FFFFFF;" version="1.1" viewBox="0 0 1362 1151" width="1362px" zoomAndPan="magnify"><defs><filter height="300%" id="f142tz3q0i9z5o" width="300%" x="-1" y="-1"><feGaussianBlur result="blurOut" stdDeviation="2.0"/><feColorMatrix in="blurOut" result="blurOut2" type="matrix" values="0 0 0 0 0 0 0 0 0 0 0 0 0 0 0 0 0 0 .4 0"/><feOffset dx="4.0" dy="4.0" in="blurOut2" result="blurOut3"/><feBlend in="SourceGraphic" in2="blurOut3" mode="normal"/></filter></defs><g><!--MD5=[de60e6d4f424ae4d0522096f76a59010]
class VaccinationCenter--><rect codeLine="9" fill="#FEFECE" filter="url(#f142tz3q0i9z5o)" height="192.1953" id="VaccinationCenter" style="stroke:#A80036;stroke-width:1.5;" width="161" x="333" y="583"/><ellipse cx="361.05" cy="599" fill="#ADD1B2" rx="11" ry="11" style="stroke:#A80036;stroke-width:1.0;"/><path d="M363.05,595.5 Q363.2531,595 363.4875,594.75 Q363.7219,594.5 363.9875,594.5 Q364.4563,594.5 364.7531,594.7813 Q365.05,595.0625 365.05,595.7188 L365.05,597.2813 Q365.05,597.9375 364.7688,598.2188 Q364.4875,598.5 364.05,598.5 Q363.6594,598.5 363.4094,598.3281 Q363.1594,598.1563 363.05,597.7031 Q363.0031,597.3906 362.8313,597.2188 Q362.5188,596.8906 361.9563,596.7031 Q361.3938,596.5 360.8313,596.5 Q360.1281,596.5 359.5344,596.7813 Q358.9563,597.0625 358.5031,597.6875 Q358.05,598.3125 358.05,599.1719 L358.05,600.0938 Q358.05,601.125 358.8938,601.8125 Q359.7375,602.5 361.2375,602.5 Q362.1281,602.5 362.7531,602.2969 Q363.1125,602.1875 363.5188,601.8281 Q363.7844,601.625 363.925,601.5625 Q364.0656,601.5 364.2375,601.5 Q364.5656,601.5 364.8,601.7656 Q365.05,602.0156 365.05,602.375 Q365.05,602.7188 364.7063,603.125 Q364.2063,603.7188 363.4094,604.0469 Q362.3625,604.5 361.0813,604.5 Q359.5813,604.5 358.3781,603.9063 Q357.4094,603.4375 356.7219,602.4219 Q356.05,601.4063 356.05,600.2031 L356.05,599.1094 Q356.05,597.8594 356.6438,596.7656 Q357.2531,595.6719 358.3,595.0938 Q359.3625,594.5 360.55,594.5 Q361.2688,594.5 361.8938,594.75 Q362.5188,595 363.05,595.5 Z " fill="#000000"/><text fill="#000000" font-family="sans-serif" font-size="12" lengthAdjust="spacing" textLength="100" x="377.95" y="603.9102">VaccinationCenter</text><line style="stroke:#A80036;stroke-width:1.5;" x1="334" x2="493" y1="615" y2="615"/><text fill="#000000" font-family="sans-serif" font-size="11" lengthAdjust="spacing" textLength="21" x="339" y="630.4189">type</text><text fill="#000000" font-family="sans-serif" font-size="11" lengthAdjust="spacing" textLength="26" x="339" y="644.2549">name</text><text fill="#000000" font-family="sans-serif" font-size="11" lengthAdjust="spacing" textLength="67" x="339" y="658.0908">phoneNumber</text><text fill="#000000" font-family="sans-serif" font-size="11" lengthAdjust="spacing" textLength="70" x="339" y="671.9268">e-mailAddress</text><text fill="#000000" font-family="sans-serif" font-size="11" lengthAdjust="spacing" textLength="53" x="339" y="685.7627">faxNumber</text><text fill="#000000" font-family="sans-serif" font-size="11" lengthAdjust="spacing" textLength="81" x="339" y="699.5986">websiteAddress</text><text fill="#000000" font-family="sans-serif" font-size="11" lengthAdjust="spacing" textLength="61" x="339" y="713.4346">openingHour</text><text fill="#000000" font-family="sans-serif" font-size="11" lengthAdjust="spacing" textLength="57" x="339" y="727.2705">closingHour</text><text fill="#000000" font-family="sans-serif" font-size="11" lengthAdjust="spacing" textLength="57" x="339" y="741.1064">slotDuration</text><text fill="#000000" font-family="sans-serif" font-size="11" lengthAdjust="spacing" textLength="149" x="339" y="754.9424">MaxNumberOfVaccinesPerSlot</text><text fill="#000000" font-family="sans-serif" font-size="11" lengthAdjust="spacing" textLength="73" x="339" y="768.7783">centerCapacity</text><!--MD5=[1db03e903fe0a044a2ca0dcbef10799a]
class HealthCareCenter--><rect codeLine="23" fill="#FEFECE" filter="url(#f142tz3q0i9z5o)" height="67.6719" id="HealthCareCenter" style="stroke:#A80036;stroke-width:1.5;" width="132" x="53.5" y="854"/><ellipse cx="68.5" cy="870" fill="#ADD1B2" rx="11" ry="11" style="stroke:#A80036;stroke-width:1.0;"/><path d="M70.5,866.5 Q70.7031,866 70.9375,865.75 Q71.1719,865.5 71.4375,865.5 Q71.9063,865.5 72.2031,865.7813 Q72.5,866.0625 72.5,866.7188 L72.5,868.2813 Q72.5,868.9375 72.2188,869.2188 Q71.9375,869.5 71.5,869.5 Q71.1094,869.5 70.8594,869.3281 Q70.6094,869.1563 70.5,868.7031 Q70.4531,868.3906 70.2813,868.2188 Q69.9688,867.8906 69.4063,867.7031 Q68.8438,867.5 68.2813,867.5 Q67.5781,867.5 66.9844,867.7813 Q66.4063,868.0625 65.9531,868.6875 Q65.5,869.3125 65.5,870.1719 L65.5,871.0938 Q65.5,872.125 66.3438,872.8125 Q67.1875,873.5 68.6875,873.5 Q69.5781,873.5 70.2031,873.2969 Q70.5625,873.1875 70.9688,872.8281 Q71.2344,872.625 71.375,872.5625 Q71.5156,872.5 71.6875,872.5 Q72.0156,872.5 72.25,872.7656 Q72.5,873.0156 72.5,873.375 Q72.5,873.7188 72.1563,874.125 Q71.6563,874.7188 70.8594,875.0469 Q69.8125,875.5 68.5313,875.5 Q67.0313,875.5 65.8281,874.9063 Q64.8594,874.4375 64.1719,873.4219 Q63.5,872.4063 63.5,871.2031 L63.5,870.1094 Q63.5,868.8594 64.0938,867.7656 Q64.7031,866.6719 65.75,866.0938 Q66.8125,865.5 68,865.5 Q68.7188,865.5 69.3438,865.75 Q69.9688,866 70.5,866.5 Z " fill="#000000"/><text fill="#000000" font-family="sans-serif" font-size="12" lengthAdjust="spacing" textLength="100" x="82.5" y="874.9102">HealthCareCenter</text><line style="stroke:#A80036;stroke-width:1.5;" x1="54.5" x2="184.5" y1="886" y2="886"/><text fill="#000000" font-family="sans-serif" font-size="11" lengthAdjust="spacing" textLength="22" x="59.5" y="901.4189">ARS</text><text fill="#000000" font-family="sans-serif" font-size="11" lengthAdjust="spacing" textLength="29" x="59.5" y="915.2549">AGES</text><!--MD5=[f193ac87da4d43f097a93df7e18669f9]
class MassCommunityVaccinationCenter--><rect codeLine="28" fill="#FEFECE" filter="url(#f142tz3q0i9z5o)" height="40" id="MassCommunityVaccinationCenter" style="stroke:#A80036;stroke-width:1.5;" width="225" x="7" y="1054"/><ellipse cx="22" cy="1070" fill="#ADD1B2" rx="11" ry="11" style="stroke:#A80036;stroke-width:1.0;"/><path d="M24,1066.5 Q24.2031,1066 24.4375,1065.75 Q24.6719,1065.5 24.9375,1065.5 Q25.4063,1065.5 25.7031,1065.7813 Q26,1066.0625 26,1066.7188 L26,1068.2813 Q26,1068.9375 25.7188,1069.2188 Q25.4375,1069.5 25,1069.5 Q24.6094,1069.5 24.3594,1069.3281 Q24.1094,1069.1563 24,1068.7031 Q23.9531,1068.3906 23.7813,1068.2188 Q23.4688,1067.8906 22.9063,1067.7031 Q22.3438,1067.5 21.7813,1067.5 Q21.0781,1067.5 20.4844,1067.7813 Q19.9063,1068.0625 19.4531,1068.6875 Q19,1069.3125 19,1070.1719 L19,1071.0938 Q19,1072.125 19.8438,1072.8125 Q20.6875,1073.5 22.1875,1073.5 Q23.0781,1073.5 23.7031,1073.2969 Q24.0625,1073.1875 24.4688,1072.8281 Q24.7344,1072.625 24.875,1072.5625 Q25.0156,1072.5 25.1875,1072.5 Q25.5156,1072.5 25.75,1072.7656 Q26,1073.0156 26,1073.375 Q26,1073.7188 25.6563,1074.125 Q25.1563,1074.7188 24.3594,1075.0469 Q23.3125,1075.5 22.0313,1075.5 Q20.5313,1075.5 19.3281,1074.9063 Q18.3594,1074.4375 17.6719,1073.4219 Q17,1072.4063 17,1071.2031 L17,1070.1094 Q17,1068.8594 17.5938,1067.7656 Q18.2031,1066.6719 19.25,1066.0938 Q20.3125,1065.5 21.5,1065.5 Q22.2188,1065.5 22.8438,1065.75 Q23.4688,1066 24,1066.5 Z " fill="#000000"/><text fill="#000000" font-family="sans-serif" font-size="12" lengthAdjust="spacing" textLength="193" x="36" y="1074.9102">MassCommunityVaccinationCenter</text><line style="stroke:#A80036;stroke-width:1.5;" x1="8" x2="231" y1="1086" y2="1086"/><!--MD5=[bea5b0d46523efab5ea1c1d339f396f0]
class Message--><rect codeLine="31" fill="#FEFECE" filter="url(#f142tz3q0i9z5o)" height="53.8359" id="Message" style="stroke:#A80036;stroke-width:1.5;" width="93" x="681" y="237"/><ellipse cx="700.5" cy="253" fill="#ADD1B2" rx="11" ry="11" style="stroke:#A80036;stroke-width:1.0;"/><path d="M702.5,249.5 Q702.7031,249 702.9375,248.75 Q703.1719,248.5 703.4375,248.5 Q703.9063,248.5 704.2031,248.7813 Q704.5,249.0625 704.5,249.7188 L704.5,251.2813 Q704.5,251.9375 704.2188,252.2188 Q703.9375,252.5 703.5,252.5 Q703.1094,252.5 702.8594,252.3281 Q702.6094,252.1563 702.5,251.7031 Q702.4531,251.3906 702.2813,251.2188 Q701.9688,250.8906 701.4063,250.7031 Q700.8438,250.5 700.2813,250.5 Q699.5781,250.5 698.9844,250.7813 Q698.4063,251.0625 697.9531,251.6875 Q697.5,252.3125 697.5,253.1719 L697.5,254.0938 Q697.5,255.125 698.3438,255.8125 Q699.1875,256.5 700.6875,256.5 Q701.5781,256.5 702.2031,256.2969 Q702.5625,256.1875 702.9688,255.8281 Q703.2344,255.625 703.375,255.5625 Q703.5156,255.5 703.6875,255.5 Q704.0156,255.5 704.25,255.7656 Q704.5,256.0156 704.5,256.375 Q704.5,256.7188 704.1563,257.125 Q703.6563,257.7188 702.8594,258.0469 Q701.8125,258.5 700.5313,258.5 Q699.0313,258.5 697.8281,257.9063 Q696.8594,257.4375 696.1719,256.4219 Q695.5,255.4063 695.5,254.2031 L695.5,253.1094 Q695.5,251.8594 696.0938,250.7656 Q696.7031,249.6719 697.75,249.0938 Q698.8125,248.5 700,248.5 Q700.7188,248.5 701.3438,248.75 Q701.9688,249 702.5,249.5 Z " fill="#000000"/><text fill="#000000" font-family="sans-serif" font-size="12" lengthAdjust="spacing" textLength="51" x="715.5" y="257.9102">Message</text><line style="stroke:#A80036;stroke-width:1.5;" x1="682" x2="773" y1="269" y2="269"/><text fill="#000000" font-family="sans-serif" font-size="11" lengthAdjust="spacing" textLength="81" x="687" y="284.4189">messageContent</text><!--MD5=[c508b5b6bbe276ff5e2700b6641f837f]
class Appointment--><rect codeLine="35" fill="#FEFECE" filter="url(#f142tz3q0i9z5o)" height="40" id="Appointment" style="stroke:#A80036;stroke-width:1.5;" width="101" x="677" y="564"/><ellipse cx="692" cy="580" fill="#ADD1B2" rx="11" ry="11" style="stroke:#A80036;stroke-width:1.0;"/><path d="M694,576.5 Q694.2031,576 694.4375,575.75 Q694.6719,575.5 694.9375,575.5 Q695.4063,575.5 695.7031,575.7813 Q696,576.0625 696,576.7188 L696,578.2813 Q696,578.9375 695.7188,579.2188 Q695.4375,579.5 695,579.5 Q694.6094,579.5 694.3594,579.3281 Q694.1094,579.1563 694,578.7031 Q693.9531,578.3906 693.7813,578.2188 Q693.4688,577.8906 692.9063,577.7031 Q692.3438,577.5 691.7813,577.5 Q691.0781,577.5 690.4844,577.7813 Q689.9063,578.0625 689.4531,578.6875 Q689,579.3125 689,580.1719 L689,581.0938 Q689,582.125 689.8438,582.8125 Q690.6875,583.5 692.1875,583.5 Q693.0781,583.5 693.7031,583.2969 Q694.0625,583.1875 694.4688,582.8281 Q694.7344,582.625 694.875,582.5625 Q695.0156,582.5 695.1875,582.5 Q695.5156,582.5 695.75,582.7656 Q696,583.0156 696,583.375 Q696,583.7188 695.6563,584.125 Q695.1563,584.7188 694.3594,585.0469 Q693.3125,585.5 692.0313,585.5 Q690.5313,585.5 689.3281,584.9063 Q688.3594,584.4375 687.6719,583.4219 Q687,582.4063 687,581.2031 L687,580.1094 Q687,578.8594 687.5938,577.7656 Q688.2031,576.6719 689.25,576.0938 Q690.3125,575.5 691.5,575.5 Q692.2188,575.5 692.8438,575.75 Q693.4688,576 694,576.5 Z " fill="#000000"/><text fill="#000000" font-family="sans-serif" font-size="12" lengthAdjust="spacing" textLength="69" x="706" y="584.9102">Appointment</text><line style="stroke:#A80036;stroke-width:1.5;" x1="678" x2="777" y1="596" y2="596"/><!--MD5=[72be06cc7ae02ccc98efe28a50e62246]
class SNSUser--><rect codeLine="38" fill="#FEFECE" filter="url(#f142tz3q0i9z5o)" height="123.0156" id="SNSUser" style="stroke:#A80036;stroke-width:1.5;" width="104" x="968" y="419.5"/><ellipse cx="992" cy="435.5" fill="#ADD1B2" rx="11" ry="11" style="stroke:#A80036;stroke-width:1.0;"/><path d="M994,432 Q994.2031,431.5 994.4375,431.25 Q994.6719,431 994.9375,431 Q995.4063,431 995.7031,431.2813 Q996,431.5625 996,432.2188 L996,433.7813 Q996,434.4375 995.7188,434.7188 Q995.4375,435 995,435 Q994.6094,435 994.3594,434.8281 Q994.1094,434.6563 994,434.2031 Q993.9531,433.8906 993.7813,433.7188 Q993.4688,433.3906 992.9063,433.2031 Q992.3438,433 991.7813,433 Q991.0781,433 990.4844,433.2813 Q989.9063,433.5625 989.4531,434.1875 Q989,434.8125 989,435.6719 L989,436.5938 Q989,437.625 989.8438,438.3125 Q990.6875,439 992.1875,439 Q993.0781,439 993.7031,438.7969 Q994.0625,438.6875 994.4688,438.3281 Q994.7344,438.125 994.875,438.0625 Q995.0156,438 995.1875,438 Q995.5156,438 995.75,438.2656 Q996,438.5156 996,438.875 Q996,439.2188 995.6563,439.625 Q995.1563,440.2188 994.3594,440.5469 Q993.3125,441 992.0313,441 Q990.5313,441 989.3281,440.4063 Q988.3594,439.9375 987.6719,438.9219 Q987,437.9063 987,436.7031 L987,435.6094 Q987,434.3594 987.5938,433.2656 Q988.2031,432.1719 989.25,431.5938 Q990.3125,431 991.5,431 Q992.2188,431 992.8438,431.25 Q993.4688,431.5 994,432 Z " fill="#000000"/><text fill="#000000" font-family="sans-serif" font-size="12" lengthAdjust="spacing" textLength="52" x="1008" y="440.4102">SNSUser</text><line style="stroke:#A80036;stroke-width:1.5;" x1="969" x2="1071" y1="451.5" y2="451.5"/><text fill="#000000" font-family="sans-serif" font-size="11" lengthAdjust="spacing" textLength="81" x="974" y="466.9189">SNSUserNumber</text><text fill="#000000" font-family="sans-serif" font-size="11" lengthAdjust="spacing" textLength="67" x="974" y="480.7549">phoneNumber</text><text fill="#000000" font-family="sans-serif" font-size="11" lengthAdjust="spacing" textLength="66" x="974" y="494.5908">emailAddress</text><text fill="#000000" font-family="sans-serif" font-size="11" lengthAdjust="spacing" textLength="43" x="974" y="508.4268">Birthdate</text><text fill="#000000" font-family="sans-serif" font-size="11" lengthAdjust="spacing" textLength="92" x="974" y="522.2627">CitizenCardNumber</text><text fill="#000000" font-family="sans-serif" font-size="11" lengthAdjust="spacing" textLength="36" x="974" y="536.0986">Gender</text><!--MD5=[ade87be7d0bbac1c6123d2fb440b3468]
class SMS--><rect codeLine="47" fill="#FEFECE" filter="url(#f142tz3q0i9z5o)" height="53.8359" id="SMS" style="stroke:#A80036;stroke-width:1.5;" width="57" x="385" y="395"/><ellipse cx="400" cy="411" fill="#ADD1B2" rx="11" ry="11" style="stroke:#A80036;stroke-width:1.0;"/><path d="M402,407.5 Q402.2031,407 402.4375,406.75 Q402.6719,406.5 402.9375,406.5 Q403.4063,406.5 403.7031,406.7813 Q404,407.0625 404,407.7188 L404,409.2813 Q404,409.9375 403.7188,410.2188 Q403.4375,410.5 403,410.5 Q402.6094,410.5 402.3594,410.3281 Q402.1094,410.1563 402,409.7031 Q401.9531,409.3906 401.7813,409.2188 Q401.4688,408.8906 400.9063,408.7031 Q400.3438,408.5 399.7813,408.5 Q399.0781,408.5 398.4844,408.7813 Q397.9063,409.0625 397.4531,409.6875 Q397,410.3125 397,411.1719 L397,412.0938 Q397,413.125 397.8438,413.8125 Q398.6875,414.5 400.1875,414.5 Q401.0781,414.5 401.7031,414.2969 Q402.0625,414.1875 402.4688,413.8281 Q402.7344,413.625 402.875,413.5625 Q403.0156,413.5 403.1875,413.5 Q403.5156,413.5 403.75,413.7656 Q404,414.0156 404,414.375 Q404,414.7188 403.6563,415.125 Q403.1563,415.7188 402.3594,416.0469 Q401.3125,416.5 400.0313,416.5 Q398.5313,416.5 397.3281,415.9063 Q396.3594,415.4375 395.6719,414.4219 Q395,413.4063 395,412.2031 L395,411.1094 Q395,409.8594 395.5938,408.7656 Q396.2031,407.6719 397.25,407.0938 Q398.3125,406.5 399.5,406.5 Q400.2188,406.5 400.8438,406.75 Q401.4688,407 402,407.5 Z " fill="#000000"/><text fill="#000000" font-family="sans-serif" font-size="12" lengthAdjust="spacing" textLength="25" x="414" y="415.9102">SMS</text><line style="stroke:#A80036;stroke-width:1.5;" x1="386" x2="441" y1="427" y2="427"/><text fill="#000000" font-family="sans-serif" font-size="11" lengthAdjust="spacing" textLength="36" x="391" y="442.4189">number</text><!--MD5=[2e42295458bb0bec21c9622a623eb29e]
class Time--><rect codeLine="52" fill="#FEFECE" filter="url(#f142tz3q0i9z5o)" height="81.5078" id="Time" style="stroke:#A80036;stroke-width:1.5;" width="60" x="990" y="7"/><ellipse cx="1005" cy="23" fill="#ADD1B2" rx="11" ry="11" style="stroke:#A80036;stroke-width:1.0;"/><path d="M1007,19.5 Q1007.2031,19 1007.4375,18.75 Q1007.6719,18.5 1007.9375,18.5 Q1008.4063,18.5 1008.7031,18.7813 Q1009,19.0625 1009,19.7188 L1009,21.2813 Q1009,21.9375 1008.7188,22.2188 Q1008.4375,22.5 1008,22.5 Q1007.6094,22.5 1007.3594,22.3281 Q1007.1094,22.1563 1007,21.7031 Q1006.9531,21.3906 1006.7813,21.2188 Q1006.4688,20.8906 1005.9063,20.7031 Q1005.3438,20.5 1004.7813,20.5 Q1004.0781,20.5 1003.4844,20.7813 Q1002.9063,21.0625 1002.4531,21.6875 Q1002,22.3125 1002,23.1719 L1002,24.0938 Q1002,25.125 1002.8438,25.8125 Q1003.6875,26.5 1005.1875,26.5 Q1006.0781,26.5 1006.7031,26.2969 Q1007.0625,26.1875 1007.4688,25.8281 Q1007.7344,25.625 1007.875,25.5625 Q1008.0156,25.5 1008.1875,25.5 Q1008.5156,25.5 1008.75,25.7656 Q1009,26.0156 1009,26.375 Q1009,26.7188 1008.6563,27.125 Q1008.1563,27.7188 1007.3594,28.0469 Q1006.3125,28.5 1005.0313,28.5 Q1003.5313,28.5 1002.3281,27.9063 Q1001.3594,27.4375 1000.6719,26.4219 Q1000,25.4063 1000,24.2031 L1000,23.1094 Q1000,21.8594 1000.5938,20.7656 Q1001.2031,19.6719 1002.25,19.0938 Q1003.3125,18.5 1004.5,18.5 Q1005.2188,18.5 1005.8438,18.75 Q1006.4688,19 1007,19.5 Z " fill="#000000"/><text fill="#000000" font-family="sans-serif" font-size="12" lengthAdjust="spacing" textLength="28" x="1019" y="27.9102">Time</text><line style="stroke:#A80036;stroke-width:1.5;" x1="991" x2="1049" y1="39" y2="39"/><text fill="#000000" font-family="sans-serif" font-size="11" lengthAdjust="spacing" textLength="22" x="996" y="54.4189">hour</text><text fill="#000000" font-family="sans-serif" font-size="11" lengthAdjust="spacing" textLength="31" x="996" y="68.2549">minute</text><text fill="#000000" font-family="sans-serif" font-size="11" lengthAdjust="spacing" textLength="36" x="996" y="82.0908">second</text><!--MD5=[c59c99efa75f30327e326596f335a568]
class AgeGroup--><rect codeLine="58" fill="#FEFECE" filter="url(#f142tz3q0i9z5o)" height="67.6719" id="AgeGroup" style="stroke:#A80036;stroke-width:1.5;" width="87" x="1254" y="447"/><ellipse cx="1269" cy="463" fill="#ADD1B2" rx="11" ry="11" style="stroke:#A80036;stroke-width:1.0;"/><path d="M1271,459.5 Q1271.2031,459 1271.4375,458.75 Q1271.6719,458.5 1271.9375,458.5 Q1272.4063,458.5 1272.7031,458.7813 Q1273,459.0625 1273,459.7188 L1273,461.2813 Q1273,461.9375 1272.7188,462.2188 Q1272.4375,462.5 1272,462.5 Q1271.6094,462.5 1271.3594,462.3281 Q1271.1094,462.1563 1271,461.7031 Q1270.9531,461.3906 1270.7813,461.2188 Q1270.4688,460.8906 1269.9063,460.7031 Q1269.3438,460.5 1268.7813,460.5 Q1268.0781,460.5 1267.4844,460.7813 Q1266.9063,461.0625 1266.4531,461.6875 Q1266,462.3125 1266,463.1719 L1266,464.0938 Q1266,465.125 1266.8438,465.8125 Q1267.6875,466.5 1269.1875,466.5 Q1270.0781,466.5 1270.7031,466.2969 Q1271.0625,466.1875 1271.4688,465.8281 Q1271.7344,465.625 1271.875,465.5625 Q1272.0156,465.5 1272.1875,465.5 Q1272.5156,465.5 1272.75,465.7656 Q1273,466.0156 1273,466.375 Q1273,466.7188 1272.6563,467.125 Q1272.1563,467.7188 1271.3594,468.0469 Q1270.3125,468.5 1269.0313,468.5 Q1267.5313,468.5 1266.3281,467.9063 Q1265.3594,467.4375 1264.6719,466.4219 Q1264,465.4063 1264,464.2031 L1264,463.1094 Q1264,461.8594 1264.5938,460.7656 Q1265.2031,459.6719 1266.25,459.0938 Q1267.3125,458.5 1268.5,458.5 Q1269.2188,458.5 1269.8438,458.75 Q1270.4688,459 1271,459.5 Z " fill="#000000"/><text fill="#000000" font-family="sans-serif" font-size="12" lengthAdjust="spacing" textLength="55" x="1283" y="467.9102">AgeGroup</text><line style="stroke:#A80036;stroke-width:1.5;" x1="1255" x2="1340" y1="479" y2="479"/><text fill="#000000" font-family="sans-serif" font-size="11" lengthAdjust="spacing" textLength="60" x="1260" y="494.4189">minimumAge</text><text fill="#000000" font-family="sans-serif" font-size="11" lengthAdjust="spacing" textLength="64" x="1260" y="508.2549">maximumAge</text><!--MD5=[7829b64950ce38e0487c4015ea331f97]
class Date--><rect codeLine="63" fill="#FEFECE" filter="url(#f142tz3q0i9z5o)" height="81.5078" id="Date" style="stroke:#A80036;stroke-width:1.5;" width="58" x="991" y="205"/><ellipse cx="1006" cy="221" fill="#ADD1B2" rx="11" ry="11" style="stroke:#A80036;stroke-width:1.0;"/><path d="M1008,217.5 Q1008.2031,217 1008.4375,216.75 Q1008.6719,216.5 1008.9375,216.5 Q1009.4063,216.5 1009.7031,216.7813 Q1010,217.0625 1010,217.7188 L1010,219.2813 Q1010,219.9375 1009.7188,220.2188 Q1009.4375,220.5 1009,220.5 Q1008.6094,220.5 1008.3594,220.3281 Q1008.1094,220.1563 1008,219.7031 Q1007.9531,219.3906 1007.7813,219.2188 Q1007.4688,218.8906 1006.9063,218.7031 Q1006.3438,218.5 1005.7813,218.5 Q1005.0781,218.5 1004.4844,218.7813 Q1003.9063,219.0625 1003.4531,219.6875 Q1003,220.3125 1003,221.1719 L1003,222.0938 Q1003,223.125 1003.8438,223.8125 Q1004.6875,224.5 1006.1875,224.5 Q1007.0781,224.5 1007.7031,224.2969 Q1008.0625,224.1875 1008.4688,223.8281 Q1008.7344,223.625 1008.875,223.5625 Q1009.0156,223.5 1009.1875,223.5 Q1009.5156,223.5 1009.75,223.7656 Q1010,224.0156 1010,224.375 Q1010,224.7188 1009.6563,225.125 Q1009.1563,225.7188 1008.3594,226.0469 Q1007.3125,226.5 1006.0313,226.5 Q1004.5313,226.5 1003.3281,225.9063 Q1002.3594,225.4375 1001.6719,224.4219 Q1001,223.4063 1001,222.2031 L1001,221.1094 Q1001,219.8594 1001.5938,218.7656 Q1002.2031,217.6719 1003.25,217.0938 Q1004.3125,216.5 1005.5,216.5 Q1006.2188,216.5 1006.8438,216.75 Q1007.4688,217 1008,217.5 Z " fill="#000000"/><text fill="#000000" font-family="sans-serif" font-size="12" lengthAdjust="spacing" textLength="26" x="1020" y="225.9102">Date</text><line style="stroke:#A80036;stroke-width:1.5;" x1="992" x2="1048" y1="237" y2="237"/><text fill="#000000" font-family="sans-serif" font-size="11" lengthAdjust="spacing" textLength="18" x="997" y="252.4189">day</text><text fill="#000000" font-family="sans-serif" font-size="11" lengthAdjust="spacing" textLength="29" x="997" y="266.2549">month</text><text fill="#000000" font-family="sans-serif" font-size="11" lengthAdjust="spacing" textLength="22" x="997" y="280.0908">year</text><!--MD5=[0e501da62322464167c8ec4d233a6b7e]
class VaccineType--><rect codeLine="69" fill="#FEFECE" filter="url(#f142tz3q0i9z5o)" height="53.8359" id="VaccineType" style="stroke:#A80036;stroke-width:1.5;" width="101" x="1247" y="899"/><ellipse cx="1262" cy="915" fill="#ADD1B2" rx="11" ry="11" style="stroke:#A80036;stroke-width:1.0;"/><path d="M1264,911.5 Q1264.2031,911 1264.4375,910.75 Q1264.6719,910.5 1264.9375,910.5 Q1265.4063,910.5 1265.7031,910.7813 Q1266,911.0625 1266,911.7188 L1266,913.2813 Q1266,913.9375 1265.7188,914.2188 Q1265.4375,914.5 1265,914.5 Q1264.6094,914.5 1264.3594,914.3281 Q1264.1094,914.1563 1264,913.7031 Q1263.9531,913.3906 1263.7813,913.2188 Q1263.4688,912.8906 1262.9063,912.7031 Q1262.3438,912.5 1261.7813,912.5 Q1261.0781,912.5 1260.4844,912.7813 Q1259.9063,913.0625 1259.4531,913.6875 Q1259,914.3125 1259,915.1719 L1259,916.0938 Q1259,917.125 1259.8438,917.8125 Q1260.6875,918.5 1262.1875,918.5 Q1263.0781,918.5 1263.7031,918.2969 Q1264.0625,918.1875 1264.4688,917.8281 Q1264.7344,917.625 1264.875,917.5625 Q1265.0156,917.5 1265.1875,917.5 Q1265.5156,917.5 1265.75,917.7656 Q1266,918.0156 1266,918.375 Q1266,918.7188 1265.6563,919.125 Q1265.1563,919.7188 1264.3594,920.0469 Q1263.3125,920.5 1262.0313,920.5 Q1260.5313,920.5 1259.3281,919.9063 Q1258.3594,919.4375 1257.6719,918.4219 Q1257,917.4063 1257,916.2031 L1257,915.1094 Q1257,913.8594 1257.5938,912.7656 Q1258.2031,911.6719 1259.25,911.0938 Q1260.3125,910.5 1261.5,910.5 Q1262.2188,910.5 1262.8438,910.75 Q1263.4688,911 1264,911.5 Z " fill="#000000"/><text fill="#000000" font-family="sans-serif" font-size="12" lengthAdjust="spacing" textLength="69" x="1276" y="919.9102">VaccineType</text><line style="stroke:#A80036;stroke-width:1.5;" x1="1248" x2="1347" y1="931" y2="931"/><text fill="#000000" font-family="sans-serif" font-size="11" lengthAdjust="spacing" textLength="26" x="1253" y="946.4189">name</text><!--MD5=[19e445fc4d3b48519cbe33da05496394]
class Vaccine--><rect codeLine="73" fill="#FEFECE" filter="url(#f142tz3q0i9z5o)" height="67.6719" id="Vaccine" style="stroke:#A80036;stroke-width:1.5;" width="75" x="982.5" y="707"/><ellipse cx="997.5" cy="723" fill="#ADD1B2" rx="11" ry="11" style="stroke:#A80036;stroke-width:1.0;"/><path d="M999.5,719.5 Q999.7031,719 999.9375,718.75 Q1000.1719,718.5 1000.4375,718.5 Q1000.9063,718.5 1001.2031,718.7813 Q1001.5,719.0625 1001.5,719.7188 L1001.5,721.2813 Q1001.5,721.9375 1001.2188,722.2188 Q1000.9375,722.5 1000.5,722.5 Q1000.1094,722.5 999.8594,722.3281 Q999.6094,722.1563 999.5,721.7031 Q999.4531,721.3906 999.2813,721.2188 Q998.9688,720.8906 998.4063,720.7031 Q997.8438,720.5 997.2813,720.5 Q996.5781,720.5 995.9844,720.7813 Q995.4063,721.0625 994.9531,721.6875 Q994.5,722.3125 994.5,723.1719 L994.5,724.0938 Q994.5,725.125 995.3438,725.8125 Q996.1875,726.5 997.6875,726.5 Q998.5781,726.5 999.2031,726.2969 Q999.5625,726.1875 999.9688,725.8281 Q1000.2344,725.625 1000.375,725.5625 Q1000.5156,725.5 1000.6875,725.5 Q1001.0156,725.5 1001.25,725.7656 Q1001.5,726.0156 1001.5,726.375 Q1001.5,726.7188 1001.1563,727.125 Q1000.6563,727.7188 999.8594,728.0469 Q998.8125,728.5 997.5313,728.5 Q996.0313,728.5 994.8281,727.9063 Q993.8594,727.4375 993.1719,726.4219 Q992.5,725.4063 992.5,724.2031 L992.5,723.1094 Q992.5,721.8594 993.0938,720.7656 Q993.7031,719.6719 994.75,719.0938 Q995.8125,718.5 997,718.5 Q997.7188,718.5 998.3438,718.75 Q998.9688,719 999.5,719.5 Z " fill="#000000"/><text fill="#000000" font-family="sans-serif" font-size="12" lengthAdjust="spacing" textLength="43" x="1011.5" y="727.9102">Vaccine</text><line style="stroke:#A80036;stroke-width:1.5;" x1="983.5" x2="1056.5" y1="739" y2="739"/><text fill="#000000" font-family="sans-serif" font-size="11" lengthAdjust="spacing" textLength="26" x="988.5" y="754.4189">name</text><text fill="#000000" font-family="sans-serif" font-size="11" lengthAdjust="spacing" textLength="28" x="988.5" y="768.2549">brand</text><!--MD5=[d8bbe1c92b129e8dba0b9ca81b3b396c]
link Message to Date--><path codeLine="79" d="M774.31,253.38 C791.1,249.98 810.32,246.67 828,245 C885.61,239.55 953.42,241.99 990.77,244.1 " fill="none" id="Message-Date" style="stroke:#A80036;stroke-width:1.0;"/><polygon fill="#000000" points="837.9954,232.9616,828.8327,230.4128,829.0845,236.2853,837.9954,232.9616" style="stroke:#000000;stroke-width:1.0;"/><text fill="#000000" font-family="sans-serif" font-size="13" lengthAdjust="spacing" textLength="75" x="842" y="238.4951">has a certain</text><text fill="#000000" font-family="sans-serif" font-size="13" lengthAdjust="spacing" textLength="7" x="782.0137" y="266.5134">1</text><text fill="#000000" font-family="sans-serif" font-size="13" lengthAdjust="spacing" textLength="7" x="976.2012" y="259.1033">1</text><!--MD5=[1c1a990c034bf9cd3db896ca198d45ae]
link Message to SNSUser--><path codeLine="80" d="M743.46,291.03 C760.64,320 791.24,365.75 828,395 C869.97,428.4 926.99,451.86 967.77,465.75 " fill="none" id="Message-SNSUser" style="stroke:#A80036;stroke-width:1.0;"/><polygon fill="#000000" points="841.9446,389.2483,836.6148,381.3715,833.0028,386.0086,841.9446,389.2483" style="stroke:#000000;stroke-width:1.0;"/><text fill="#000000" font-family="sans-serif" font-size="13" lengthAdjust="spacing" textLength="65" x="847" y="391.4951">received by</text><text fill="#000000" font-family="sans-serif" font-size="13" lengthAdjust="spacing" textLength="7" x="739.1856" y="312.2443">1</text><text fill="#000000" font-family="sans-serif" font-size="13" lengthAdjust="spacing" textLength="7" x="952.933" y="478.2492">1</text><!--MD5=[16841d8e1a6ae6f6a9735c00cb293974]
link Message to Time--><path codeLine="81" d="M765,236.86 C823.36,193.47 936.54,109.31 989.87,69.66 " fill="none" id="Message-Time" style="stroke:#A80036;stroke-width:1.0;"/><polygon fill="#000000" points="837.0124,113.1924,828.0003,116.231,831.5075,120.9478,837.0124,113.1924" style="stroke:#000000;stroke-width:1.0;"/><text fill="#000000" font-family="sans-serif" font-size="13" lengthAdjust="spacing" textLength="75" x="842" y="121.4951">has a certain</text><text fill="#000000" font-family="sans-serif" font-size="13" lengthAdjust="spacing" textLength="7" x="765.8625" y="226.2886">1</text><text fill="#000000" font-family="sans-serif" font-size="13" lengthAdjust="spacing" textLength="7" x="975.0931" y="90.1116">1</text><!--MD5=[f17e71def2e220f6a6398972244b7dbb]
link VaccinationCenter to Appointment--><path codeLine="84" d="M494.04,654.78 C551.63,637.25 627.7,614.08 676.86,599.11 " fill="none" id="VaccinationCenter-Appointment" style="stroke:#A80036;stroke-width:1.0;"/><polygon fill="#000000" points="558.2832,604.7193,548.7742,604.5426,550.4865,610.1656,558.2832,604.7193" style="stroke:#000000;stroke-width:1.0;"/><text fill="#000000" font-family="sans-serif" font-size="13" lengthAdjust="spacing" textLength="59" x="562.5" y="611.4951">is place of</text><text fill="#000000" font-family="sans-serif" font-size="13" lengthAdjust="spacing" textLength="7" x="502.0501" y="666.7366">1</text><text fill="#000000" font-family="sans-serif" font-size="13" lengthAdjust="spacing" textLength="5" x="664.0551" y="616.0252">*</text><!--MD5=[ea2d64bbbbe00d2248a4dcf3ad4479be]
link HealthCareCenter to VaccineType--><path codeLine="86" d="M185.71,901.4 C244.68,912.34 334.03,926 412.5,926 C412.5,926 412.5,926 1021,926 C1100.04,926 1191.83,926 1246.98,926 " fill="none" id="HealthCareCenter-VaccineType" style="stroke:#A80036;stroke-width:1.0;"/><polygon fill="#000000" points="696.4987,917.2916,687.5241,914.1439,687.3879,920.0202,696.4987,917.2916" style="stroke:#000000;stroke-width:1.0;"/><text fill="#000000" font-family="sans-serif" font-size="13" lengthAdjust="spacing" textLength="67" x="700.5" y="922.4951">administers</text><text fill="#000000" font-family="sans-serif" font-size="13" lengthAdjust="spacing" textLength="7" x="193.3345" y="917.2729">1</text><text fill="#000000" font-family="sans-serif" font-size="13" lengthAdjust="spacing" textLength="5" x="1233.8613" y="940.7596">*</text><!--MD5=[98987725eaf233391716763c4133cca1]
link HealthCareCenter to VaccinationCenter--><path codeLine="87" d="M168.06,853.96 C208.07,825.33 266.52,783.49 316.23,747.9 " fill="none" id="HealthCareCenter-to-VaccinationCenter" style="stroke:#A80036;stroke-width:1.0;"/><polygon fill="none" points="312.38,742.05,332.72,736.1,320.53,753.44,312.38,742.05" style="stroke:#A80036;stroke-width:1.0;"/><!--MD5=[8281bfaef1a188b2775ba84bd086ce61]
link MassCommunityVaccinationCenter to VaccinationCenter--><path codeLine="89" d="M146.31,1053.9 C170.22,1034.52 205.92,1003.54 232,972 C277.62,916.83 320.08,849.12 352.34,792.69 " fill="none" id="MassCommunityVaccinationCenter-to-VaccinationCenter" style="stroke:#A80036;stroke-width:1.0;"/><polygon fill="none" points="346.3,789.16,362.23,775.19,358.49,796.04,346.3,789.16" style="stroke:#A80036;stroke-width:1.0;"/><!--MD5=[6fbb4ff882965395f5271dd59c352503]
link MassCommunityVaccinationCenter to VaccineType--><path codeLine="90" d="M171.83,1094.06 C229.46,1114.74 326.22,1144 412.5,1144 C412.5,1144 412.5,1144 1021,1144 C1142.68,1144 1242.02,1011.61 1279.95,953.17 " fill="none" id="MassCommunityVaccinationCenter-VaccineType" style="stroke:#A80036;stroke-width:1.0;"/><polygon fill="#000000" points="696.4601,1134.5451,687.1165,1132.7705,687.8579,1138.6014,696.4601,1134.5451" style="stroke:#000000;stroke-width:1.0;"/><text fill="#000000" font-family="sans-serif" font-size="13" lengthAdjust="spacing" textLength="67" x="700.5" y="1140.4951">administers</text><text fill="#000000" font-family="sans-serif" font-size="13" lengthAdjust="spacing" textLength="7" x="178.5634" y="1115.4964">1</text><text fill="#000000" font-family="sans-serif" font-size="13" lengthAdjust="spacing" textLength="7" x="1268.3453" y="974.415">1</text><!--MD5=[0842e86bfabf2992bafaf46f65678ecc]
link SMS to Appointment--><path codeLine="92" d="M442.19,436.38 C497.97,465.34 623.96,530.76 687.83,563.92 " fill="none" id="SMS-Appointment" style="stroke:#A80036;stroke-width:1.0;"/><polygon fill="#000000" points="553.4375,487.4798,546.7642,480.7035,544.0557,485.9201,553.4375,487.4798" style="stroke:#000000;stroke-width:1.0;"/><text fill="#000000" font-family="sans-serif" font-size="13" lengthAdjust="spacing" textLength="68" x="558" y="490.4951">to remind of</text><text fill="#000000" font-family="sans-serif" font-size="13" lengthAdjust="spacing" textLength="7" x="450.0363" y="455.3931">1</text><text fill="#000000" font-family="sans-serif" font-size="13" lengthAdjust="spacing" textLength="7" x="668.1488" y="553.2183">1</text><!--MD5=[21c4a7dcecbcad22d4cfb98f1a5be34e]
link SMS to Message--><path codeLine="93" d="M442.19,407.98 C491.4,383.06 595.27,330.46 662.91,296.2 " fill="none" id="SMS-to-Message" style="stroke:#A80036;stroke-width:1.0;"/><polygon fill="none" points="659.94,289.86,680.95,287.07,666.27,302.35,659.94,289.86" style="stroke:#A80036;stroke-width:1.0;"/><!--MD5=[6bee4428fa029b10117c8017dc752ad2]
link Appointment to Vaccine--><path codeLine="95" d="M740.97,604.2 C757.63,629.43 789.56,672.05 828,695 C876.47,723.93 942.1,734.68 982.44,738.67 " fill="none" id="Appointment-Vaccine" style="stroke:#A80036;stroke-width:1.0;"/><polygon fill="#000000" points="854.8683,688.6084,848.3958,681.6401,845.5361,686.7754,854.8683,688.6084" style="stroke:#000000;stroke-width:1.0;"/><text fill="#000000" font-family="sans-serif" font-size="13" lengthAdjust="spacing" textLength="40" x="859.5" y="691.4951">to take</text><text fill="#000000" font-family="sans-serif" font-size="13" lengthAdjust="spacing" textLength="5" x="738.9182" y="625.3211">*</text><text fill="#000000" font-family="sans-serif" font-size="13" lengthAdjust="spacing" textLength="7" x="967.6129" y="753.3107">1</text><!--MD5=[e9a70b774aa1ef9cc2005be09aaa9bee]
link Appointment to Date--><path codeLine="96" d="M778.05,570.27 C820.24,556.29 879.91,530.8 918,490 C957.71,447.47 945.75,422.76 968,369 C979.27,341.77 991.97,311.15 1001.87,287.28 " fill="none" id="Appointment-Date" style="stroke:#A80036;stroke-width:1.0;"/><polygon fill="#000000" points="836.1017,477.2541,828.1856,482.5253,832.7958,486.1716,836.1017,477.2541" style="stroke:#000000;stroke-width:1.0;"/><text fill="#000000" font-family="sans-serif" font-size="13" lengthAdjust="spacing" textLength="75" x="842" y="486.4951">has a certain</text><text fill="#000000" font-family="sans-serif" font-size="13" lengthAdjust="spacing" textLength="7" x="785.9886" y="582.9493">1</text><text fill="#000000" font-family="sans-serif" font-size="13" lengthAdjust="spacing" textLength="7" x="991.6931" y="308.0751">1</text><!--MD5=[19ab43ca298c1d9fd9821023da273d0e]
link Appointment to SNSUser--><path codeLine="97" d="M754.69,604.2 C792.56,630.77 864,670.77 918,641 C955.97,620.07 981.64,578.18 997.59,542.52 " fill="none" id="Appointment-SNSUser" style="stroke:#A80036;stroke-width:1.0;"/><polygon fill="#000000" points="844.8462,630.9452,835.356,630.3228,836.8027,636.0199,844.8462,630.9452" style="stroke:#000000;stroke-width:1.0;"/><text fill="#000000" font-family="sans-serif" font-size="13" lengthAdjust="spacing" textLength="61" x="849" y="637.4951">created by</text><text fill="#000000" font-family="sans-serif" font-size="13" lengthAdjust="spacing" textLength="5" x="756.3254" y="625.3211">*</text><text fill="#000000" font-family="sans-serif" font-size="13" lengthAdjust="spacing" textLength="7" x="987.5942" y="564.0728">1</text><!--MD5=[f78a9813840d149000a18b72ca69d94b]
link Appointment to Time--><path codeLine="98" d="M735.31,563.82 C749.2,524.23 783.28,434.45 828,368 C860.66,319.48 886.02,320.97 918,272 C948.92,224.65 944.72,206.53 968,155 C977.87,133.15 989.32,109.03 998.87,89.23 " fill="none" id="Appointment-Time" style="stroke:#A80036;stroke-width:1.0;"/><polygon fill="#000000" points="835.4275,258.8046,828.4668,265.2853,833.6054,268.139,835.4275,258.8046" style="stroke:#000000;stroke-width:1.0;"/><text fill="#000000" font-family="sans-serif" font-size="13" lengthAdjust="spacing" textLength="75" x="842" y="268.4951">has a certain</text><text fill="#000000" font-family="sans-serif" font-size="13" lengthAdjust="spacing" textLength="7" x="729.5761" y="553.0889">1</text><text fill="#000000" font-family="sans-serif" font-size="13" lengthAdjust="spacing" textLength="7" x="988.2525" y="110.0177">1</text><!--MD5=[3568623adf67b2630dce9e60c05bd02a]
link Vaccine to VaccineType--><path codeLine="100" d="M1057.76,765.61 C1093.37,789.47 1148.91,826.69 1197,859 C1216.53,872.12 1238.21,886.72 1256.33,898.92 " fill="none" id="Vaccine-VaccineType" style="stroke:#A80036;stroke-width:1.0;"/><polygon fill="#000000" points="1149.1513,804.9627,1143.2797,797.481,1140.0034,802.3611,1149.1513,804.9627" style="stroke:#000000;stroke-width:1.0;"/><text fill="#000000" font-family="sans-serif" font-size="13" lengthAdjust="spacing" textLength="24" x="1154" y="807.4951">is of</text><text fill="#000000" font-family="sans-serif" font-size="13" lengthAdjust="spacing" textLength="5" x="1065.4346" y="785.3862">*</text><text fill="#000000" font-family="sans-serif" font-size="13" lengthAdjust="spacing" textLength="7" x="1238.4417" y="887.9272">1</text><!--MD5=[9faeaa21c19ba2da3b23c70b17a118bf]
link SNSUser to AgeGroup--><path codeLine="102" d="M1072.17,481 C1124.46,481 1204.73,481 1253.74,481 " fill="none" id="SNSUser-AgeGroup" style="stroke:#A80036;stroke-width:1.0;"/><polygon fill="#000000" points="1132,472.1758,1122.9549,469.2369,1122.9549,475.1147,1132,472.1758" style="stroke:#000000;stroke-width:1.0;"/><text fill="#000000" font-family="sans-serif" font-size="13" lengthAdjust="spacing" textLength="60" x="1136" y="477.4951">belongs to</text><text fill="#000000" font-family="sans-serif" font-size="13" lengthAdjust="spacing" textLength="5" x="1079.858" y="495.6437">*</text><text fill="#000000" font-family="sans-serif" font-size="13" lengthAdjust="spacing" textLength="7" x="1238.9126" y="495.8764">1</text><!--MD5=[d4da35be576a7961be81bcbf0bb0141e]
@startuml
hide methods
left to right direction
skinparam classAttributeIconSize 0
'skinparam linetype ortho
skinparam ranksep 100
skinparam nodesep 100


class VaccinationCenter{
type
name
phoneNumber
e-mailAddress
faxNumber
websiteAddress
openingHour
closingHour
slotDuration
MaxNumberOfVaccinesPerSlot
centerCapacity
}

class HealthCareCenter {
ARS
AGES
}

class MassCommunityVaccinationCenter {
}

class Message{
messageContent
}

class Appointment {
}

class SNSUser {
SNSUserNumber
phoneNumber
emailAddress
Birthdate
CitizenCardNumber
Gender
}

class SMS{
number
}


class Time{
hour
minute
second
}

class AgeGroup{
minimumAge
maximumAge
}

class Date{
day
month
year
}

class VaccineType{
name
}

class Vaccine{
name
brand
}


Message "1"- -"1" Date: has a certain >
Message "1"- -"1" SNSUser: received by >
Message "1"- -"1" Time: has a certain >


VaccinationCenter "1" - - "*" Appointment: is place of >

HealthCareCenter "1" - - "*" VaccineType: administers >
HealthCareCenter - -|> VaccinationCenter
'HealthCareCenter "*" - - "1" Administrator : registered by >
MassCommunityVaccinationCenter - -|> VaccinationCenter
MassCommunityVaccinationCenter "1" - - "1" VaccineType: administers >

SMS "1"- -"1" Appointment: to remind of >
SMS- -|>Message

Appointment "*" - - "1" Vaccine: to take >
Appointment "1"- -"1" Date: has a certain >
Appointment "*"- -"1" SNSUser:created by >
Appointment "1"- -"1" Time: has a certain >

Vaccine "*" - - "1" VaccineType : is of >

SNSUser "*"- -"1" AgeGroup: belongs to >

@enduml

@startuml
hide methods
left to right direction
skinparam classAttributeIconSize 0
skinparam ranksep 100
skinparam nodesep 100


class VaccinationCenter{
type
name
phoneNumber
e-mailAddress
faxNumber
websiteAddress
openingHour
closingHour
slotDuration
MaxNumberOfVaccinesPerSlot
centerCapacity
}

class HealthCareCenter {
ARS
AGES
}

class MassCommunityVaccinationCenter {
}

class Message{
messageContent
}

class Appointment {
}

class SNSUser {
SNSUserNumber
phoneNumber
emailAddress
Birthdate
CitizenCardNumber
Gender
}

class SMS{
number
}


class Time{
hour
minute
second
}

class AgeGroup{
minimumAge
maximumAge
}

class Date{
day
month
year
}

class VaccineType{
name
}

class Vaccine{
name
brand
}


Message "1"- -"1" Date: has a certain >
Message "1"- -"1" SNSUser: received by >
Message "1"- -"1" Time: has a certain >


VaccinationCenter "1" - - "*" Appointment: is place of >

HealthCareCenter "1" - - "*" VaccineType: administers >
HealthCareCenter - -|> VaccinationCenter
MassCommunityVaccinationCenter - -|> VaccinationCenter
MassCommunityVaccinationCenter "1" - - "1" VaccineType: administers >

SMS "1"- -"1" Appointment: to remind of >
SMS- -|>Message

Appointment "*" - - "1" Vaccine: to take >
Appointment "1"- -"1" Date: has a certain >
Appointment "*"- -"1" SNSUser:created by >
Appointment "1"- -"1" Time: has a certain >

Vaccine "*" - - "1" VaccineType : is of >

SNSUser "*"- -"1" AgeGroup: belongs to >

@enduml

PlantUML version 1.2022.0(Tue Jan 11 16:16:42 GMT 2022)
(GPL source distribution)
Java Runtime: OpenJDK Runtime Environment
JVM: OpenJDK 64-Bit Server VM
Default Encoding: Cp1252
Language: pt
Country: PT
--></g></svg>