<?xml version="1.0" encoding="UTF-8" standalone="no"?><svg xmlns="http://www.w3.org/2000/svg" xmlns:xlink="http://www.w3.org/1999/xlink" contentStyleType="text/css" height="844px" preserveAspectRatio="none" style="width:1133px;height:844px;background:#FFFFFF;" version="1.1" viewBox="0 0 1133 844" width="1133px" zoomAndPan="magnify"><defs/><g><!--MD5=[ade87be7d0bbac1c6123d2fb440b3468]
class SMS--><g id="elem_SMS"><rect codeLine="10" fill="#F1F1F1" height="57.6094" id="SMS" rx="2.5" ry="2.5" style="stroke:#181818;stroke-width:0.5;" width="61" x="78.5" y="218"/><ellipse cx="93.5" cy="234" fill="#ADD1B2" rx="11" ry="11" style="stroke:#181818;stroke-width:1.0;"/><path d="M95.5,230.5 Q95.7031,230 95.9375,229.75 Q96.1719,229.5 96.4375,229.5 Q96.9063,229.5 97.2031,229.7813 Q97.5,230.0625 97.5,230.7188 L97.5,232.2813 Q97.5,232.9375 97.2188,233.2188 Q96.9375,233.5 96.5,233.5 Q96.1094,233.5 95.8594,233.3281 Q95.6094,233.1563 95.5,232.7031 Q95.4531,232.3906 95.2813,232.2188 Q94.9688,231.8906 94.4063,231.7031 Q93.8438,231.5 93.2813,231.5 Q92.5781,231.5 91.9844,231.7813 Q91.4063,232.0625 90.9531,232.6875 Q90.5,233.3125 90.5,234.1719 L90.5,235.0938 Q90.5,236.125 91.3438,236.8125 Q92.1875,237.5 93.6875,237.5 Q94.5781,237.5 95.2031,237.2969 Q95.5625,237.1875 95.9688,236.8281 Q96.2344,236.625 96.375,236.5625 Q96.5156,236.5 96.6875,236.5 Q97.0156,236.5 97.25,236.7656 Q97.5,237.0156 97.5,237.375 Q97.5,237.7188 97.1563,238.125 Q96.6563,238.7188 95.8594,239.0469 Q94.8125,239.5 93.5313,239.5 Q92.0313,239.5 90.8281,238.9063 Q89.8594,238.4375 89.1719,237.4219 Q88.5,236.4063 88.5,235.2031 L88.5,234.1094 Q88.5,232.8594 89.0938,231.7656 Q89.7031,230.6719 90.75,230.0938 Q91.8125,229.5 93,229.5 Q93.7188,229.5 94.3438,229.75 Q94.9688,230 95.5,230.5 Z " fill="#000000"/><text fill="#000000" font-family="sans-serif" font-size="14" lengthAdjust="spacing" textLength="29" x="107.5" y="239.7285">SMS</text><line style="stroke:#181818;stroke-width:0.5;" x1="79.5" x2="138.5" y1="250" y2="250"/><text fill="#000000" font-family="sans-serif" font-size="14" lengthAdjust="spacing" textLength="48" x="84.5" y="268.5332">number</text></g><!--MD5=[bea5b0d46523efab5ea1c1d339f396f0]
class Message--><g id="elem_Message"><rect codeLine="14" fill="#F1F1F1" height="57.6094" id="Message" rx="2.5" ry="2.5" style="stroke:#181818;stroke-width:0.5;" width="119" x="394" y="172"/><ellipse cx="422.5" cy="188" fill="#ADD1B2" rx="11" ry="11" style="stroke:#181818;stroke-width:1.0;"/><path d="M424.5,184.5 Q424.7031,184 424.9375,183.75 Q425.1719,183.5 425.4375,183.5 Q425.9063,183.5 426.2031,183.7813 Q426.5,184.0625 426.5,184.7188 L426.5,186.2813 Q426.5,186.9375 426.2188,187.2188 Q425.9375,187.5 425.5,187.5 Q425.1094,187.5 424.8594,187.3281 Q424.6094,187.1563 424.5,186.7031 Q424.4531,186.3906 424.2813,186.2188 Q423.9688,185.8906 423.4063,185.7031 Q422.8438,185.5 422.2813,185.5 Q421.5781,185.5 420.9844,185.7813 Q420.4063,186.0625 419.9531,186.6875 Q419.5,187.3125 419.5,188.1719 L419.5,189.0938 Q419.5,190.125 420.3438,190.8125 Q421.1875,191.5 422.6875,191.5 Q423.5781,191.5 424.2031,191.2969 Q424.5625,191.1875 424.9688,190.8281 Q425.2344,190.625 425.375,190.5625 Q425.5156,190.5 425.6875,190.5 Q426.0156,190.5 426.25,190.7656 Q426.5,191.0156 426.5,191.375 Q426.5,191.7188 426.1563,192.125 Q425.6563,192.7188 424.8594,193.0469 Q423.8125,193.5 422.5313,193.5 Q421.0313,193.5 419.8281,192.9063 Q418.8594,192.4375 418.1719,191.4219 Q417.5,190.4063 417.5,189.2031 L417.5,188.1094 Q417.5,186.8594 418.0938,185.7656 Q418.7031,184.6719 419.75,184.0938 Q420.8125,183.5 422,183.5 Q422.7188,183.5 423.3438,183.75 Q423.9688,184 424.5,184.5 Z " fill="#000000"/><text fill="#000000" font-family="sans-serif" font-size="14" lengthAdjust="spacing" textLength="57" x="439.5" y="193.7285">Message</text><line style="stroke:#181818;stroke-width:0.5;" x1="395" x2="512" y1="204" y2="204"/><text fill="#000000" font-family="sans-serif" font-size="14" lengthAdjust="spacing" textLength="107" x="400" y="222.5332">messageContent</text></g><!--MD5=[de60e6d4f424ae4d0522096f76a59010]
class VaccinationCenter--><g id="elem_VaccinationCenter"><rect codeLine="18" fill="#F1F1F1" height="233.7031" id="VaccinationCenter" rx="2.5" ry="2.5" style="stroke:#181818;stroke-width:0.5;" width="204" x="7" y="437"/><ellipse cx="47.2" cy="453" fill="#ADD1B2" rx="11" ry="11" style="stroke:#181818;stroke-width:1.0;"/><path d="M49.2,449.5 Q49.4031,449 49.6375,448.75 Q49.8719,448.5 50.1375,448.5 Q50.6063,448.5 50.9031,448.7813 Q51.2,449.0625 51.2,449.7188 L51.2,451.2813 Q51.2,451.9375 50.9188,452.2188 Q50.6375,452.5 50.2,452.5 Q49.8094,452.5 49.5594,452.3281 Q49.3094,452.1563 49.2,451.7031 Q49.1531,451.3906 48.9813,451.2188 Q48.6688,450.8906 48.1063,450.7031 Q47.5438,450.5 46.9813,450.5 Q46.2781,450.5 45.6844,450.7813 Q45.1063,451.0625 44.6531,451.6875 Q44.2,452.3125 44.2,453.1719 L44.2,454.0938 Q44.2,455.125 45.0438,455.8125 Q45.8875,456.5 47.3875,456.5 Q48.2781,456.5 48.9031,456.2969 Q49.2625,456.1875 49.6688,455.8281 Q49.9344,455.625 50.075,455.5625 Q50.2156,455.5 50.3875,455.5 Q50.7156,455.5 50.95,455.7656 Q51.2,456.0156 51.2,456.375 Q51.2,456.7188 50.8563,457.125 Q50.3563,457.7188 49.5594,458.0469 Q48.5125,458.5 47.2313,458.5 Q45.7313,458.5 44.5281,457.9063 Q43.5594,457.4375 42.8719,456.4219 Q42.2,455.4063 42.2,454.2031 L42.2,453.1094 Q42.2,451.8594 42.7938,450.7656 Q43.4031,449.6719 44.45,449.0938 Q45.5125,448.5 46.7,448.5 Q47.4188,448.5 48.0438,448.75 Q48.6688,449 49.2,449.5 Z " fill="#000000"/><text fill="#000000" font-family="sans-serif" font-size="14" lengthAdjust="spacing" textLength="116" x="66.8" y="458.7285">VaccinationCenter</text><line style="stroke:#181818;stroke-width:0.5;" x1="8" x2="210" y1="469" y2="469"/><text fill="#000000" font-family="sans-serif" font-size="14" lengthAdjust="spacing" textLength="27" x="13" y="487.5332">type</text><text fill="#000000" font-family="sans-serif" font-size="14" lengthAdjust="spacing" textLength="35" x="13" y="505.1426">name</text><text fill="#000000" font-family="sans-serif" font-size="14" lengthAdjust="spacing" textLength="89" x="13" y="522.752">phoneNumber</text><text fill="#000000" font-family="sans-serif" font-size="14" lengthAdjust="spacing" textLength="90" x="13" y="540.3613">e-mailAddress</text><text fill="#000000" font-family="sans-serif" font-size="14" lengthAdjust="spacing" textLength="67" x="13" y="557.9707">faxNumber</text><text fill="#000000" font-family="sans-serif" font-size="14" lengthAdjust="spacing" textLength="99" x="13" y="575.5801">websiteAddress</text><text fill="#000000" font-family="sans-serif" font-size="14" lengthAdjust="spacing" textLength="81" x="13" y="593.1895">openingHour</text><text fill="#000000" font-family="sans-serif" font-size="14" lengthAdjust="spacing" textLength="74" x="13" y="610.7988">closingHour</text><text fill="#000000" font-family="sans-serif" font-size="14" lengthAdjust="spacing" textLength="76" x="13" y="628.4082">slotDuration</text><text fill="#000000" font-family="sans-serif" font-size="14" lengthAdjust="spacing" textLength="192" x="13" y="646.0176">MaxNumberOfVaccinesPerSlot</text><text fill="#000000" font-family="sans-serif" font-size="14" lengthAdjust="spacing" textLength="95" x="13" y="663.627">centerCapacity</text></g><!--MD5=[c508b5b6bbe276ff5e2700b6641f837f]
class Appointment--><g id="elem_Appointment"><rect codeLine="32" fill="#F1F1F1" height="40" id="Appointment" rx="2.5" ry="2.5" style="stroke:#181818;stroke-width:0.5;" width="111" x="398" y="534"/><ellipse cx="413" cy="550" fill="#ADD1B2" rx="11" ry="11" style="stroke:#181818;stroke-width:1.0;"/><path d="M415,546.5 Q415.2031,546 415.4375,545.75 Q415.6719,545.5 415.9375,545.5 Q416.4063,545.5 416.7031,545.7813 Q417,546.0625 417,546.7188 L417,548.2813 Q417,548.9375 416.7188,549.2188 Q416.4375,549.5 416,549.5 Q415.6094,549.5 415.3594,549.3281 Q415.1094,549.1563 415,548.7031 Q414.9531,548.3906 414.7813,548.2188 Q414.4688,547.8906 413.9063,547.7031 Q413.3438,547.5 412.7813,547.5 Q412.0781,547.5 411.4844,547.7813 Q410.9063,548.0625 410.4531,548.6875 Q410,549.3125 410,550.1719 L410,551.0938 Q410,552.125 410.8438,552.8125 Q411.6875,553.5 413.1875,553.5 Q414.0781,553.5 414.7031,553.2969 Q415.0625,553.1875 415.4688,552.8281 Q415.7344,552.625 415.875,552.5625 Q416.0156,552.5 416.1875,552.5 Q416.5156,552.5 416.75,552.7656 Q417,553.0156 417,553.375 Q417,553.7188 416.6563,554.125 Q416.1563,554.7188 415.3594,555.0469 Q414.3125,555.5 413.0313,555.5 Q411.5313,555.5 410.3281,554.9063 Q409.3594,554.4375 408.6719,553.4219 Q408,552.4063 408,551.2031 L408,550.1094 Q408,548.8594 408.5938,547.7656 Q409.2031,546.6719 410.25,546.0938 Q411.3125,545.5 412.5,545.5 Q413.2188,545.5 413.8438,545.75 Q414.4688,546 415,546.5 Z " fill="#000000"/><text fill="#000000" font-family="sans-serif" font-size="14" lengthAdjust="spacing" textLength="79" x="427" y="555.7285">Appointment</text><line style="stroke:#181818;stroke-width:0.5;" x1="399" x2="508" y1="566" y2="566"/></g><!--MD5=[72be06cc7ae02ccc98efe28a50e62246]
class SNSUser--><g id="elem_SNSUser"><rect codeLine="35" fill="#F1F1F1" height="145.6563" id="SNSUser" rx="2.5" ry="2.5" style="stroke:#181818;stroke-width:0.5;" width="134" x="703" y="7"/><ellipse cx="738.7" cy="23" fill="#ADD1B2" rx="11" ry="11" style="stroke:#181818;stroke-width:1.0;"/><path d="M740.7,19.5 Q740.9031,19 741.1375,18.75 Q741.3719,18.5 741.6375,18.5 Q742.1063,18.5 742.4031,18.7813 Q742.7,19.0625 742.7,19.7188 L742.7,21.2813 Q742.7,21.9375 742.4188,22.2188 Q742.1375,22.5 741.7,22.5 Q741.3094,22.5 741.0594,22.3281 Q740.8094,22.1563 740.7,21.7031 Q740.6531,21.3906 740.4813,21.2188 Q740.1688,20.8906 739.6063,20.7031 Q739.0438,20.5 738.4813,20.5 Q737.7781,20.5 737.1844,20.7813 Q736.6063,21.0625 736.1531,21.6875 Q735.7,22.3125 735.7,23.1719 L735.7,24.0938 Q735.7,25.125 736.5438,25.8125 Q737.3875,26.5 738.8875,26.5 Q739.7781,26.5 740.4031,26.2969 Q740.7625,26.1875 741.1688,25.8281 Q741.4344,25.625 741.575,25.5625 Q741.7156,25.5 741.8875,25.5 Q742.2156,25.5 742.45,25.7656 Q742.7,26.0156 742.7,26.375 Q742.7,26.7188 742.3563,27.125 Q741.8563,27.7188 741.0594,28.0469 Q740.0125,28.5 738.7313,28.5 Q737.2313,28.5 736.0281,27.9063 Q735.0594,27.4375 734.3719,26.4219 Q733.7,25.4063 733.7,24.2031 L733.7,23.1094 Q733.7,21.8594 734.2938,20.7656 Q734.9031,19.6719 735.95,19.0938 Q737.0125,18.5 738.2,18.5 Q738.9188,18.5 739.5438,18.75 Q740.1688,19 740.7,19.5 Z " fill="#000000"/><text fill="#000000" font-family="sans-serif" font-size="14" lengthAdjust="spacing" textLength="56" x="757.3" y="28.7285">SNSUser</text><line style="stroke:#181818;stroke-width:0.5;" x1="704" x2="836" y1="39" y2="39"/><text fill="#000000" font-family="sans-serif" font-size="14" lengthAdjust="spacing" textLength="105" x="709" y="57.5332">SNSUserNumber</text><text fill="#000000" font-family="sans-serif" font-size="14" lengthAdjust="spacing" textLength="89" x="709" y="75.1426">phoneNumber</text><text fill="#000000" font-family="sans-serif" font-size="14" lengthAdjust="spacing" textLength="85" x="709" y="92.752">emailAddress</text><text fill="#000000" font-family="sans-serif" font-size="14" lengthAdjust="spacing" textLength="57" x="709" y="110.3613">Birthdate</text><text fill="#000000" font-family="sans-serif" font-size="14" lengthAdjust="spacing" textLength="122" x="709" y="127.9707">CitizenCardNumber</text><text fill="#000000" font-family="sans-serif" font-size="14" lengthAdjust="spacing" textLength="48" x="709" y="145.5801">Gender</text></g><!--MD5=[c59c99efa75f30327e326596f335a568]
class AgeGroup--><g id="elem_AgeGroup"><rect codeLine="44" fill="#F1F1F1" height="75.2188" id="AgeGroup" rx="2.5" ry="2.5" style="stroke:#181818;stroke-width:0.5;" width="97" x="1020.5" y="42.5"/><ellipse cx="1035.5" cy="58.5" fill="#ADD1B2" rx="11" ry="11" style="stroke:#181818;stroke-width:1.0;"/><path d="M1037.5,55 Q1037.7031,54.5 1037.9375,54.25 Q1038.1719,54 1038.4375,54 Q1038.9063,54 1039.2031,54.2813 Q1039.5,54.5625 1039.5,55.2188 L1039.5,56.7813 Q1039.5,57.4375 1039.2188,57.7188 Q1038.9375,58 1038.5,58 Q1038.1094,58 1037.8594,57.8281 Q1037.6094,57.6563 1037.5,57.2031 Q1037.4531,56.8906 1037.2813,56.7188 Q1036.9688,56.3906 1036.4063,56.2031 Q1035.8438,56 1035.2813,56 Q1034.5781,56 1033.9844,56.2813 Q1033.4063,56.5625 1032.9531,57.1875 Q1032.5,57.8125 1032.5,58.6719 L1032.5,59.5938 Q1032.5,60.625 1033.3438,61.3125 Q1034.1875,62 1035.6875,62 Q1036.5781,62 1037.2031,61.7969 Q1037.5625,61.6875 1037.9688,61.3281 Q1038.2344,61.125 1038.375,61.0625 Q1038.5156,61 1038.6875,61 Q1039.0156,61 1039.25,61.2656 Q1039.5,61.5156 1039.5,61.875 Q1039.5,62.2188 1039.1563,62.625 Q1038.6563,63.2188 1037.8594,63.5469 Q1036.8125,64 1035.5313,64 Q1034.0313,64 1032.8281,63.4063 Q1031.8594,62.9375 1031.1719,61.9219 Q1030.5,60.9063 1030.5,59.7031 L1030.5,58.6094 Q1030.5,57.3594 1031.0938,56.2656 Q1031.7031,55.1719 1032.75,54.5938 Q1033.8125,54 1035,54 Q1035.7188,54 1036.3438,54.25 Q1036.9688,54.5 1037.5,55 Z " fill="#000000"/><text fill="#000000" font-family="sans-serif" font-size="14" lengthAdjust="spacing" textLength="65" x="1049.5" y="64.2285">AgeGroup</text><line style="stroke:#181818;stroke-width:0.5;" x1="1021.5" x2="1116.5" y1="74.5" y2="74.5"/><text fill="#000000" font-family="sans-serif" font-size="14" lengthAdjust="spacing" textLength="80" x="1026.5" y="93.0332">minimumAge</text><text fill="#000000" font-family="sans-serif" font-size="14" lengthAdjust="spacing" textLength="83" x="1026.5" y="110.6426">maximumAge</text></g><!--MD5=[2e42295458bb0bec21c9622a623eb29e]
class Time--><g id="elem_Time"><rect codeLine="49" fill="#F1F1F1" height="92.8281" id="Time" rx="2.5" ry="2.5" style="stroke:#181818;stroke-width:0.5;" width="63" x="738.5" y="499.5"/><ellipse cx="753.5" cy="515.5" fill="#ADD1B2" rx="11" ry="11" style="stroke:#181818;stroke-width:1.0;"/><path d="M755.5,512 Q755.7031,511.5 755.9375,511.25 Q756.1719,511 756.4375,511 Q756.9063,511 757.2031,511.2813 Q757.5,511.5625 757.5,512.2188 L757.5,513.7813 Q757.5,514.4375 757.2188,514.7188 Q756.9375,515 756.5,515 Q756.1094,515 755.8594,514.8281 Q755.6094,514.6563 755.5,514.2031 Q755.4531,513.8906 755.2813,513.7188 Q754.9688,513.3906 754.4063,513.2031 Q753.8438,513 753.2813,513 Q752.5781,513 751.9844,513.2813 Q751.4063,513.5625 750.9531,514.1875 Q750.5,514.8125 750.5,515.6719 L750.5,516.5938 Q750.5,517.625 751.3438,518.3125 Q752.1875,519 753.6875,519 Q754.5781,519 755.2031,518.7969 Q755.5625,518.6875 755.9688,518.3281 Q756.2344,518.125 756.375,518.0625 Q756.5156,518 756.6875,518 Q757.0156,518 757.25,518.2656 Q757.5,518.5156 757.5,518.875 Q757.5,519.2188 757.1563,519.625 Q756.6563,520.2188 755.8594,520.5469 Q754.8125,521 753.5313,521 Q752.0313,521 750.8281,520.4063 Q749.8594,519.9375 749.1719,518.9219 Q748.5,517.9063 748.5,516.7031 L748.5,515.6094 Q748.5,514.3594 749.0938,513.2656 Q749.7031,512.1719 750.75,511.5938 Q751.8125,511 753,511 Q753.7188,511 754.3438,511.25 Q754.9688,511.5 755.5,512 Z " fill="#000000"/><text fill="#000000" font-family="sans-serif" font-size="14" lengthAdjust="spacing" textLength="31" x="767.5" y="521.2285">Time</text><line style="stroke:#181818;stroke-width:0.5;" x1="739.5" x2="800.5" y1="531.5" y2="531.5"/><text fill="#000000" font-family="sans-serif" font-size="14" lengthAdjust="spacing" textLength="29" x="744.5" y="550.0332">hour</text><text fill="#000000" font-family="sans-serif" font-size="14" lengthAdjust="spacing" textLength="42" x="744.5" y="567.6426">minute</text><text fill="#000000" font-family="sans-serif" font-size="14" lengthAdjust="spacing" textLength="46" x="744.5" y="585.252">second</text></g><!--MD5=[7829b64950ce38e0487c4015ea331f97]
class Date--><g id="elem_Date"><rect codeLine="55" fill="#F1F1F1" height="92.8281" id="Date" rx="2.5" ry="2.5" style="stroke:#181818;stroke-width:0.5;" width="62" x="739" y="271.5"/><ellipse cx="754" cy="287.5" fill="#ADD1B2" rx="11" ry="11" style="stroke:#181818;stroke-width:1.0;"/><path d="M756,284 Q756.2031,283.5 756.4375,283.25 Q756.6719,283 756.9375,283 Q757.4063,283 757.7031,283.2813 Q758,283.5625 758,284.2188 L758,285.7813 Q758,286.4375 757.7188,286.7188 Q757.4375,287 757,287 Q756.6094,287 756.3594,286.8281 Q756.1094,286.6563 756,286.2031 Q755.9531,285.8906 755.7813,285.7188 Q755.4688,285.3906 754.9063,285.2031 Q754.3438,285 753.7813,285 Q753.0781,285 752.4844,285.2813 Q751.9063,285.5625 751.4531,286.1875 Q751,286.8125 751,287.6719 L751,288.5938 Q751,289.625 751.8438,290.3125 Q752.6875,291 754.1875,291 Q755.0781,291 755.7031,290.7969 Q756.0625,290.6875 756.4688,290.3281 Q756.7344,290.125 756.875,290.0625 Q757.0156,290 757.1875,290 Q757.5156,290 757.75,290.2656 Q758,290.5156 758,290.875 Q758,291.2188 757.6563,291.625 Q757.1563,292.2188 756.3594,292.5469 Q755.3125,293 754.0313,293 Q752.5313,293 751.3281,292.4063 Q750.3594,291.9375 749.6719,290.9219 Q749,289.9063 749,288.7031 L749,287.6094 Q749,286.3594 749.5938,285.2656 Q750.2031,284.1719 751.25,283.5938 Q752.3125,283 753.5,283 Q754.2188,283 754.8438,283.25 Q755.4688,283.5 756,284 Z " fill="#000000"/><text fill="#000000" font-family="sans-serif" font-size="14" lengthAdjust="spacing" textLength="30" x="768" y="293.2285">Date</text><line style="stroke:#181818;stroke-width:0.5;" x1="740" x2="800" y1="303.5" y2="303.5"/><text fill="#000000" font-family="sans-serif" font-size="14" lengthAdjust="spacing" textLength="23" x="745" y="322.0332">day</text><text fill="#000000" font-family="sans-serif" font-size="14" lengthAdjust="spacing" textLength="39" x="745" y="339.6426">month</text><text fill="#000000" font-family="sans-serif" font-size="14" lengthAdjust="spacing" textLength="28" x="745" y="357.252">year</text></g><!--MD5=[19e445fc4d3b48519cbe33da05496394]
class Vaccine--><g id="elem_Vaccine"><rect codeLine="61" fill="#F1F1F1" height="75.2188" id="Vaccine" rx="2.5" ry="2.5" style="stroke:#181818;stroke-width:0.5;" width="82" x="729" y="762.5"/><ellipse cx="744" cy="778.5" fill="#ADD1B2" rx="11" ry="11" style="stroke:#181818;stroke-width:1.0;"/><path d="M746,775 Q746.2031,774.5 746.4375,774.25 Q746.6719,774 746.9375,774 Q747.4063,774 747.7031,774.2813 Q748,774.5625 748,775.2188 L748,776.7813 Q748,777.4375 747.7188,777.7188 Q747.4375,778 747,778 Q746.6094,778 746.3594,777.8281 Q746.1094,777.6563 746,777.2031 Q745.9531,776.8906 745.7813,776.7188 Q745.4688,776.3906 744.9063,776.2031 Q744.3438,776 743.7813,776 Q743.0781,776 742.4844,776.2813 Q741.9063,776.5625 741.4531,777.1875 Q741,777.8125 741,778.6719 L741,779.5938 Q741,780.625 741.8438,781.3125 Q742.6875,782 744.1875,782 Q745.0781,782 745.7031,781.7969 Q746.0625,781.6875 746.4688,781.3281 Q746.7344,781.125 746.875,781.0625 Q747.0156,781 747.1875,781 Q747.5156,781 747.75,781.2656 Q748,781.5156 748,781.875 Q748,782.2188 747.6563,782.625 Q747.1563,783.2188 746.3594,783.5469 Q745.3125,784 744.0313,784 Q742.5313,784 741.3281,783.4063 Q740.3594,782.9375 739.6719,781.9219 Q739,780.9063 739,779.7031 L739,778.6094 Q739,777.3594 739.5938,776.2656 Q740.2031,775.1719 741.25,774.5938 Q742.3125,774 743.5,774 Q744.2188,774 744.8438,774.25 Q745.4688,774.5 746,775 Z " fill="#000000"/><text fill="#000000" font-family="sans-serif" font-size="14" lengthAdjust="spacing" textLength="50" x="758" y="784.2285">Vaccine</text><line style="stroke:#181818;stroke-width:0.5;" x1="730" x2="810" y1="794.5" y2="794.5"/><text fill="#000000" font-family="sans-serif" font-size="14" lengthAdjust="spacing" textLength="35" x="735" y="813.0332">name</text><text fill="#000000" font-family="sans-serif" font-size="14" lengthAdjust="spacing" textLength="37" x="735" y="830.6426">brand</text></g><!--MD5=[0e501da62322464167c8ec4d233a6b7e]
class VaccineType--><g id="elem_VaccineType"><rect codeLine="66" fill="#F1F1F1" height="57.6094" id="VaccineType" rx="2.5" ry="2.5" style="stroke:#181818;stroke-width:0.5;" width="114" x="1012" y="771"/><ellipse cx="1027" cy="787" fill="#ADD1B2" rx="11" ry="11" style="stroke:#181818;stroke-width:1.0;"/><path d="M1029,783.5 Q1029.2031,783 1029.4375,782.75 Q1029.6719,782.5 1029.9375,782.5 Q1030.4063,782.5 1030.7031,782.7813 Q1031,783.0625 1031,783.7188 L1031,785.2813 Q1031,785.9375 1030.7188,786.2188 Q1030.4375,786.5 1030,786.5 Q1029.6094,786.5 1029.3594,786.3281 Q1029.1094,786.1563 1029,785.7031 Q1028.9531,785.3906 1028.7813,785.2188 Q1028.4688,784.8906 1027.9063,784.7031 Q1027.3438,784.5 1026.7813,784.5 Q1026.0781,784.5 1025.4844,784.7813 Q1024.9063,785.0625 1024.4531,785.6875 Q1024,786.3125 1024,787.1719 L1024,788.0938 Q1024,789.125 1024.8438,789.8125 Q1025.6875,790.5 1027.1875,790.5 Q1028.0781,790.5 1028.7031,790.2969 Q1029.0625,790.1875 1029.4688,789.8281 Q1029.7344,789.625 1029.875,789.5625 Q1030.0156,789.5 1030.1875,789.5 Q1030.5156,789.5 1030.75,789.7656 Q1031,790.0156 1031,790.375 Q1031,790.7188 1030.6563,791.125 Q1030.1563,791.7188 1029.3594,792.0469 Q1028.3125,792.5 1027.0313,792.5 Q1025.5313,792.5 1024.3281,791.9063 Q1023.3594,791.4375 1022.6719,790.4219 Q1022,789.4063 1022,788.2031 L1022,787.1094 Q1022,785.8594 1022.5938,784.7656 Q1023.2031,783.6719 1024.25,783.0938 Q1025.3125,782.5 1026.5,782.5 Q1027.2188,782.5 1027.8438,782.75 Q1028.4688,783 1029,783.5 Z " fill="#000000"/><text fill="#000000" font-family="sans-serif" font-size="14" lengthAdjust="spacing" textLength="82" x="1041" y="792.7285">VaccineType</text><line style="stroke:#181818;stroke-width:0.5;" x1="1013" x2="1125" y1="803" y2="803"/><text fill="#000000" font-family="sans-serif" font-size="14" lengthAdjust="spacing" textLength="35" x="1018" y="821.5332">name</text></g><!--MD5=[21c4a7dcecbcad22d4cfb98f1a5be34e]
link SMS to Message--><g id="link_SMS_Message"><path codeLine="70" d="M139.8,243 C191.49,236.06 299.4,221.56 373.87,211.56 " fill="none" id="SMS-to-Message" style="stroke:#181818;stroke-width:1.0;"/><polygon fill="none" points="373.16,204.59,393.92,208.87,375.03,218.47,373.16,204.59" style="stroke:#181818;stroke-width:1.0;"/></g><!--MD5=[0842e86bfabf2992bafaf46f65678ecc]
link SMS to Appointment--><g id="link_SMS_Appointment"><path codeLine="71" d="M139.8,273.71 C207.17,334.1 370.04,480.09 429.92,533.76 " fill="none" id="SMS-Appointment" style="stroke:#181818;stroke-width:1.0;"/><polygon fill="#000000" points="269.7232,385.5131,264.9495,377.2874,261.0262,381.6643,269.7232,385.5131" style="stroke:#000000;stroke-width:1.0;"/><text fill="#000000" font-family="sans-serif" font-size="13" lengthAdjust="spacing" textLength="68" x="275" y="387.4951">to remind of</text><text fill="#000000" font-family="sans-serif" font-size="13" lengthAdjust="spacing" textLength="7" x="147.3031" y="294.8791">1</text><text fill="#000000" font-family="sans-serif" font-size="13" lengthAdjust="spacing" textLength="7" x="414.9653" y="523.0113">1</text></g><!--MD5=[d8bbe1c92b129e8dba0b9ca81b3b396c]
link Message to Date--><g id="link_Message_Date"><path codeLine="73" d="M513.29,222.87 C580.13,247.74 686.71,287.39 738.61,306.69 " fill="none" id="Message-Date" style="stroke:#181818;stroke-width:1.0;"/><polygon fill="#000000" points="572.6862,234.9191,565.2334,229.0109,563.1841,234.5199,572.6862,234.9191" style="stroke:#000000;stroke-width:1.0;"/><text fill="#000000" font-family="sans-serif" font-size="13" lengthAdjust="spacing" textLength="75" x="577" y="238.4951">has a certain</text><text fill="#000000" font-family="sans-serif" font-size="13" lengthAdjust="spacing" textLength="7" x="521.0035" y="240.0508">1</text><text fill="#000000" font-family="sans-serif" font-size="13" lengthAdjust="spacing" textLength="7" x="723.9778" y="319.5183">1</text></g><!--MD5=[16841d8e1a6ae6f6a9735c00cb293974]
link Message to Time--><g id="link_Message_Time"><path codeLine="74" d="M467.8,230.18 C496.78,293.74 563,439 563,439 C563,439 680.69,500.13 738.16,529.98 " fill="none" id="Message-Time" style="stroke:#181818;stroke-width:1.0;"/><polygon fill="#000000" points="571.3485,433.8889,567.4735,425.2036,563.1085,429.14,571.3485,433.8889" style="stroke:#000000;stroke-width:1.0;"/><text fill="#000000" font-family="sans-serif" font-size="13" lengthAdjust="spacing" textLength="75" x="577" y="435.4951">has a certain</text><text fill="#000000" font-family="sans-serif" font-size="13" lengthAdjust="spacing" textLength="7" x="462.9263" y="251.068">1</text><text fill="#000000" font-family="sans-serif" font-size="13" lengthAdjust="spacing" textLength="7" x="723.4294" y="541.778">1</text></g><!--MD5=[1c1a990c034bf9cd3db896ca198d45ae]
link Message to SNSUser--><g id="link_Message_SNSUser"><path codeLine="75" d="M513.29,178.38 C567.16,157.66 646.82,127.01 702.89,105.44 " fill="none" id="Message-SNSUser" style="stroke:#181818;stroke-width:1.0;"/><polygon fill="#000000" points="577.6666,116.3805,568.1694,116.8852,570.2799,122.3711,577.6666,116.3805" style="stroke:#000000;stroke-width:1.0;"/><text fill="#000000" font-family="sans-serif" font-size="13" lengthAdjust="spacing" textLength="65" x="582" y="123.4951">received by</text><text fill="#000000" font-family="sans-serif" font-size="13" lengthAdjust="spacing" textLength="7" x="521.0035" y="190.1385">1</text><text fill="#000000" font-family="sans-serif" font-size="13" lengthAdjust="spacing" textLength="7" x="688.167" y="122.6306">1</text></g><!--MD5=[f17e71def2e220f6a6398972244b7dbb]
link VaccinationCenter to Appointment--><g id="link_VaccinationCenter_Appointment"><path codeLine="77" d="M211.37,554 C272.32,554 347.53,554 397.59,554 " fill="none" id="VaccinationCenter-Appointment" style="stroke:#181818;stroke-width:1.0;"/><polygon fill="#000000" points="275.5,545.1758,266.4549,542.2369,266.4549,548.1147,275.5,545.1758" style="stroke:#000000;stroke-width:1.0;"/><text fill="#000000" font-family="sans-serif" font-size="13" lengthAdjust="spacing" textLength="59" x="279.5" y="550.4951">is place of</text><text fill="#000000" font-family="sans-serif" font-size="13" lengthAdjust="spacing" textLength="7" x="219.1448" y="568.1064">1</text><text fill="#000000" font-family="sans-serif" font-size="13" lengthAdjust="spacing" textLength="5" x="385.1062" y="568.5426">*</text></g><!--MD5=[e9a70b774aa1ef9cc2005be09aaa9bee]
link Appointment to Date--><g id="link_Appointment_Date"><path codeLine="79" d="M509.07,558.02 C536.09,560.02 563,562 563,562 C563,562 653,562 653,562 C653,562 703,450 703,450 C703,450 726.73,402.54 745.73,364.54 " fill="none" id="Appointment-Date" style="stroke:#181818;stroke-width:1.0;"/><polygon fill="#000000" points="571.871,550.0111,563.0081,553.4608,566.7285,558.0114,571.871,550.0111" style="stroke:#000000;stroke-width:1.0;"/><text fill="#000000" font-family="sans-serif" font-size="13" lengthAdjust="spacing" textLength="75" x="577" y="558.4951">has a certain</text><text fill="#000000" font-family="sans-serif" font-size="13" lengthAdjust="spacing" textLength="7" x="517.0075" y="573.1539">1</text><text fill="#000000" font-family="sans-serif" font-size="13" lengthAdjust="spacing" textLength="7" x="734.8248" y="385.7416">1</text></g><!--MD5=[f78a9813840d149000a18b72ca69d94b]
link Appointment to Time--><g id="link_Appointment_Time"><path codeLine="80" d="M471.22,574.18 C501.65,610.93 563,685 563,685 C563,685 653,685 653,685 C653,685 703.85,624.06 738.22,582.88 " fill="none" id="Appointment-Time" style="stroke:#181818;stroke-width:1.0;"/><polygon fill="#000000" points="572.9973,676.3386,564.0528,673.1067,563.8613,678.9814,572.9973,676.3386" style="stroke:#000000;stroke-width:1.0;"/><text fill="#000000" font-family="sans-serif" font-size="13" lengthAdjust="spacing" textLength="75" x="577" y="681.4951">has a certain</text><text fill="#000000" font-family="sans-serif" font-size="13" lengthAdjust="spacing" textLength="7" x="477.1881" y="595.6502">1</text><text fill="#000000" font-family="sans-serif" font-size="13" lengthAdjust="spacing" textLength="7" x="723.5025" y="606.2499">1</text></g><!--MD5=[6bee4428fa029b10117c8017dc752ad2]
link Appointment to Vaccine--><g id="link_Appointment_Vaccine"><path codeLine="81" d="M467.16,574.3 C495.78,620.2 563,728 563,728 C563,728 668.84,764.99 728.79,785.95 " fill="none" id="Appointment-Vaccine" style="stroke:#181818;stroke-width:1.0;"/><polygon fill="#000000" points="589.3873,722.3205,584.2035,714.3468,580.5067,718.9166,589.3873,722.3205" style="stroke:#000000;stroke-width:1.0;"/><text fill="#000000" font-family="sans-serif" font-size="13" lengthAdjust="spacing" textLength="40" x="594.5" y="724.4951">to take</text><text fill="#000000" font-family="sans-serif" font-size="13" lengthAdjust="spacing" textLength="5" x="465.1593" y="595.448">*</text><text fill="#000000" font-family="sans-serif" font-size="13" lengthAdjust="spacing" textLength="7" x="714.1055" y="798.4167">1</text></g><!--MD5=[19ab43ca298c1d9fd9821023da273d0e]
link Appointment to SNSUser--><g id="link_Appointment_SNSUser"><path codeLine="82" d="M469.82,533.96 C499.72,494.81 563,412 563,412 C563,412 653,316 653,316 C653,316 699.02,222.37 733.09,153.06 " fill="none" id="Appointment-SNSUser" style="stroke:#181818;stroke-width:1.0;"/><polygon fill="#000000" points="577.8429,303.0626,570.2824,308.8324,575.1177,312.1744,577.8429,303.0626" style="stroke:#000000;stroke-width:1.0;"/><text fill="#000000" font-family="sans-serif" font-size="13" lengthAdjust="spacing" textLength="61" x="584" y="312.4951">created by</text><text fill="#000000" font-family="sans-serif" font-size="13" lengthAdjust="spacing" textLength="5" x="468.8796" y="523.27">*</text><text fill="#000000" font-family="sans-serif" font-size="13" lengthAdjust="spacing" textLength="7" x="722.3647" y="174.0599">1</text></g><!--MD5=[9faeaa21c19ba2da3b23c70b17a118bf]
link SNSUser to AgeGroup--><g id="link_SNSUser_AgeGroup"><path codeLine="84" d="M837.28,80 C892.85,80 970.83,80 1020.39,80 " fill="none" id="SNSUser-AgeGroup" style="stroke:#181818;stroke-width:1.0;"/><polygon fill="#000000" points="897,71.1758,887.9549,68.2369,887.9549,74.1147,897,71.1758" style="stroke:#000000;stroke-width:1.0;"/><text fill="#000000" font-family="sans-serif" font-size="13" lengthAdjust="spacing" textLength="60" x="901" y="76.4951">belongs to</text><text fill="#000000" font-family="sans-serif" font-size="13" lengthAdjust="spacing" textLength="5" x="844.9122" y="94.4081">*</text><text fill="#000000" font-family="sans-serif" font-size="13" lengthAdjust="spacing" textLength="7" x="1005.4107" y="94.7303">1</text></g><!--MD5=[3568623adf67b2630dce9e60c05bd02a]
link Vaccine to VaccineType--><g id="link_Vaccine_VaccineType"><path codeLine="86" d="M811.05,800 C862.83,800 953.28,800 1011.88,800 " fill="none" id="Vaccine-VaccineType" style="stroke:#181818;stroke-width:1.0;"/><polygon fill="#000000" points="915,791.1758,905.9549,788.2369,905.9549,794.1147,915,791.1758" style="stroke:#000000;stroke-width:1.0;"/><text fill="#000000" font-family="sans-serif" font-size="13" lengthAdjust="spacing" textLength="24" x="919" y="796.4951">is of</text><text fill="#000000" font-family="sans-serif" font-size="13" lengthAdjust="spacing" textLength="5" x="819.0795" y="814.9824">*</text><text fill="#000000" font-family="sans-serif" font-size="13" lengthAdjust="spacing" textLength="7" x="997.1131" y="814.5677">1</text></g><!--MD5=[cdb92eb6b3312c96b5f82af5e56b65e4]
@startuml
hide methods
left to right direction
skinparam classAttributeIconSize 0
'skinparam linetype ortho
skinparam linetype polyline
skinparam nodesep 100
skinparam ranksep 100


class "SMS" as SMS{
number
}

class "Message" as Message{
messageContent
}

class VaccinationCenter{
type
name
phoneNumber
e-mailAddress
faxNumber
websiteAddress
openingHour
closingHour
slotDuration
MaxNumberOfVaccinesPerSlot
centerCapacity
}

class Appointment {
}

class SNSUser {
SNSUserNumber
phoneNumber
emailAddress
Birthdate
CitizenCardNumber
Gender
}

class AgeGroup{
minimumAge
maximumAge
}

class "Time" as Time{
hour
minute
second
}

class "Date" as Date{
day
month
year
}

class "Vaccine" as Vaccine{
name
brand
}

class VaccineType{
name
}

SMS- -|>Message
SMS "1"- -"1" Appointment: to remind of >

Message "1"- -"1" Date: has a certain >
Message "1"- -"1" Time: has a certain >
Message "1"- -"1" SNSUser: received by >

VaccinationCenter "1" - - "*" Appointment: is place of >

Appointment "1"- -"1" Date: has a certain >
Appointment "1"- -"1" Time: has a certain >
Appointment "*" - - "1" Vaccine: to take >
Appointment "*"- -"1" SNSUser:created by >

SNSUser "*"- -"1" AgeGroup: belongs to >

Vaccine "*" - - "1" VaccineType : is of >
@enduml

@startuml
hide methods
left to right direction
skinparam classAttributeIconSize 0
skinparam linetype polyline
skinparam nodesep 100
skinparam ranksep 100


class "SMS" as SMS{
number
}

class "Message" as Message{
messageContent
}

class VaccinationCenter{
type
name
phoneNumber
e-mailAddress
faxNumber
websiteAddress
openingHour
closingHour
slotDuration
MaxNumberOfVaccinesPerSlot
centerCapacity
}

class Appointment {
}

class SNSUser {
SNSUserNumber
phoneNumber
emailAddress
Birthdate
CitizenCardNumber
Gender
}

class AgeGroup{
minimumAge
maximumAge
}

class "Time" as Time{
hour
minute
second
}

class "Date" as Date{
day
month
year
}

class "Vaccine" as Vaccine{
name
brand
}

class VaccineType{
name
}

SMS- -|>Message
SMS "1"- -"1" Appointment: to remind of >

Message "1"- -"1" Date: has a certain >
Message "1"- -"1" Time: has a certain >
Message "1"- -"1" SNSUser: received by >

VaccinationCenter "1" - - "*" Appointment: is place of >

Appointment "1"- -"1" Date: has a certain >
Appointment "1"- -"1" Time: has a certain >
Appointment "*" - - "1" Vaccine: to take >
Appointment "*"- -"1" SNSUser:created by >

SNSUser "*"- -"1" AgeGroup: belongs to >

Vaccine "*" - - "1" VaccineType : is of >
@enduml

PlantUML version 1.2022.5(Sat Apr 30 11:55:52 BST 2022)
(GPL source distribution)
Java Runtime: OpenJDK Runtime Environment
JVM: OpenJDK 64-Bit Server VM
Default Encoding: Cp1252
Language: pt
Country: PT
--></g></svg>