<?xml version="1.0" encoding="UTF-8" standalone="no"?><svg xmlns="http://www.w3.org/2000/svg" xmlns:xlink="http://www.w3.org/1999/xlink" contentStyleType="text/css" height="1876px" preserveAspectRatio="none" style="width:2150px;height:1876px;background:#FFFFFF;" version="1.1" viewBox="0 0 2150 1876" width="2150px" zoomAndPan="magnify"><defs/><g><rect fill="#FFFFFF" height="1683.7266" style="stroke:#181818;stroke-width:1.0;" width="10" x="48" y="92.6094"/><rect fill="#FFFFFF" height="55.7031" style="stroke:#181818;stroke-width:1.0;" width="10" x="444" y="114.9609"/><rect fill="#FFFFFF" height="339.4609" style="stroke:#181818;stroke-width:1.0;" width="10" x="444" y="201.0156"/><rect fill="#FFFFFF" height="444.2188" style="stroke:#181818;stroke-width:1.0;" width="10" x="444" y="596.1797"/><rect fill="#FFFFFF" height="188.4063" style="stroke:#181818;stroke-width:1.0;" width="10" x="444" y="1070.75"/><rect fill="#FFFFFF" height="338.0703" style="stroke:#181818;stroke-width:1.0;" width="10" x="444" y="1314.8594"/><rect fill="#FFFFFF" height="67.7031" style="stroke:#181818;stroke-width:1.0;" width="10" x="444" y="1708.6328"/><rect fill="#FFFFFF" height="120.7031" style="stroke:#181818;stroke-width:1.0;" width="10" x="712" y="231.3672"/><rect fill="#FFFFFF" height="120.7031" style="stroke:#181818;stroke-width:1.0;" width="10" x="712" y="389.4219"/><rect fill="#FFFFFF" height="105.7031" style="stroke:#181818;stroke-width:1.0;" width="10" x="712" y="626.5313"/><rect fill="#FFFFFF" height="120.7031" style="stroke:#181818;stroke-width:1.0;" width="10" x="712" y="754.5859"/><rect fill="#FFFFFF" height="120.7031" style="stroke:#181818;stroke-width:1.0;" width="10" x="712" y="1101.1016"/><rect fill="#FFFFFF" height="254.0156" style="stroke:#181818;stroke-width:1.0;" width="10" x="712" y="1345.2109"/><rect fill="#FFFFFF" height="30" style="stroke:#181818;stroke-width:1.0;" width="10" x="980" y="261.7188"/><rect fill="#FFFFFF" height="30" style="stroke:#181818;stroke-width:1.0;" width="10" x="980" y="419.7734"/><rect fill="#FFFFFF" height="30" style="stroke:#181818;stroke-width:1.0;" width="10" x="980" y="656.8828"/><rect fill="#FFFFFF" height="30" style="stroke:#181818;stroke-width:1.0;" width="10" x="980" y="784.9375"/><rect fill="#FFFFFF" height="30" style="stroke:#181818;stroke-width:1.0;" width="10" x="1104" y="322.0703"/><rect fill="#FFFFFF" height="30" style="stroke:#181818;stroke-width:1.0;" width="10" x="1278.5" y="480.125"/><rect fill="#FFFFFF" height="15" style="stroke:#181818;stroke-width:1.0;" width="10" x="1459.5" y="717.2344"/><rect fill="#FFFFFF" height="30" style="stroke:#181818;stroke-width:1.0;" width="10" x="1459.5" y="1191.8047"/><rect fill="#FFFFFF" height="30" style="stroke:#181818;stroke-width:1.0;" width="10" x="1459.5" y="1435.9141"/><rect fill="#FFFFFF" height="30.3516" style="stroke:#181818;stroke-width:1.0;" width="10" x="1459.5" y="1496.2656"/><rect fill="#FFFFFF" height="30" style="stroke:#181818;stroke-width:1.0;" width="10" x="1459.5" y="1569.2266"/><rect fill="#FFFFFF" height="30" style="stroke:#181818;stroke-width:1.0;" width="10" x="1659" y="845.2891"/><rect fill="#FFFFFF" height="30" style="stroke:#181818;stroke-width:1.0;" width="10" x="1814" y="1131.4531"/><rect fill="#FFFFFF" height="30" style="stroke:#181818;stroke-width:1.0;" width="10" x="1898.5" y="1375.5625"/><rect height="230.1094" style="stroke:#000000;stroke-width:1.5;fill:none;" width="1184" x="10" y="129.9609"/><rect height="169.7578" style="stroke:#000000;stroke-width:1.5;fill:none;" width="1546" x="10" y="555.4766"/><rect height="48.7031" style="stroke:#000000;stroke-width:1.5;fill:none;" width="503.5" x="10" y="936.9922"/><rect height="230.1094" style="stroke:#000000;stroke-width:1.5;fill:none;" width="1856" x="10" y="999.6953"/><rect height="333.0703" style="stroke:#000000;stroke-width:1.5;fill:none;" width="2077.5" x="10" y="1274.1563"/><rect height="79.0547" style="stroke:#000000;stroke-width:1.5;fill:none;" width="2134.5" x="10" y="1667.9297"/><line style="stroke:#181818;stroke-width:0.5;fill:none;stroke-dasharray:5.0,5.0;" x1="53" x2="53" y1="82.6094" y2="1794.3359"/><line style="stroke:#181818;stroke-width:0.5;fill:none;stroke-dasharray:5.0,5.0;" x1="448.5" x2="448.5" y1="82.6094" y2="1794.3359"/><line style="stroke:#181818;stroke-width:0.5;fill:none;stroke-dasharray:5.0,5.0;" x1="716.5" x2="716.5" y1="82.6094" y2="1794.3359"/><line style="stroke:#181818;stroke-width:0.5;fill:none;stroke-dasharray:5.0,5.0;" x1="985" x2="985" y1="82.6094" y2="1794.3359"/><line style="stroke:#181818;stroke-width:0.5;fill:none;stroke-dasharray:5.0,5.0;" x1="1109" x2="1109" y1="82.6094" y2="1794.3359"/><line style="stroke:#181818;stroke-width:0.5;fill:none;stroke-dasharray:5.0,5.0;" x1="1283" x2="1283" y1="82.6094" y2="1794.3359"/><line style="stroke:#181818;stroke-width:0.5;fill:none;stroke-dasharray:5.0,5.0;" x1="1464" x2="1464" y1="82.6094" y2="1794.3359"/><line style="stroke:#181818;stroke-width:0.5;fill:none;stroke-dasharray:5.0,5.0;" x1="1664" x2="1664" y1="82.6094" y2="1794.3359"/><line style="stroke:#181818;stroke-width:0.5;fill:none;stroke-dasharray:5.0,5.0;" x1="1819" x2="1819" y1="82.6094" y2="1794.3359"/><line style="stroke:#181818;stroke-width:0.5;fill:none;stroke-dasharray:5.0,5.0;" x1="1903" x2="1903" y1="82.6094" y2="1794.3359"/><line style="stroke:#181818;stroke-width:0.5;fill:none;stroke-dasharray:5.0,5.0;" x1="2028.5" x2="2028.5" y1="1535.5703" y2="1794.3359"/><line style="stroke:#181818;stroke-width:0.5;fill:none;stroke-dasharray:5.0,5.0;" x1="2110.5" x2="2110.5" y1="82.6094" y2="1794.3359"/><text fill="#000000" font-family="sans-serif" font-size="14" lengthAdjust="spacing" textLength="60" x="20" y="79.5332">SNS User</text><ellipse cx="53" cy="13.5" fill="#E2E2F0" rx="8" ry="8" style="stroke:#181818;stroke-width:0.5;"/><path d="M53,21.5 L53,48.5 M40,29.5 L66,29.5 M53,48.5 L40,63.5 M53,48.5 L66,63.5 " fill="none" style="stroke:#181818;stroke-width:0.5;"/><text fill="#000000" font-family="sans-serif" font-size="14" lengthAdjust="spacing" textLength="60" x="20" y="1807.8691">SNS User</text><ellipse cx="53" cy="1819.4453" fill="#E2E2F0" rx="8" ry="8" style="stroke:#181818;stroke-width:0.5;"/><path d="M53,1827.4453 L53,1854.4453 M40,1835.4453 L66,1835.4453 M53,1854.4453 L40,1869.4453 M53,1854.4453 L66,1869.4453 " fill="none" style="stroke:#181818;stroke-width:0.5;"/><rect fill="#E2E2F0" height="31.6094" rx="2.5" ry="2.5" style="stroke:#181818;stroke-width:0.5;" width="109" x="394.5" y="50"/><text fill="#000000" font-family="sans-serif" font-size="14" lengthAdjust="spacing" textLength="95" x="401.5" y="71.5332">:AppointmentUI</text><rect fill="#E2E2F0" height="31.6094" rx="2.5" ry="2.5" style="stroke:#181818;stroke-width:0.5;" width="109" x="394.5" y="1793.3359"/><text fill="#000000" font-family="sans-serif" font-size="14" lengthAdjust="spacing" textLength="95" x="401.5" y="1814.8691">:AppointmentUI</text><rect fill="#E2E2F0" height="31.6094" rx="2.5" ry="2.5" style="stroke:#181818;stroke-width:0.5;" width="159" x="637.5" y="50"/><text fill="#000000" font-family="sans-serif" font-size="14" lengthAdjust="spacing" textLength="145" x="644.5" y="71.5332">:AppointmentController</text><rect fill="#E2E2F0" height="31.6094" rx="2.5" ry="2.5" style="stroke:#181818;stroke-width:0.5;" width="159" x="637.5" y="1793.3359"/><text fill="#000000" font-family="sans-serif" font-size="14" lengthAdjust="spacing" textLength="145" x="644.5" y="1814.8691">:AppointmentController</text><rect fill="#E2E2F0" height="31.6094" rx="2.5" ry="2.5" style="stroke:#181818;stroke-width:0.5;" width="78" x="946" y="50"/><text fill="#000000" font-family="sans-serif" font-size="14" lengthAdjust="spacing" textLength="64" x="953" y="71.5332">:Company</text><rect fill="#E2E2F0" height="31.6094" rx="2.5" ry="2.5" style="stroke:#181818;stroke-width:0.5;" width="78" x="946" y="1793.3359"/><text fill="#000000" font-family="sans-serif" font-size="14" lengthAdjust="spacing" textLength="64" x="953" y="1814.8691">:Company</text><rect fill="#E2E2F0" height="31.6094" rx="2.5" ry="2.5" style="stroke:#181818;stroke-width:0.5;" width="150" x="1034" y="50"/><text fill="#000000" font-family="sans-serif" font-size="14" lengthAdjust="spacing" textLength="136" x="1041" y="71.5332">uStore:SNSUserStore</text><rect fill="#E2E2F0" height="31.6094" rx="2.5" ry="2.5" style="stroke:#181818;stroke-width:0.5;" width="150" x="1034" y="1793.3359"/><text fill="#000000" font-family="sans-serif" font-size="14" lengthAdjust="spacing" textLength="136" x="1041" y="1814.8691">uStore:SNSUserStore</text><rect fill="#E2E2F0" height="31.6094" rx="2.5" ry="2.5" style="stroke:#181818;stroke-width:0.5;" width="179" x="1194" y="50"/><text fill="#000000" font-family="sans-serif" font-size="14" lengthAdjust="spacing" textLength="165" x="1201" y="71.5332">vtStore:VaccineTypeStore</text><rect fill="#E2E2F0" height="31.6094" rx="2.5" ry="2.5" style="stroke:#181818;stroke-width:0.5;" width="179" x="1194" y="1793.3359"/><text fill="#000000" font-family="sans-serif" font-size="14" lengthAdjust="spacing" textLength="165" x="1201" y="1814.8691">vtStore:VaccineTypeStore</text><rect fill="#E2E2F0" height="31.6094" rx="2.5" ry="2.5" style="stroke:#181818;stroke-width:0.5;" width="163" x="1383" y="50"/><text fill="#000000" font-family="sans-serif" font-size="14" lengthAdjust="spacing" textLength="149" x="1390" y="71.5332">store:AppointmentStore</text><rect fill="#E2E2F0" height="31.6094" rx="2.5" ry="2.5" style="stroke:#181818;stroke-width:0.5;" width="163" x="1383" y="1793.3359"/><text fill="#000000" font-family="sans-serif" font-size="14" lengthAdjust="spacing" textLength="149" x="1390" y="1814.8691">store:AppointmentStore</text><rect fill="#E2E2F0" height="31.6094" rx="2.5" ry="2.5" style="stroke:#181818;stroke-width:0.5;" width="216" x="1556" y="50"/><text fill="#000000" font-family="sans-serif" font-size="14" lengthAdjust="spacing" textLength="202" x="1563" y="71.5332">vcStore:VaccinationCenterStore</text><rect fill="#E2E2F0" height="31.6094" rx="2.5" ry="2.5" style="stroke:#181818;stroke-width:0.5;" width="216" x="1556" y="1793.3359"/><text fill="#000000" font-family="sans-serif" font-size="14" lengthAdjust="spacing" textLength="202" x="1563" y="1814.8691">vcStore:VaccinationCenterStore</text><rect fill="#E2E2F0" height="31.6094" rx="2.5" ry="2.5" style="stroke:#181818;stroke-width:0.5;" width="74" x="1782" y="50"/><text fill="#000000" font-family="sans-serif" font-size="14" lengthAdjust="spacing" textLength="60" x="1789" y="71.5332">:DateUtils</text><rect fill="#E2E2F0" height="31.6094" rx="2.5" ry="2.5" style="stroke:#181818;stroke-width:0.5;" width="74" x="1782" y="1793.3359"/><text fill="#000000" font-family="sans-serif" font-size="14" lengthAdjust="spacing" textLength="60" x="1789" y="1814.8691">:DateUtils</text><rect fill="#E2E2F0" height="31.6094" rx="2.5" ry="2.5" style="stroke:#181818;stroke-width:0.5;" width="75" x="1866" y="50"/><text fill="#000000" font-family="sans-serif" font-size="14" lengthAdjust="spacing" textLength="61" x="1873" y="71.5332">:TimeUtils</text><rect fill="#E2E2F0" height="31.6094" rx="2.5" ry="2.5" style="stroke:#181818;stroke-width:0.5;" width="75" x="1866" y="1793.3359"/><text fill="#000000" font-family="sans-serif" font-size="14" lengthAdjust="spacing" textLength="61" x="1873" y="1814.8691">:TimeUtils</text><rect fill="#E2E2F0" height="31.6094" rx="2.5" ry="2.5" style="stroke:#181818;stroke-width:0.5;" width="97" x="1980.5" y="1793.3359"/><text fill="#000000" font-family="sans-serif" font-size="14" lengthAdjust="spacing" textLength="83" x="1987.5" y="1814.8691">:Appointment</text><rect fill="#E2E2F0" height="31.6094" rx="2.5" ry="2.5" style="stroke:#181818;stroke-width:0.5;" width="47" x="2087.5" y="50"/><text fill="#000000" font-family="sans-serif" font-size="14" lengthAdjust="spacing" textLength="33" x="2094.5" y="71.5332">:SMS</text><rect fill="#E2E2F0" height="31.6094" rx="2.5" ry="2.5" style="stroke:#181818;stroke-width:0.5;" width="47" x="2087.5" y="1793.3359"/><text fill="#000000" font-family="sans-serif" font-size="14" lengthAdjust="spacing" textLength="33" x="2094.5" y="1814.8691">:SMS</text><rect fill="#FFFFFF" height="1683.7266" style="stroke:#181818;stroke-width:1.0;" width="10" x="48" y="92.6094"/><rect fill="#FFFFFF" height="55.7031" style="stroke:#181818;stroke-width:1.0;" width="10" x="444" y="114.9609"/><rect fill="#FFFFFF" height="339.4609" style="stroke:#181818;stroke-width:1.0;" width="10" x="444" y="201.0156"/><rect fill="#FFFFFF" height="444.2188" style="stroke:#181818;stroke-width:1.0;" width="10" x="444" y="596.1797"/><rect fill="#FFFFFF" height="188.4063" style="stroke:#181818;stroke-width:1.0;" width="10" x="444" y="1070.75"/><rect fill="#FFFFFF" height="338.0703" style="stroke:#181818;stroke-width:1.0;" width="10" x="444" y="1314.8594"/><rect fill="#FFFFFF" height="67.7031" style="stroke:#181818;stroke-width:1.0;" width="10" x="444" y="1708.6328"/><rect fill="#FFFFFF" height="120.7031" style="stroke:#181818;stroke-width:1.0;" width="10" x="712" y="231.3672"/><rect fill="#FFFFFF" height="120.7031" style="stroke:#181818;stroke-width:1.0;" width="10" x="712" y="389.4219"/><rect fill="#FFFFFF" height="105.7031" style="stroke:#181818;stroke-width:1.0;" width="10" x="712" y="626.5313"/><rect fill="#FFFFFF" height="120.7031" style="stroke:#181818;stroke-width:1.0;" width="10" x="712" y="754.5859"/><rect fill="#FFFFFF" height="120.7031" style="stroke:#181818;stroke-width:1.0;" width="10" x="712" y="1101.1016"/><rect fill="#FFFFFF" height="254.0156" style="stroke:#181818;stroke-width:1.0;" width="10" x="712" y="1345.2109"/><rect fill="#FFFFFF" height="30" style="stroke:#181818;stroke-width:1.0;" width="10" x="980" y="261.7188"/><rect fill="#FFFFFF" height="30" style="stroke:#181818;stroke-width:1.0;" width="10" x="980" y="419.7734"/><rect fill="#FFFFFF" height="30" style="stroke:#181818;stroke-width:1.0;" width="10" x="980" y="656.8828"/><rect fill="#FFFFFF" height="30" style="stroke:#181818;stroke-width:1.0;" width="10" x="980" y="784.9375"/><rect fill="#FFFFFF" height="30" style="stroke:#181818;stroke-width:1.0;" width="10" x="1104" y="322.0703"/><rect fill="#FFFFFF" height="30" style="stroke:#181818;stroke-width:1.0;" width="10" x="1278.5" y="480.125"/><rect fill="#FFFFFF" height="15" style="stroke:#181818;stroke-width:1.0;" width="10" x="1459.5" y="717.2344"/><rect fill="#FFFFFF" height="30" style="stroke:#181818;stroke-width:1.0;" width="10" x="1459.5" y="1191.8047"/><rect fill="#FFFFFF" height="30" style="stroke:#181818;stroke-width:1.0;" width="10" x="1459.5" y="1435.9141"/><rect fill="#FFFFFF" height="30.3516" style="stroke:#181818;stroke-width:1.0;" width="10" x="1459.5" y="1496.2656"/><rect fill="#FFFFFF" height="30" style="stroke:#181818;stroke-width:1.0;" width="10" x="1459.5" y="1569.2266"/><rect fill="#FFFFFF" height="30" style="stroke:#181818;stroke-width:1.0;" width="10" x="1659" y="845.2891"/><rect fill="#FFFFFF" height="30" style="stroke:#181818;stroke-width:1.0;" width="10" x="1814" y="1131.4531"/><rect fill="#FFFFFF" height="30" style="stroke:#181818;stroke-width:1.0;" width="10" x="1898.5" y="1375.5625"/><polygon fill="#181818" points="432,110.9609,442,114.9609,432,118.9609,436,114.9609" style="stroke:#181818;stroke-width:1.0;"/><line style="stroke:#181818;stroke-width:1.0;" x1="58" x2="438" y1="114.9609" y2="114.9609"/><text fill="#000000" font-family="sans-serif" font-size="13" font-weight="bold" lengthAdjust="spacing" textLength="7" x="65" y="110.1045">1</text><text fill="#000000" font-family="sans-serif" font-size="13" lengthAdjust="spacing" textLength="232" x="76" y="110.1045">selects the option to schedule a vaccine</text><path d="M10,129.9609 L83,129.9609 L83,138.3125 L73,148.3125 L10,148.3125 L10,129.9609 " fill="#EEEEEE" style="stroke:#000000;stroke-width:1.5;"/><rect fill="none" height="230.1094" style="stroke:#000000;stroke-width:1.5;" width="1184" x="10" y="129.9609"/><text fill="#000000" font-family="sans-serif" font-size="13" font-weight="bold" lengthAdjust="spacing" textLength="28" x="25" y="144.4561">loop</text><text fill="#000000" font-family="sans-serif" font-size="11" font-weight="bold" lengthAdjust="spacing" textLength="156" x="98" y="143.3799">[until snsNumber is correct]</text><polygon fill="#181818" points="69,166.6641,59,170.6641,69,174.6641,65,170.6641" style="stroke:#181818;stroke-width:1.0;"/><line style="stroke:#181818;stroke-width:1.0;stroke-dasharray:2.0,2.0;" x1="63" x2="448" y1="170.6641" y2="170.6641"/><text fill="#000000" font-family="sans-serif" font-size="13" font-weight="bold" lengthAdjust="spacing" textLength="7" x="75" y="165.8076">2</text><text fill="#000000" font-family="sans-serif" font-size="13" lengthAdjust="spacing" textLength="177" x="86" y="165.8076">requests the SNSUser number</text><polygon fill="#181818" points="432,197.0156,442,201.0156,432,205.0156,436,201.0156" style="stroke:#181818;stroke-width:1.0;"/><line style="stroke:#181818;stroke-width:1.0;" x1="58" x2="438" y1="201.0156" y2="201.0156"/><text fill="#000000" font-family="sans-serif" font-size="13" font-weight="bold" lengthAdjust="spacing" textLength="7" x="65" y="196.1592">3</text><text fill="#000000" font-family="sans-serif" font-size="13" lengthAdjust="spacing" textLength="137" x="76" y="196.1592">types SNSUser number</text><polygon fill="#181818" points="700,227.3672,710,231.3672,700,235.3672,704,231.3672" style="stroke:#181818;stroke-width:1.0;"/><line style="stroke:#181818;stroke-width:1.0;" x1="454" x2="706" y1="231.3672" y2="231.3672"/><text fill="#000000" font-family="sans-serif" font-size="13" font-weight="bold" lengthAdjust="spacing" textLength="7" x="461" y="226.5107">4</text><text fill="#000000" font-family="sans-serif" font-size="13" lengthAdjust="spacing" textLength="157" x="472" y="226.5107">uStore = getSNSUserStore</text><polygon fill="#181818" points="968,257.7188,978,261.7188,968,265.7188,972,261.7188" style="stroke:#181818;stroke-width:1.0;"/><line style="stroke:#181818;stroke-width:1.0;" x1="722" x2="974" y1="261.7188" y2="261.7188"/><text fill="#000000" font-family="sans-serif" font-size="13" font-weight="bold" lengthAdjust="spacing" textLength="7" x="729" y="256.8623">5</text><text fill="#000000" font-family="sans-serif" font-size="13" lengthAdjust="spacing" textLength="157" x="740" y="256.8623">uStore = getSNSUserStore</text><polygon fill="#181818" points="1092,318.0703,1102,322.0703,1092,326.0703,1096,322.0703" style="stroke:#181818;stroke-width:1.0;"/><line style="stroke:#181818;stroke-width:1.0;" x1="722" x2="1098" y1="322.0703" y2="322.0703"/><text fill="#000000" font-family="sans-serif" font-size="13" font-weight="bold" lengthAdjust="spacing" textLength="7" x="729" y="317.2139">6</text><text fill="#000000" font-family="sans-serif" font-size="13" lengthAdjust="spacing" textLength="275" x="740" y="317.2139">isCorrect = confirmSNSUserNumber(userEmail)</text><polygon fill="#181818" points="700,385.4219,710,389.4219,700,393.4219,704,389.4219" style="stroke:#181818;stroke-width:1.0;"/><line style="stroke:#181818;stroke-width:1.0;" x1="454" x2="706" y1="389.4219" y2="389.4219"/><text fill="#000000" font-family="sans-serif" font-size="13" font-weight="bold" lengthAdjust="spacing" textLength="7" x="461" y="384.5654">7</text><text fill="#000000" font-family="sans-serif" font-size="13" lengthAdjust="spacing" textLength="180" x="472" y="384.5654">vtStore = getVaccineTypeStore</text><polygon fill="#181818" points="968,415.7734,978,419.7734,968,423.7734,972,419.7734" style="stroke:#181818;stroke-width:1.0;"/><line style="stroke:#181818;stroke-width:1.0;" x1="722" x2="974" y1="419.7734" y2="419.7734"/><text fill="#000000" font-family="sans-serif" font-size="13" font-weight="bold" lengthAdjust="spacing" textLength="7" x="729" y="414.917">8</text><text fill="#000000" font-family="sans-serif" font-size="13" lengthAdjust="spacing" textLength="180" x="740" y="414.917">vtStore = getVaccineTypeStore</text><polygon fill="#181818" points="1266.5,476.125,1276.5,480.125,1266.5,484.125,1270.5,480.125" style="stroke:#181818;stroke-width:1.0;"/><line style="stroke:#181818;stroke-width:1.0;" x1="722" x2="1272.5" y1="480.125" y2="480.125"/><text fill="#000000" font-family="sans-serif" font-size="13" font-weight="bold" lengthAdjust="spacing" textLength="7" x="729" y="475.2686">9</text><text fill="#000000" font-family="sans-serif" font-size="13" lengthAdjust="spacing" textLength="277" x="740" y="475.2686">vaccine = getListOfVaccineTypesAndSelectOne</text><polygon fill="#181818" points="69,536.4766,59,540.4766,69,544.4766,65,540.4766" style="stroke:#181818;stroke-width:1.0;"/><line style="stroke:#181818;stroke-width:1.0;stroke-dasharray:2.0,2.0;" x1="63" x2="448" y1="540.4766" y2="540.4766"/><text fill="#000000" font-family="sans-serif" font-size="13" font-weight="bold" lengthAdjust="spacing" textLength="14" x="75" y="535.6201">10</text><text fill="#000000" font-family="sans-serif" font-size="13" lengthAdjust="spacing" textLength="344" x="93" y="535.6201">shows list of available vaccine types and asks to select one</text><path d="M10,555.4766 L83,555.4766 L83,563.8281 L73,573.8281 L10,573.8281 L10,555.4766 " fill="#EEEEEE" style="stroke:#000000;stroke-width:1.5;"/><rect fill="none" height="169.7578" style="stroke:#000000;stroke-width:1.5;" width="1546" x="10" y="555.4766"/><text fill="#000000" font-family="sans-serif" font-size="13" font-weight="bold" lengthAdjust="spacing" textLength="28" x="25" y="569.9717">loop</text><text fill="#000000" font-family="sans-serif" font-size="11" font-weight="bold" lengthAdjust="spacing" textLength="279" x="98" y="568.8955">[until select a vaccine type that has ner scheduled]</text><polygon fill="#181818" points="432,592.1797,442,596.1797,432,600.1797,436,596.1797" style="stroke:#181818;stroke-width:1.0;"/><line style="stroke:#181818;stroke-width:1.0;" x1="58" x2="438" y1="596.1797" y2="596.1797"/><text fill="#000000" font-family="sans-serif" font-size="13" font-weight="bold" lengthAdjust="spacing" textLength="14" x="65" y="591.3232">11</text><text fill="#000000" font-family="sans-serif" font-size="13" lengthAdjust="spacing" textLength="129" x="83" y="591.3232">selects a vaccine type</text><polygon fill="#181818" points="700,622.5313,710,626.5313,700,630.5313,704,626.5313" style="stroke:#181818;stroke-width:1.0;"/><line style="stroke:#181818;stroke-width:1.0;" x1="454" x2="706" y1="626.5313" y2="626.5313"/><text fill="#000000" font-family="sans-serif" font-size="13" font-weight="bold" lengthAdjust="spacing" textLength="14" x="461" y="621.6748">12</text><text fill="#000000" font-family="sans-serif" font-size="13" lengthAdjust="spacing" textLength="209" x="479" y="621.6748">store = getScheduledVaccinesStore</text><polygon fill="#181818" points="968,652.8828,978,656.8828,968,660.8828,972,656.8828" style="stroke:#181818;stroke-width:1.0;"/><line style="stroke:#181818;stroke-width:1.0;" x1="722" x2="974" y1="656.8828" y2="656.8828"/><text fill="#000000" font-family="sans-serif" font-size="13" font-weight="bold" lengthAdjust="spacing" textLength="14" x="729" y="652.0264">13</text><text fill="#000000" font-family="sans-serif" font-size="13" lengthAdjust="spacing" textLength="209" x="747" y="652.0264">store = getScheduledVaccinesStore</text><polygon fill="#181818" points="1447.5,713.2344,1457.5,717.2344,1447.5,721.2344,1451.5,717.2344" style="stroke:#181818;stroke-width:1.0;"/><line style="stroke:#181818;stroke-width:1.0;" x1="722" x2="1453.5" y1="717.2344" y2="717.2344"/><text fill="#000000" font-family="sans-serif" font-size="13" font-weight="bold" lengthAdjust="spacing" textLength="14" x="729" y="712.3779">14</text><text fill="#000000" font-family="sans-serif" font-size="13" lengthAdjust="spacing" textLength="232" x="747" y="712.3779">verifyIfCanSchedulle(option, snsNumber)</text><polygon fill="#181818" points="700,750.5859,710,754.5859,700,758.5859,704,754.5859" style="stroke:#181818;stroke-width:1.0;"/><line style="stroke:#181818;stroke-width:1.0;" x1="454" x2="706" y1="754.5859" y2="754.5859"/><text fill="#000000" font-family="sans-serif" font-size="13" font-weight="bold" lengthAdjust="spacing" textLength="14" x="461" y="749.7295">15</text><text fill="#000000" font-family="sans-serif" font-size="13" lengthAdjust="spacing" textLength="221" x="479" y="749.7295">vcStore = getVaccinationCentersStore</text><polygon fill="#181818" points="968,780.9375,978,784.9375,968,788.9375,972,784.9375" style="stroke:#181818;stroke-width:1.0;"/><line style="stroke:#181818;stroke-width:1.0;" x1="722" x2="974" y1="784.9375" y2="784.9375"/><text fill="#000000" font-family="sans-serif" font-size="13" font-weight="bold" lengthAdjust="spacing" textLength="14" x="729" y="780.0811">16</text><text fill="#000000" font-family="sans-serif" font-size="13" lengthAdjust="spacing" textLength="221" x="747" y="780.0811">vcStore = getVaccinationCentersStore</text><polygon fill="#181818" points="1647,841.2891,1657,845.2891,1647,849.2891,1651,845.2891" style="stroke:#181818;stroke-width:1.0;"/><line style="stroke:#181818;stroke-width:1.0;" x1="722" x2="1653" y1="845.2891" y2="845.2891"/><text fill="#000000" font-family="sans-serif" font-size="13" font-weight="bold" lengthAdjust="spacing" textLength="14" x="729" y="840.4326">17</text><text fill="#000000" font-family="sans-serif" font-size="13" lengthAdjust="spacing" textLength="165" x="747" y="840.4326">getListOfVaccinationCenters</text><polygon fill="#181818" points="69,917.9922,59,921.9922,69,925.9922,65,921.9922" style="stroke:#181818;stroke-width:1.0;"/><line style="stroke:#181818;stroke-width:1.0;stroke-dasharray:2.0,2.0;" x1="63" x2="443" y1="921.9922" y2="921.9922"/><text fill="#000000" font-family="sans-serif" font-size="13" font-weight="bold" lengthAdjust="spacing" textLength="14" x="75" y="908.96">18</text><text fill="#000000" font-family="sans-serif" font-size="13" lengthAdjust="spacing" textLength="334" x="93" y="900.7842">shows list of vaccinations centers to schedule the vaccine</text><text fill="#000000" font-family="sans-serif" font-size="13" lengthAdjust="spacing" textLength="132" x="97" y="917.1357">and asks to select one</text><path d="M10,936.9922 L83,936.9922 L83,945.3438 L73,955.3438 L10,955.3438 L10,936.9922 " fill="#EEEEEE" style="stroke:#000000;stroke-width:1.5;"/><rect fill="none" height="48.7031" style="stroke:#000000;stroke-width:1.5;" width="503.5" x="10" y="936.9922"/><text fill="#000000" font-family="sans-serif" font-size="13" font-weight="bold" lengthAdjust="spacing" textLength="28" x="25" y="951.4873">loop</text><text fill="#000000" font-family="sans-serif" font-size="11" font-weight="bold" lengthAdjust="spacing" textLength="195" x="98" y="950.4111">[until chooses a vaccination center]</text><polygon fill="#181818" points="432,973.6953,442,977.6953,432,981.6953,436,977.6953" style="stroke:#181818;stroke-width:1.0;"/><line style="stroke:#181818;stroke-width:1.0;" x1="58" x2="438" y1="977.6953" y2="977.6953"/><text fill="#000000" font-family="sans-serif" font-size="13" font-weight="bold" lengthAdjust="spacing" textLength="14" x="65" y="972.8389">19</text><text fill="#000000" font-family="sans-serif" font-size="13" lengthAdjust="spacing" textLength="161" x="83" y="972.8389">selects a vaccination center</text><path d="M10,999.6953 L83,999.6953 L83,1008.0469 L73,1018.0469 L10,1018.0469 L10,999.6953 " fill="#EEEEEE" style="stroke:#000000;stroke-width:1.5;"/><rect fill="none" height="230.1094" style="stroke:#000000;stroke-width:1.5;" width="1856" x="10" y="999.6953"/><text fill="#000000" font-family="sans-serif" font-size="13" font-weight="bold" lengthAdjust="spacing" textLength="28" x="25" y="1014.1904">loop</text><text fill="#000000" font-family="sans-serif" font-size="11" font-weight="bold" lengthAdjust="spacing" textLength="136" x="98" y="1013.1143">[until writes a right date]</text><polygon fill="#181818" points="69,1036.3984,59,1040.3984,69,1044.3984,65,1040.3984" style="stroke:#181818;stroke-width:1.0;"/><line style="stroke:#181818;stroke-width:1.0;stroke-dasharray:2.0,2.0;" x1="63" x2="448" y1="1040.3984" y2="1040.3984"/><text fill="#000000" font-family="sans-serif" font-size="13" font-weight="bold" lengthAdjust="spacing" textLength="14" x="75" y="1035.542">20</text><text fill="#000000" font-family="sans-serif" font-size="13" lengthAdjust="spacing" textLength="103" x="93" y="1035.542">asks to write date</text><polygon fill="#181818" points="432,1066.75,442,1070.75,432,1074.75,436,1070.75" style="stroke:#181818;stroke-width:1.0;"/><line style="stroke:#181818;stroke-width:1.0;" x1="58" x2="438" y1="1070.75" y2="1070.75"/><text fill="#000000" font-family="sans-serif" font-size="13" font-weight="bold" lengthAdjust="spacing" textLength="14" x="65" y="1065.8936">21</text><text fill="#000000" font-family="sans-serif" font-size="13" lengthAdjust="spacing" textLength="85" x="83" y="1065.8936">writes the date</text><polygon fill="#181818" points="700,1097.1016,710,1101.1016,700,1105.1016,704,1101.1016" style="stroke:#181818;stroke-width:1.0;"/><line style="stroke:#181818;stroke-width:1.0;" x1="454" x2="706" y1="1101.1016" y2="1101.1016"/><text fill="#000000" font-family="sans-serif" font-size="13" font-weight="bold" lengthAdjust="spacing" textLength="14" x="461" y="1096.2451">22</text><text fill="#000000" font-family="sans-serif" font-size="13" lengthAdjust="spacing" textLength="155" x="479" y="1096.2451">date = setDate(writedDate)</text><polygon fill="#181818" points="1802,1127.4531,1812,1131.4531,1802,1135.4531,1806,1131.4531" style="stroke:#181818;stroke-width:1.0;"/><line style="stroke:#181818;stroke-width:1.0;" x1="722" x2="1808" y1="1131.4531" y2="1131.4531"/><text fill="#000000" font-family="sans-serif" font-size="13" font-weight="bold" lengthAdjust="spacing" textLength="14" x="729" y="1126.5967">23</text><text fill="#000000" font-family="sans-serif" font-size="13" lengthAdjust="spacing" textLength="114" x="747" y="1126.5967">setDate(writedDate)</text><polygon fill="#181818" points="1447.5,1187.8047,1457.5,1191.8047,1447.5,1195.8047,1451.5,1191.8047" style="stroke:#181818;stroke-width:1.0;"/><line style="stroke:#181818;stroke-width:1.0;" x1="722" x2="1453.5" y1="1191.8047" y2="1191.8047"/><text fill="#000000" font-family="sans-serif" font-size="13" font-weight="bold" lengthAdjust="spacing" textLength="14" x="729" y="1186.9482">24</text><text fill="#000000" font-family="sans-serif" font-size="13" lengthAdjust="spacing" textLength="195" x="747" y="1186.9482">available = confirmDateAvailability</text><polygon fill="#181818" points="69,1255.1563,59,1259.1563,69,1263.1563,65,1259.1563" style="stroke:#181818;stroke-width:1.0;"/><line style="stroke:#181818;stroke-width:1.0;stroke-dasharray:2.0,2.0;" x1="63" x2="448" y1="1259.1563" y2="1259.1563"/><text fill="#000000" font-family="sans-serif" font-size="13" font-weight="bold" lengthAdjust="spacing" textLength="14" x="75" y="1254.2998">25</text><text fill="#000000" font-family="sans-serif" font-size="13" lengthAdjust="spacing" textLength="283" x="93" y="1254.2998">confirms if day is available and asks to write time</text><path d="M10,1274.1563 L83,1274.1563 L83,1282.5078 L73,1292.5078 L10,1292.5078 L10,1274.1563 " fill="#EEEEEE" style="stroke:#000000;stroke-width:1.5;"/><rect fill="none" height="333.0703" style="stroke:#000000;stroke-width:1.5;" width="2077.5" x="10" y="1274.1563"/><text fill="#000000" font-family="sans-serif" font-size="13" font-weight="bold" lengthAdjust="spacing" textLength="28" x="25" y="1288.6514">loop</text><text fill="#000000" font-family="sans-serif" font-size="11" font-weight="bold" lengthAdjust="spacing" textLength="137" x="98" y="1287.5752">[until writes a right time]</text><polygon fill="#181818" points="432,1310.8594,442,1314.8594,432,1318.8594,436,1314.8594" style="stroke:#181818;stroke-width:1.0;"/><line style="stroke:#181818;stroke-width:1.0;" x1="58" x2="438" y1="1314.8594" y2="1314.8594"/><text fill="#000000" font-family="sans-serif" font-size="13" font-weight="bold" lengthAdjust="spacing" textLength="14" x="65" y="1310.0029">26</text><text fill="#000000" font-family="sans-serif" font-size="13" lengthAdjust="spacing" textLength="63" x="83" y="1310.0029">writes time</text><polygon fill="#181818" points="700,1341.2109,710,1345.2109,700,1349.2109,704,1345.2109" style="stroke:#181818;stroke-width:1.0;"/><line style="stroke:#181818;stroke-width:1.0;" x1="454" x2="706" y1="1345.2109" y2="1345.2109"/><text fill="#000000" font-family="sans-serif" font-size="13" font-weight="bold" lengthAdjust="spacing" textLength="14" x="461" y="1340.3545">27</text><text fill="#000000" font-family="sans-serif" font-size="13" lengthAdjust="spacing" textLength="157" x="479" y="1340.3545">time = setTime(writedTime)</text><polygon fill="#181818" points="1886.5,1371.5625,1896.5,1375.5625,1886.5,1379.5625,1890.5,1375.5625" style="stroke:#181818;stroke-width:1.0;"/><line style="stroke:#181818;stroke-width:1.0;" x1="722" x2="1892.5" y1="1375.5625" y2="1375.5625"/><text fill="#000000" font-family="sans-serif" font-size="13" font-weight="bold" lengthAdjust="spacing" textLength="14" x="729" y="1370.7061">28</text><text fill="#000000" font-family="sans-serif" font-size="13" lengthAdjust="spacing" textLength="116" x="747" y="1370.7061">setTime(writedTime)</text><polygon fill="#181818" points="1447.5,1431.9141,1457.5,1435.9141,1447.5,1439.9141,1451.5,1435.9141" style="stroke:#181818;stroke-width:1.0;"/><line style="stroke:#181818;stroke-width:1.0;" x1="722" x2="1453.5" y1="1435.9141" y2="1435.9141"/><text fill="#000000" font-family="sans-serif" font-size="13" font-weight="bold" lengthAdjust="spacing" textLength="14" x="729" y="1431.0576">29</text><text fill="#000000" font-family="sans-serif" font-size="13" lengthAdjust="spacing" textLength="196" x="747" y="1431.0576">available = confirmTimeAvailability</text><polygon fill="#181818" points="1447.5,1492.2656,1457.5,1496.2656,1447.5,1500.2656,1451.5,1496.2656" style="stroke:#181818;stroke-width:1.0;"/><line style="stroke:#181818;stroke-width:1.0;" x1="722" x2="1453.5" y1="1496.2656" y2="1496.2656"/><text fill="#000000" font-family="sans-serif" font-size="13" font-weight="bold" lengthAdjust="spacing" textLength="14" x="729" y="1491.4092">30</text><text fill="#000000" font-family="sans-serif" font-size="13" lengthAdjust="spacing" textLength="506" x="747" y="1491.4092">app = createAppiontment(SNSUsernumber, vaccineType, vaccinationCenter, date, time)</text><polygon fill="#181818" points="1968.5,1522.6172,1978.5,1526.6172,1968.5,1530.6172,1972.5,1526.6172" style="stroke:#181818;stroke-width:1.0;"/><line style="stroke:#181818;stroke-width:1.0;stroke-dasharray:2.0,2.0;" x1="1464.5" x2="1974.5" y1="1526.6172" y2="1526.6172"/><text fill="#000000" font-family="sans-serif" font-size="13" font-weight="bold" lengthAdjust="spacing" textLength="14" x="1471.5" y="1521.7607">31</text><text fill="#000000" font-family="sans-serif" font-size="13" lengthAdjust="spacing" textLength="469" x="1489.5" y="1521.7607">createAppiontment(SNSUsernumber, vaccineType, vaccinationCenter, date, time)</text><rect fill="#E2E2F0" height="31.6094" rx="2.5" ry="2.5" style="stroke:#181818;stroke-width:0.5;" width="97" x="1980.5" y="1504.2656"/><text fill="#000000" font-family="sans-serif" font-size="14" lengthAdjust="spacing" textLength="83" x="1987.5" y="1525.7988">:Appointment</text><polygon fill="#181818" points="1447.5,1565.2266,1457.5,1569.2266,1447.5,1573.2266,1451.5,1569.2266" style="stroke:#181818;stroke-width:1.0;"/><line style="stroke:#181818;stroke-width:1.0;" x1="722" x2="1453.5" y1="1569.2266" y2="1569.2266"/><text fill="#000000" font-family="sans-serif" font-size="13" font-weight="bold" lengthAdjust="spacing" textLength="14" x="729" y="1564.3701">32</text><text fill="#000000" font-family="sans-serif" font-size="13" lengthAdjust="spacing" textLength="206" x="747" y="1564.3701">getScheduleData(SNSUserNumber)</text><polygon fill="#181818" points="69,1648.9297,59,1652.9297,69,1656.9297,65,1652.9297" style="stroke:#181818;stroke-width:1.0;"/><line style="stroke:#181818;stroke-width:1.0;stroke-dasharray:2.0,2.0;" x1="63" x2="448" y1="1652.9297" y2="1652.9297"/><text fill="#000000" font-family="sans-serif" font-size="13" font-weight="bold" lengthAdjust="spacing" textLength="14" x="75" y="1639.8975">33</text><text fill="#000000" font-family="sans-serif" font-size="13" lengthAdjust="spacing" textLength="275" x="93" y="1631.7217">confirms if it's possible to schedule the vaccine,</text><text fill="#000000" font-family="sans-serif" font-size="13" lengthAdjust="spacing" textLength="229" x="97" y="1648.0732">and asks for authorization to send SMS</text><path d="M10,1667.9297 L71,1667.9297 L71,1676.2813 L61,1686.2813 L10,1686.2813 L10,1667.9297 " fill="#EEEEEE" style="stroke:#000000;stroke-width:1.5;"/><rect fill="none" height="79.0547" style="stroke:#000000;stroke-width:1.5;" width="2134.5" x="10" y="1667.9297"/><text fill="#000000" font-family="sans-serif" font-size="13" font-weight="bold" lengthAdjust="spacing" textLength="16" x="25" y="1682.4248">alt</text><text fill="#000000" font-family="sans-serif" font-size="11" font-weight="bold" lengthAdjust="spacing" textLength="100" x="86" y="1681.3486">[wants to receive]</text><polygon fill="#181818" points="432,1704.6328,442,1708.6328,432,1712.6328,436,1708.6328" style="stroke:#181818;stroke-width:1.0;"/><line style="stroke:#181818;stroke-width:1.0;" x1="58" x2="438" y1="1708.6328" y2="1708.6328"/><text fill="#000000" font-family="sans-serif" font-size="13" font-weight="bold" lengthAdjust="spacing" textLength="14" x="65" y="1703.7764">34</text><text fill="#000000" font-family="sans-serif" font-size="13" lengthAdjust="spacing" textLength="206" x="83" y="1703.7764">selects if wants to receive message</text><polygon fill="#181818" points="2099,1734.9844,2109,1738.9844,2099,1742.9844,2103,1738.9844" style="stroke:#181818;stroke-width:1.0;"/><line style="stroke:#181818;stroke-width:1.0;" x1="454" x2="2105" y1="1738.9844" y2="1738.9844"/><text fill="#000000" font-family="sans-serif" font-size="13" font-weight="bold" lengthAdjust="spacing" textLength="14" x="461" y="1734.1279">35</text><text fill="#000000" font-family="sans-serif" font-size="13" lengthAdjust="spacing" textLength="139" x="479" y="1734.1279">mStore = sendMessage</text><polygon fill="#181818" points="64,1772.3359,54,1776.3359,64,1780.3359,60,1776.3359" style="stroke:#181818;stroke-width:1.0;"/><line style="stroke:#181818;stroke-width:1.0;stroke-dasharray:2.0,2.0;" x1="58" x2="448" y1="1776.3359" y2="1776.3359"/><text fill="#000000" font-family="sans-serif" font-size="13" font-weight="bold" lengthAdjust="spacing" textLength="14" x="70" y="1771.4795">36</text><text fill="#000000" font-family="sans-serif" font-size="13" lengthAdjust="spacing" textLength="165" x="88" y="1771.4795">confirms SNSUser's choices</text><!--MD5=[00f5510e0785d555830ff2a26d5aaa50]
@startuml
autonumber
'hide footbox
actor "SNS User" as u

participant ":AppointmentUI" as UI
participant ":AppointmentController" as CTRL
participant ":Company" as COMP
participant "uStore:SNSUserStore" as uSTORE
participant "vtStore:VaccineTypeStore" as vtSTORE
participant "store:AppointmentStore" as STORE
participant "vcStore:VaccinationCenterStore" as vcSTORE
participant ":DateUtils" as date
participant ":TimeUtils" as time
participant ":Appointment" as APP
participant ":SMS" as sms


activate u
u -> UI : selects the option to schedule a vaccine
activate UI
    loop until snsNumber is correct
UI - -> u : requests the SNSUser number
deactivate UI

u -> UI : types SNSUser number
activate UI
UI->CTRL: uStore = getSNSUserStore
activate CTRL
CTRL -> COMP: uStore = getSNSUserStore
activate COMP

deactivate COMP
CTRL -> uSTORE: isCorrect = confirmSNSUserNumber(userEmail)
activate uSTORE
'DUVIDA
deactivate uSTORE
deactivate CTRL
end

UI -> CTRL: vtStore = getVaccineTypeStore
activate CTRL
CTRL-> COMP: vtStore = getVaccineTypeStore
activate COMP
deactivate COMP
CTRL -> vtSTORE: vaccine = getListOfVaccineTypesAndSelectOne
activate vtSTORE
deactivate vtSTORE
deactivate CTRL
UI - -> u : shows list of available vaccine types and asks to select one
deactivate UI
    loop until select a vaccine type that has ner scheduled
u -> UI : selects a vaccine type
'MISSING VERIFICATION PART!!
activate UI
UI -> CTRL: store = getScheduledVaccinesStore
activate CTRL
CTRL -> COMP: store = getScheduledVaccinesStore
activate COMP
deactivate COMP
CTRL -> STORE: verifyIfCanSchedulle(option, snsNumber)
activate STORE
end
activate STORE
deactivate STORE
deactivate CTRL

UI -> CTRL: vcStore = getVaccinationCentersStore
activate CTRL
CTRL -> COMP: vcStore = getVaccinationCentersStore
activate COMP
deactivate COMP

CTRL -> vcSTORE: getListOfVaccinationCenters
activate vcSTORE
deactivate vcSTORE
deactivate CTRL
UI - -> u : shows list of vaccinations centers to schedule the vaccine \n and asks to select one
'MISSING PARTS




 loop until chooses a vaccination center
u -> UI :selects a vaccination center
end
activate UI
loop until writes a right date
UI - -> u : asks to write date
deactivate UI

u -> UI : writes the date
activate UI
UI -> CTRL: date = setDate(writedDate)
activate CTRL
CTRL-> date: setDate(writedDate)
activate date
deactivate date
CTRL -> STORE: available = confirmDateAvailability
'MISSING PARTS
activate STORE
'MISSING PARTS
deactivate CTRL
'MISSING PARTS
deactivate STORE
'MISSING PARTS
end
UI - -> u : confirms if day is available and asks to write time

'MISSING PARTS
deactivate UI

loop until writes a right time
u -> UI : writes time
activate UI
UI -> CTRL: time = setTime(writedTime)
activate CTRL
CTRL-> time: setTime(writedTime)
activate time
deactivate time
CTRL -> STORE: available = confirmTimeAvailability
'MISSING PARTS
activate STORE
'MISSING PARTS
deactivate STORE
'MISSING PARTS
CTRL -> STORE: app = createAppiontment(SNSUsernumber, vaccineType, vaccinationCenter, date, time)
'MISSING PARTS
activate STORE
'MISSING PARTS
STORE - -> APP**:createAppiontment(SNSUsernumber, vaccineType, vaccinationCenter, date, time)
deactivate STORE
CTRL -> STORE: getScheduleData(SNSUserNumber)
'TO SHOW INFO ABOUT THE SCHEDULE
activate STORE
deactivate STORE
deactivate CTRL
end
UI - -> u : confirms if it's possible to schedule the vaccine,  \n and asks for authorization to send SMS
deactivate UI

alt wants to receive
u -> UI : selects if wants to receive message
activate UI
UI -> sms: mStore = sendMessage

end
UI - -> u : confirms SNSUser's choices
deactivate UI

deactivate u


@enduml

@startuml
autonumber
actor "SNS User" as u

participant ":AppointmentUI" as UI
participant ":AppointmentController" as CTRL
participant ":Company" as COMP
participant "uStore:SNSUserStore" as uSTORE
participant "vtStore:VaccineTypeStore" as vtSTORE
participant "store:AppointmentStore" as STORE
participant "vcStore:VaccinationCenterStore" as vcSTORE
participant ":DateUtils" as date
participant ":TimeUtils" as time
participant ":Appointment" as APP
participant ":SMS" as sms


activate u
u -> UI : selects the option to schedule a vaccine
activate UI
    loop until snsNumber is correct
UI - -> u : requests the SNSUser number
deactivate UI

u -> UI : types SNSUser number
activate UI
UI->CTRL: uStore = getSNSUserStore
activate CTRL
CTRL -> COMP: uStore = getSNSUserStore
activate COMP

deactivate COMP
CTRL -> uSTORE: isCorrect = confirmSNSUserNumber(userEmail)
activate uSTORE
deactivate uSTORE
deactivate CTRL
end

UI -> CTRL: vtStore = getVaccineTypeStore
activate CTRL
CTRL-> COMP: vtStore = getVaccineTypeStore
activate COMP
deactivate COMP
CTRL -> vtSTORE: vaccine = getListOfVaccineTypesAndSelectOne
activate vtSTORE
deactivate vtSTORE
deactivate CTRL
UI - -> u : shows list of available vaccine types and asks to select one
deactivate UI
    loop until select a vaccine type that has ner scheduled
u -> UI : selects a vaccine type
activate UI
UI -> CTRL: store = getScheduledVaccinesStore
activate CTRL
CTRL -> COMP: store = getScheduledVaccinesStore
activate COMP
deactivate COMP
CTRL -> STORE: verifyIfCanSchedulle(option, snsNumber)
activate STORE
end
activate STORE
deactivate STORE
deactivate CTRL

UI -> CTRL: vcStore = getVaccinationCentersStore
activate CTRL
CTRL -> COMP: vcStore = getVaccinationCentersStore
activate COMP
deactivate COMP

CTRL -> vcSTORE: getListOfVaccinationCenters
activate vcSTORE
deactivate vcSTORE
deactivate CTRL
UI - -> u : shows list of vaccinations centers to schedule the vaccine \n and asks to select one




 loop until chooses a vaccination center
u -> UI :selects a vaccination center
end
activate UI
loop until writes a right date
UI - -> u : asks to write date
deactivate UI

u -> UI : writes the date
activate UI
UI -> CTRL: date = setDate(writedDate)
activate CTRL
CTRL-> date: setDate(writedDate)
activate date
deactivate date
CTRL -> STORE: available = confirmDateAvailability
activate STORE
deactivate CTRL
deactivate STORE
end
UI - -> u : confirms if day is available and asks to write time

deactivate UI

loop until writes a right time
u -> UI : writes time
activate UI
UI -> CTRL: time = setTime(writedTime)
activate CTRL
CTRL-> time: setTime(writedTime)
activate time
deactivate time
CTRL -> STORE: available = confirmTimeAvailability
activate STORE
deactivate STORE
CTRL -> STORE: app = createAppiontment(SNSUsernumber, vaccineType, vaccinationCenter, date, time)
activate STORE
STORE - -> APP**:createAppiontment(SNSUsernumber, vaccineType, vaccinationCenter, date, time)
deactivate STORE
CTRL -> STORE: getScheduleData(SNSUserNumber)
activate STORE
deactivate STORE
deactivate CTRL
end
UI - -> u : confirms if it's possible to schedule the vaccine,  \n and asks for authorization to send SMS
deactivate UI

alt wants to receive
u -> UI : selects if wants to receive message
activate UI
UI -> sms: mStore = sendMessage

end
UI - -> u : confirms SNSUser's choices
deactivate UI

deactivate u


@enduml

PlantUML version 1.2022.5(Sat Apr 30 11:55:52 BST 2022)
(GPL source distribution)
Java Runtime: OpenJDK Runtime Environment
JVM: OpenJDK 64-Bit Server VM
Default Encoding: Cp1252
Language: pt
Country: PT
--></g></svg>