@startuml
hide methods
left to right direction
skinparam classAttributeIconSize 0
'skinparam linetype ortho
skinparam ranksep 100
skinparam nodesep 100


class VaccinationCenter{
type
name
phoneNumber
e-mailAddress
faxNumber
websiteAddress
openingHour
closingHour
slotDuration
MaxNumberOfVaccinesPerSlot
centerCapacity
}

class HealthCareCenter {
ARS
AGES
}

class MassCommunityVaccinationCenter {
}

class Message{
messageContent
}

class Appointment {
}

class SNSUser {
SNSUserNumber
phoneNumber
emailAddress
Birthdate
CitizenCardNumber
Gender
}

class SMS{
number
}


class Time{
hour
minute
second
}

class AgeGroup{
minimumAge
maximumAge
}

class Date{
day
month
year
}

class VaccineType{
name
}

class Vaccine{
name
brand
}


Message "1"--"1" Date: has a certain >
Message "1"--"1" SNSUser: received by >
Message "1"--"1" Time: has a certain >


VaccinationCenter "1" -- "*" Appointment: is place of >

HealthCareCenter "1" -- "*" VaccineType: administers >
HealthCareCenter --|> VaccinationCenter
'HealthCareCenter "*" -- "1" Administrator : registered by >
MassCommunityVaccinationCenter --|> VaccinationCenter
MassCommunityVaccinationCenter "1" -- "1" VaccineType: administers >

SMS "1"--"1" Appointment: to remind of >
SMS--|>Message

Appointment "*" -- "1" Vaccine: to take >
Appointment "1"--"1" Date: has a certain >
Appointment "*"--"1" SNSUser:created by >
Appointment "1"--"1" Time: has a certain >

Vaccine "*" -- "1" VaccineType : is of >

SNSUser "*"--"1" AgeGroup: belongs to >

@enduml