<?xml version="1.0" encoding="UTF-8" standalone="no"?><svg xmlns="http://www.w3.org/2000/svg" xmlns:xlink="http://www.w3.org/1999/xlink" contentStyleType="text/css" height="1932px" preserveAspectRatio="none" style="width:668px;height:1932px;background:#FFFFFF;" version="1.1" viewBox="0 0 668 1932" width="668px" zoomAndPan="magnify"><defs/><g><!--MD5=[99b31deea5d7419a569cd5090bf83263]
cluster System--><g id="cluster_System"><rect height="1919" rx="2.5" ry="2.5" style="stroke:#181818;stroke-width:1.0;fill:none;" width="490" x="172" y="7"/><text fill="#000000" font-family="sans-serif" font-size="14" font-weight="bold" lengthAdjust="spacing" textLength="50" x="392" y="23.5332">System</text></g><g id="elem_UC1"><ellipse cx="417.011" cy="65.2022" fill="#F1F1F1" rx="96.511" ry="21.7022" style="stroke:#181818;stroke-width:0.5;"/><text fill="#000000" font-family="sans-serif" font-size="14" lengthAdjust="spacing" textLength="153" x="340.511" y="68.9307">UC1 - Schedule Vaccine</text></g><g id="elem_UC2"><ellipse cx="417.2297" cy="370.8459" fill="#F1F1F1" rx="132.2297" ry="28.8459" style="stroke:#181818;stroke-width:0.5;"/><text fill="#000000" font-family="sans-serif" font-size="14" lengthAdjust="spacing" textLength="231" x="301.7297" y="374.5745">UC2 - Issue EU COVID-19 Certificate</text></g><g id="elem_UC3"><ellipse cx="416.9506" cy="946.0901" fill="#F1F1F1" rx="100.9506" ry="22.5901" style="stroke:#181818;stroke-width:0.5;"/><text fill="#000000" font-family="sans-serif" font-size="14" lengthAdjust="spacing" textLength="163" x="335.4506" y="949.8186">UC3 - Register SNS users</text></g><g id="elem_UC4"><ellipse cx="416.805" cy="465.761" fill="#F1F1F1" rx="139.305" ry="30.261" style="stroke:#181818;stroke-width:0.5;"/><text fill="#000000" font-family="sans-serif" font-size="14" lengthAdjust="spacing" textLength="246" x="293.805" y="469.4895">UC4 - Record administration of vaccine</text></g><g id="elem_UC5"><ellipse cx="416.7768" cy="757.7554" fill="#F1F1F1" rx="189.2768" ry="40.2554" style="stroke:#181818;stroke-width:0.5;"/><text fill="#000000" font-family="sans-serif" font-size="14" lengthAdjust="spacing" textLength="350" x="241.7768" y="761.4839">UC5 - Confirm that the user is ready to take the vaccine</text></g><g id="elem_UC7"><ellipse cx="416.8414" cy="861.0683" fill="#F1F1F1" rx="123.3414" ry="27.0683" style="stroke:#181818;stroke-width:0.5;"/><text fill="#000000" font-family="sans-serif" font-size="14" lengthAdjust="spacing" textLength="212" x="310.8414" y="864.7968">UC7 - Register Healthcare Center</text></g><g id="elem_UC8"><ellipse cx="416.8325" cy="1406.1665" fill="#F1F1F1" rx="228.8325" ry="48.1665" style="stroke:#181818;stroke-width:0.5;"/><text fill="#000000" font-family="sans-serif" font-size="14" lengthAdjust="spacing" textLength="431" x="201.3325" y="1409.895">UC8 - Confirm SNS user scheduled the vaccine for that day and time</text></g><g id="elem_UC9"><ellipse cx="416.8414" cy="1516.0683" fill="#F1F1F1" rx="123.3414" ry="27.0683" style="stroke:#181818;stroke-width:0.5;"/><text fill="#000000" font-family="sans-serif" font-size="14" lengthAdjust="spacing" textLength="212" x="310.8414" y="1519.7968">UC9 - Register vaccination center</text></g><g id="elem_UC10"><ellipse cx="416.9418" cy="1026.9884" fill="#F1F1F1" rx="105.4418" ry="23.4884" style="stroke:#181818;stroke-width:0.5;"/><text fill="#000000" font-family="sans-serif" font-size="14" lengthAdjust="spacing" textLength="173" x="330.4418" y="1030.7169">UC10 - Register employees</text></g><g id="elem_UC11"><ellipse cx="416.805" cy="1115.761" fill="#F1F1F1" rx="139.305" ry="30.261" style="stroke:#181818;stroke-width:0.5;"/><text fill="#000000" font-family="sans-serif" font-size="14" lengthAdjust="spacing" textLength="246" x="293.805" y="1119.4895">UC11 - Obtain list of employees by role</text></g><g id="elem_UC12"><ellipse cx="416.79" cy="1210.158" fill="#F1F1F1" rx="131.29" ry="28.658" style="stroke:#181818;stroke-width:0.5;"/><text fill="#000000" font-family="sans-serif" font-size="14" lengthAdjust="spacing" textLength="229" x="302.29" y="1213.8865">UC12 - Register new type of vaccine</text></g><g id="elem_UC13"><ellipse cx="417.0226" cy="1297.8045" fill="#F1F1F1" rx="109.5226" ry="24.3045" style="stroke:#181818;stroke-width:0.5;"/><text fill="#000000" font-family="sans-serif" font-size="14" lengthAdjust="spacing" textLength="182" x="326.0226" y="1301.533">UC13 - Register new vaccine</text></g><g id="elem_UC14"><ellipse cx="416.8193" cy="1597.9639" fill="#F1F1F1" rx="87.8193" ry="19.9639" style="stroke:#181818;stroke-width:0.5;"/><text fill="#000000" font-family="sans-serif" font-size="14" lengthAdjust="spacing" textLength="133" x="350.3193" y="1601.6924">UC14 - Obtain charts</text></g><g id="elem_UC15"><ellipse cx="417.0445" cy="1692.0089" fill="#F1F1F1" rx="180.5445" ry="38.5089" style="stroke:#181818;stroke-width:0.5;"/><text fill="#000000" font-family="sans-serif" font-size="14" lengthAdjust="spacing" textLength="332" x="251.0445" y="1695.7374">UC15 - Evaluate performance of vaccination process</text></g><g id="elem_UC16"><ellipse cx="416.9823" cy="1792.1965" fill="#F1F1F1" rx="121.4823" ry="26.6965" style="stroke:#181818;stroke-width:0.5;"/><text fill="#000000" font-family="sans-serif" font-size="14" lengthAdjust="spacing" textLength="208" x="312.9823" y="1795.925">UC16 - Obtain generated reports</text></g><g id="elem_UC17"><ellipse cx="417.1994" cy="562.1399" fill="#F1F1F1" rx="141.1994" ry="30.6399" style="stroke:#181818;stroke-width:0.5;"/><text fill="#000000" font-family="sans-serif" font-size="14" lengthAdjust="spacing" textLength="250" x="292.1994" y="565.8684">UC17 - Check SNS user's health history</text></g><g id="elem_UC18"><ellipse cx="417.0728" cy="1881.8146" fill="#F1F1F1" rx="127.0728" ry="27.8146" style="stroke:#181818;stroke-width:0.5;"/><text fill="#000000" font-family="sans-serif" font-size="14" lengthAdjust="spacing" textLength="220" x="307.0728" y="1885.5431">UC18 - Analyze other center's data</text></g><g id="elem_UC19"><ellipse cx="417.1055" cy="655.2211" fill="#F1F1F1" rx="126.6055" ry="27.7211" style="stroke:#181818;stroke-width:0.5;"/><text fill="#000000" font-family="sans-serif" font-size="14" lengthAdjust="spacing" textLength="219" x="307.6055" y="658.9496">UC19 - Register Adverse reactions</text></g><g id="elem_UC20"><ellipse cx="416.8779" cy="161.0756" fill="#F1F1F1" rx="185.8779" ry="39.5756" style="stroke:#181818;stroke-width:0.5;"/><text fill="#000000" font-family="sans-serif" font-size="14" lengthAdjust="spacing" textLength="343" x="245.3779" y="164.8041">UC20 - Check list of SNS users ready to be vaccinated</text></g><g id="elem_UC21"><ellipse cx="417.0928" cy="270.9186" fill="#F1F1F1" rx="165.0928" ry="35.4186" style="stroke:#181818;stroke-width:0.5;"/><text fill="#000000" font-family="sans-serif" font-size="14" lengthAdjust="spacing" textLength="300" x="267.0928" y="274.6471">UC21 - Check which vaccine to be administered</text></g><!--MD5=[6994468d0abac0210283409f53c085ad]
entity snsUser--><g id="elem_snsUser"><ellipse cx="67" cy="34.5" fill="#F1F1F1" rx="8" ry="8" style="stroke:#181818;stroke-width:0.5;"/><path d="M67,42.5 L67,69.5 M54,50.5 L80,50.5 M67,69.5 L54,84.5 M67,69.5 L80,84.5 " fill="none" style="stroke:#181818;stroke-width:0.5;"/><text fill="#000000" font-family="sans-serif" font-size="14" lengthAdjust="spacing" textLength="59" x="37.5" y="100.5332">SNS user</text></g><!--MD5=[87d66015e0fe95d70bf3fa68103252e8]
entity nurse--><g id="elem_nurse"><ellipse cx="67" cy="388.5" fill="#F1F1F1" rx="8" ry="8" style="stroke:#181818;stroke-width:0.5;"/><path d="M67,396.5 L67,423.5 M54,404.5 L80,404.5 M67,423.5 L54,438.5 M67,423.5 L80,438.5 " fill="none" style="stroke:#181818;stroke-width:0.5;"/><text fill="#000000" font-family="sans-serif" font-size="14" lengthAdjust="spacing" textLength="37" x="48.5" y="454.5332">Nurse</text></g><!--MD5=[8df531fd36edad519192f49b4d80bdb0]
entity receptionist--><g id="elem_receptionist"><ellipse cx="67" cy="830.5" fill="#F1F1F1" rx="8" ry="8" style="stroke:#181818;stroke-width:0.5;"/><path d="M67,838.5 L67,865.5 M54,846.5 L80,846.5 M67,865.5 L54,880.5 M67,865.5 L80,880.5 " fill="none" style="stroke:#181818;stroke-width:0.5;"/><text fill="#000000" font-family="sans-serif" font-size="14" lengthAdjust="spacing" textLength="78" x="28" y="896.5332">Receptionist</text></g><!--MD5=[79a439086b036a57b90a01d7b2f8bbd1]
entity admin--><g id="elem_admin"><ellipse cx="67" cy="1179.5" fill="#F1F1F1" rx="8" ry="8" style="stroke:#181818;stroke-width:0.5;"/><path d="M67,1187.5 L67,1214.5 M54,1195.5 L80,1195.5 M67,1214.5 L54,1229.5 M67,1214.5 L80,1229.5 " fill="none" style="stroke:#181818;stroke-width:0.5;"/><text fill="#000000" font-family="sans-serif" font-size="14" lengthAdjust="spacing" textLength="83" x="25.5" y="1245.5332">Administrator</text></g><!--MD5=[4d302acd527bc9f790d99ea65b823e73]
entity coordinator--><g id="elem_coordinator"><ellipse cx="67" cy="1711.5" fill="#F1F1F1" rx="8" ry="8" style="stroke:#181818;stroke-width:0.5;"/><path d="M67,1719.5 L67,1746.5 M54,1727.5 L80,1727.5 M67,1746.5 L54,1761.5 M67,1746.5 L80,1761.5 " fill="none" style="stroke:#181818;stroke-width:0.5;"/><text fill="#000000" font-family="sans-serif" font-size="14" lengthAdjust="spacing" textLength="122" x="6" y="1777.5332">Center Coordinator</text></g><!--MD5=[48430672b9bace5ed8ed542a00bd895b]
link snsUser to UC1--><g id="link_snsUser_UC1"><path d="M96.77,65 C145.22,65 245.15,65 320.37,65 " fill="none" id="snsUser-UC1" style="stroke:#181818;stroke-width:1.0;"/></g><!--MD5=[82f64621edba5c3b20c09d5802f5d0cb]
link admin to UC11--><g id="link_admin_UC11"><path d="M108.61,1187.67 C125.36,1179.22 145.21,1170.17 164,1164 C206.84,1149.92 255.21,1139.47 298.04,1131.98 " fill="none" id="admin-UC11" style="stroke:#181818;stroke-width:1.0;"/></g><!--MD5=[870700a179d39c5354006a176d0faf92]
link receptionist to UC5--><g id="link_receptionist_UC5"><path d="M106.45,840.69 C123.7,832.18 144.51,822.72 164,816 C199.33,803.81 238.33,793.41 274.88,784.93 " fill="none" id="receptionist-UC5" style="stroke:#181818;stroke-width:1.0;"/></g><!--MD5=[a35c5d2ea00bcb370b8660146f054c06]
link receptionist to UC7--><g id="link_receptionist_UC7"><path d="M106.24,861 C151.08,861 227.67,861 293.47,861 " fill="none" id="receptionist-UC7" style="stroke:#181818;stroke-width:1.0;"/></g><!--MD5=[e623d35dd041d64a849fc0d6ed7bba7e]
link receptionist to UC3--><g id="link_receptionist_UC3"><path d="M106.31,881.43 C123.53,889.85 144.36,899.02 164,905 C215.94,920.81 275.88,930.88 324.26,937.08 " fill="none" id="receptionist-UC3" style="stroke:#181818;stroke-width:1.0;"/></g><!--MD5=[5826e13423bb2507f5811bd6926f5554]
link nurse to UC2--><g id="link_nurse_UC2"><path d="M85.74,416.55 C125.63,411.05 225.14,397.33 304.57,386.37 " fill="none" id="nurse-UC2" style="stroke:#181818;stroke-width:1.0;"/></g><!--MD5=[5111b683534c92e9e7d6b3d76459fcd0]
link nurse to UC19--><g id="link_nurse_UC19"><path d="M76.62,458.37 C88.45,502.53 114.17,572.83 164,610 C199.98,636.84 246.79,649.5 290.29,655 " fill="none" id="nurse-UC19" style="stroke:#181818;stroke-width:1.0;"/></g><!--MD5=[2e13f11524f46488bfe6ddb0138c4ecb]
link nurse to UC4--><g id="link_nurse_UC4"><path d="M85.74,421.4 C124.52,426.63 219.65,439.48 297.91,450.05 " fill="none" id="nurse-UC4" style="stroke:#181818;stroke-width:1.0;"/></g><!--MD5=[023c018432a12d31d9b28dcbfd022059]
link nurse to UC20--><g id="link_nurse_UC20"><path d="M75.93,379.67 C87.3,333.76 112.78,258.9 164,218 C188.01,198.83 217.21,185.83 247.11,177.09 " fill="none" id="nurse-UC20" style="stroke:#181818;stroke-width:1.0;"/></g><!--MD5=[273862cdd49d0668aaaeac8d3a26b956]
link nurse to UC21--><g id="link_nurse_UC21"><path d="M85.76,394.77 C103.19,372.82 131.79,341.34 164,324 C196.28,306.63 233.74,294.94 269.74,287.09 " fill="none" id="nurse-UC21" style="stroke:#181818;stroke-width:1.0;"/></g><!--MD5=[cce4dd9dccfd86885c4bf5399481510a]
link nurse to UC17--><g id="link_nurse_UC17"><path d="M85.68,443.37 C103.06,465.42 131.63,496.97 164,514 C200.56,533.23 243.71,544.82 283.87,551.79 " fill="none" id="nurse-UC17" style="stroke:#181818;stroke-width:1.0;"/></g><!--MD5=[42ba3c79aa54f6aa5590ffb0c1c4d0b4]
link coordinator to UC14--><g id="link_coordinator_UC14"><path d="M93.04,1702.91 C110.12,1679.61 134.9,1651.61 164,1636 C214.4,1608.97 278.14,1599.55 328.91,1596.85 " fill="none" id="coordinator-UC14" style="stroke:#181818;stroke-width:1.0;"/></g><!--MD5=[ab5c08cbc12cecfadf101c6b421cf747]
link coordinator to UC15--><g id="link_coordinator_UC15"><path d="M128.22,1733.35 C166.54,1727.84 217.98,1720.45 266.77,1713.44 " fill="none" id="coordinator-UC15" style="stroke:#181818;stroke-width:1.0;"/></g><!--MD5=[441c03a8871b2301c4e2f0f31ab574b4]
link coordinator to UC16--><g id="link_coordinator_UC16"><path d="M128.22,1750.65 C179.58,1758.03 254.48,1768.79 315,1777.49 " fill="none" id="coordinator-UC16" style="stroke:#181818;stroke-width:1.0;"/></g><!--MD5=[ceedcd86907d982e68a98fcbde707650]
link coordinator to UC18--><g id="link_coordinator_UC18"><path d="M98.18,1781.07 C115.36,1800.59 138.52,1822.81 164,1836 C203.79,1856.6 251.29,1868.11 294.27,1874.49 " fill="none" id="coordinator-UC18" style="stroke:#181818;stroke-width:1.0;"/></g><!--MD5=[e80e3ed74176b24dc386a0bf62e40fe3]
link admin to UC3--><g id="link_admin_UC3"><path d="M73.21,1170.58 C82.17,1119.46 105.58,1031.49 164,986 C207.6,952.05 268.55,941.69 319.58,939.99 " fill="none" id="admin-UC3" style="stroke:#181818;stroke-width:1.0;"/></g><!--MD5=[e6d45900de7ae7de5659f3cd2b4514ee]
link admin to UC8--><g id="link_admin_UC8"><path d="M87.5,1249.26 C103.99,1278.51 130.32,1317.18 164,1340 C186.37,1355.16 212.03,1366.83 238.22,1375.83 " fill="none" id="admin-UC8" style="stroke:#181818;stroke-width:1.0;"/></g><!--MD5=[3bd9573024a75a9e260fddb01e5294e2]
link admin to UC9--><g id="link_admin_UC9"><path d="M70.59,1249.15 C76.65,1307.05 96.84,1414.71 164,1471 C199.85,1501.04 248.82,1513.99 294.06,1518.82 " fill="none" id="admin-UC9" style="stroke:#181818;stroke-width:1.0;"/></g><!--MD5=[d7de013467b5cb2c3186533ed2392f3a]
link admin to UC12--><g id="link_admin_UC12"><path d="M108.6,1210 C151.81,1210 222.45,1210 285.12,1210 " fill="none" id="admin-UC12" style="stroke:#181818;stroke-width:1.0;"/></g><!--MD5=[3b84ea810314b2514d885a4aa2be8b4c]
link admin to UC13--><g id="link_admin_UC13"><path d="M108.54,1232.56 C125.28,1241.03 145.14,1250.04 164,1256 C213.17,1271.53 269.64,1281.62 316.65,1288 " fill="none" id="admin-UC13" style="stroke:#181818;stroke-width:1.0;"/></g><!--MD5=[dfd2db1a8ab03a1b37a29f31d929c176]
link admin to UC10--><g id="link_admin_UC10"><path d="M83.79,1170.8 C99.19,1137.86 125.89,1092.36 164,1068 C207.41,1040.25 263.36,1029.24 311.51,1025.5 " fill="none" id="admin-UC10" style="stroke:#181818;stroke-width:1.0;"/></g><!--MD5=[52a5de5b074650e22f85b7871e8ea8a7]
@startuml


left to right direction
rectangle System{
(UC1 - Schedule Vaccine) as UC1
(UC2 - Issue EU COVID-19 Certificate) as UC2
(UC3 - Register SNS users) as UC3
(UC4 - Record administration of vaccine) as UC4
(UC5 - Confirm that the user is ready to take the vaccine) as UC5




(UC7 - Register Healthcare Center) as UC7
(UC8 - Confirm SNS user scheduled the vaccine for that day and time) as UC8


(UC9 - Register vaccination center) as UC9
(UC10 - Register employees) as UC10
(UC11 - Obtain list of employees by role) as UC11
(UC12 - Register new type of vaccine) as UC12
(UC13 - Register new vaccine) as UC13


(UC14 - Obtain charts) as UC14
(UC15 - Evaluate performance of vaccination process) as UC15

(UC16 - Obtain generated reports) as UC16
(UC17 - Check SNS user's health history) as UC17
(UC18 - Analyze other center's data) as UC18
(UC19 - Register Adverse reactions) as UC19
(UC20 - Check list of SNS users ready to be vaccinated) as UC20
(UC21 - Check which vaccine to be administered) as UC21

}



:SNS user: as snsUser
:Nurse: as nurse
:Receptionist: as receptionist
:Administrator: as admin
:Center Coordinator: as coordinator
snsUser - - UC1
admin - - UC11
receptionist - - UC5
receptionist - - UC7
receptionist - -UC3
nurse- - UC2
nurse- - UC19
nurse- - UC4
nurse- - UC20
nurse- - UC21
nurse- -UC17
coordinator- -UC14
coordinator- -UC15
coordinator- -UC16
coordinator- -UC18
admin- -UC3
admin- -UC8
admin- -UC9
admin- -UC12
admin- - UC13
admin - - UC10






@enduml

PlantUML version 1.2022.4(Sat Apr 09 14:29:17 BST 2022)
(GPL source distribution)
Java Runtime: OpenJDK Runtime Environment
JVM: OpenJDK 64-Bit Server VM
Default Encoding: Cp1252
Language: pt
Country: PT
--></g></svg>