@startuml
hide methods
left to right direction
skinparam classAttributeIconSize 0

class Receptionist {
}

class SNSUser {
SNSUserNumber
phoneNumber
emailAddress
Birthdate
CCnumber
Gender
}

class Company{
name
}

class "Address" as Address{
street
doorNumber
buildingDivision
}

class Employee{
role
name
address
emailAdress
phoneNumber
ccNumber
}


Receptionist --|> Employee

Company "1" --  "*" SNSUser:owns >
Company "1" --  "*" Employee:employ >

SNSUser "1"--"1"Address: lives in >

@enduml