@startuml

actor ":Nurse" as Nur

activate Nur
autonumber 1

Nur -> ":System" : asks to Record the administration of a vaccine

activate ":System"

":System" --> Nur : asks to choose an SNS number from the users \n in the waiting room

deactivate ":System"

Nur -> ":System" : choose one SNS Number from the list

activate ":System"

":System" --> Nur : Show the SNS User profile and \nAsk the Nurse to choose one Vaccine

deactivate ":System"

Nur -> ":System" :  choose options from Vaccine list

activate ":System"

":System" --> Nur : asks for the LotNumber

deactivate ":System"

Nur -> ":System" : types the requested data

activate ":System"

":System" --> Nur : send a message to a SNS User when \n the recovery period is over

deactivate ":System"
deactivate Nur

@enduml