﻿name;sex;birth date;address;phone number;e-mail;sns user number;citizen card number
alexandra;F;19/03/03;rua 3;123456789;alex@mail.com;123454789;12345678
joao;M;19/03/00;rua 3;123455789;joao@mail.com;123453789;12245678
anna;F;19/03/98;rua 3;123656789;anna@mail.com;123496789;12348678